`ID`;`COMPANY_ID`;`users_id`;`HEU_MAJ`;`HEU_MAJ`
`106`;`380`;``;`2021-05-07 08:45:05`;`2021-05-07 08:45:05`
`2`;`220`;`685`;`2021-05-07 08:45:05`;`2021-05-07 08:45:05`
`8`;`220`;`692`;`2021-05-07 08:45:05`;`2021-05-07 08:45:05`
`9`;`220`;`686`;`2021-05-07 08:45:05`;`2021-05-07 08:45:05`
`10`;`220`;`693`;`2021-05-07 08:45:05`;`2021-05-07 08:45:05`
`11`;`220`;`679`;`2021-05-07 08:45:05`;`2021-05-07 08:45:05`
`12`;`220`;`705`;`2021-05-07 08:45:05`;`2021-05-07 08:45:05`
`15`;`39`;`731`;`2021-05-07 08:45:05`;`2021-05-07 08:45:05`
`16`;`39`;`746`;`2021-05-07 08:45:05`;`2021-05-07 08:45:05`
`17`;`39`;`740`;`2021-05-07 08:45:05`;`2021-05-07 08:45:05`
`18`;`39`;`738`;`2021-05-07 08:45:05`;`2021-05-07 08:45:05`
`19`;`220`;`748`;`2021-05-07 08:45:05`;`2021-05-07 08:45:05`
`21`;`39`;`742`;`2021-05-07 08:45:05`;`2021-05-07 08:45:05`
`22`;`220`;`761`;`2021-05-07 08:45:05`;`2021-05-07 08:45:05`
`23`;`39`;`741`;`2021-05-07 08:45:05`;`2021-05-07 08:45:05`
`24`;`39`;`756`;`2021-05-07 08:45:05`;`2021-05-07 08:45:05`
`25`;`34`;`781`;`2021-05-07 08:45:05`;`2021-05-07 08:45:05`
`27`;`39`;`1017`;`2021-05-07 08:45:05`;`2021-05-07 08:45:05`
`31`;`34`;`791`;`2021-05-07 08:45:05`;`2021-05-07 08:45:05`
`32`;`39`;`718`;`2021-05-07 08:45:05`;`2021-05-07 08:45:05`
`33`;`39`;`739`;`2021-05-07 08:45:05`;`2021-05-07 08:45:05`
`34`;`34`;`811`;`2021-05-07 08:45:05`;`2021-05-07 08:45:05`
`35`;`242`;`783`;`2021-05-07 08:45:05`;`2021-05-07 08:45:05`
`37`;`220`;`680`;`2021-05-07 08:45:05`;`2021-05-07 08:45:05`
`39`;`265`;``;`2021-05-07 08:45:05`;`2021-05-07 08:45:05`
`43`;`242`;`787`;`2021-08-06 16:48:56`;`2021-08-06 16:48:56`
`45`;`267`;`829`;`2021-05-07 08:45:05`;`2021-05-07 08:45:05`
`46`;`242`;`790`;`2021-05-07 08:45:05`;`2021-05-07 08:45:05`
`47`;`278`;``;`2021-05-07 08:45:05`;`2021-05-07 08:45:05`
`48`;`285`;``;`2021-05-07 08:45:05`;`2021-05-07 08:45:05`
`49`;`280`;``;`2021-05-07 08:45:05`;`2021-05-07 08:45:05`
`50`;`220`;`715`;`2021-05-07 08:45:05`;`2021-05-07 08:45:05`
`51`;`34`;`804`;`2021-05-07 08:45:05`;`2021-05-07 08:45:05`
`52`;`220`;`794`;`2021-05-07 08:45:05`;`2021-05-07 08:45:05`
`53`;`220`;`698`;`2021-05-07 08:45:05`;`2021-05-07 08:45:05`
`54`;`270`;``;`2021-05-07 08:45:05`;`2021-05-07 08:45:05`
`55`;`282`;`842`;`2021-05-07 08:45:05`;`2021-05-07 08:45:05`
`56`;`282`;`843`;`2022-02-02 15:13:36`;`2022-02-02 15:13:36`
`57`;`277`;``;`2021-05-07 08:45:05`;`2021-05-07 08:45:05`
`59`;`230`;``;`2021-05-07 08:45:05`;`2021-05-07 08:45:05`
`60`;`307`;`948`;`2021-05-07 08:45:05`;`2021-05-07 08:45:05`
`61`;`307`;`947`;`2021-05-07 08:45:05`;`2021-05-07 08:45:05`
`62`;`204`;``;`2021-05-07 08:45:05`;`2021-05-07 08:45:05`
`64`;`220`;`856`;`2021-07-26 11:42:05`;`2021-07-26 11:42:05`
`65`;`283`;``;`2021-05-07 08:45:05`;`2021-05-07 08:45:05`
`68`;`220`;`866`;`2021-05-07 08:45:05`;`2021-05-07 08:45:05`
`69`;`39`;`726`;`2021-05-07 08:45:05`;`2021-05-07 08:45:05`
`70`;`317`;``;`2021-05-07 08:45:05`;`2021-05-07 08:45:05`
`71`;`34`;`873`;`2021-05-07 08:45:05`;`2021-05-07 08:45:05`
`73`;`332`;``;`2021-05-07 08:45:05`;`2021-05-07 08:45:05`
`74`;`220`;`691`;`2021-05-07 08:45:05`;`2021-05-07 08:45:05`
`75`;`331`;``;`2021-05-07 08:45:05`;`2021-05-07 08:45:05`
`77`;`335`;`943`;`2021-05-07 08:45:05`;`2021-05-07 08:45:05`
`78`;`310`;`941`;`2021-05-07 08:45:05`;`2021-05-07 08:45:05`
`79`;`336`;`945`;`2021-05-07 08:45:05`;`2021-05-07 08:45:05`
`80`;`326`;``;`2021-05-07 08:45:05`;`2021-05-07 08:45:05`
`81`;`309`;``;`2021-05-07 08:45:05`;`2021-05-07 08:45:05`
`82`;`309`;``;`2021-05-07 08:45:05`;`2021-05-07 08:45:05`
`83`;`343`;``;`2021-05-07 08:45:05`;`2021-05-07 08:45:05`
`84`;`341`;``;`2021-05-07 08:45:05`;`2021-05-07 08:45:05`
`85`;`339`;``;`2021-05-07 08:45:05`;`2021-05-07 08:45:05`
`86`;`338`;``;`2021-05-07 08:45:05`;`2021-05-07 08:45:05`
`87`;`228`;``;`2021-05-25 17:52:12`;`2021-05-25 17:52:12`
`88`;`351`;``;`2021-05-07 08:45:05`;`2021-05-07 08:45:05`
`89`;`349`;``;`2021-05-07 08:45:05`;`2021-05-07 08:45:05`
`90`;`349`;``;`2021-05-07 08:45:05`;`2021-05-07 08:45:05`
`91`;`357`;``;`2021-05-07 08:45:05`;`2021-05-07 08:45:05`
`92`;`41`;`979`;`2021-05-07 08:45:05`;`2021-05-07 08:45:05`
`93`;`271`;`909`;`2021-05-07 08:45:05`;`2021-05-07 08:45:05`
`94`;`345`;``;`2021-05-07 08:45:05`;`2021-05-07 08:45:05`
`95`;`359`;``;`2021-05-07 08:45:05`;`2021-05-07 08:45:05`
`97`;`39`;`976`;`2021-05-07 08:45:05`;`2021-05-07 08:45:05`
`98`;`202`;``;`2021-05-07 08:45:05`;`2021-05-07 08:45:05`
`99`;`376`;``;`2021-05-07 08:45:05`;`2021-05-07 08:45:05`
`100`;`377`;``;`2021-05-07 08:45:05`;`2021-05-07 08:45:05`
`101`;`378`;``;`2021-09-04 10:04:37`;`2021-09-04 10:04:37`
`102`;`352`;``;`2021-05-07 08:45:05`;`2021-05-07 08:45:05`
`104`;`374`;``;`2021-09-10 11:33:18`;`2021-09-10 11:33:18`
`105`;`34`;`992`;`2021-05-10 20:17:19`;`2021-05-10 20:17:19`
`107`;`202`;``;`2021-05-11 17:39:31`;`2021-05-11 17:39:31`
`108`;`41`;`994`;`2021-05-20 15:54:31`;`2021-05-20 15:54:31`
`109`;`386`;`997`;`2021-05-14 15:40:54`;`2021-05-14 15:40:54`
`110`;`380`;``;`2021-05-14 16:57:08`;`2021-05-14 16:57:08`
`111`;`412`;`999`;`2021-05-18 10:35:11`;`2021-05-18 10:35:11`
`112`;`396`;`1001`;`2021-05-18 10:44:55`;`2021-05-18 10:44:55`
`113`;`413`;`1003`;`2021-05-18 13:22:51`;`2021-05-18 13:22:51`
`114`;`34`;`811`;`2021-05-23 14:26:22`;`2021-05-23 14:26:22`
`118`;`430`;``;`2021-06-03 16:22:30`;`2021-06-03 16:22:30`
`116`;`231`;``;`2021-05-25 09:57:34`;`2021-05-25 09:57:34`
`117`;`420`;``;`2021-05-28 09:58:40`;`2021-05-28 09:58:40`
`119`;`184`;``;`2021-07-26 12:05:14`;`2021-07-26 12:05:14`
`120`;`34`;``;`2021-06-11 10:01:22`;`2021-06-11 10:01:22`
`121`;`435`;``;`2021-10-21 16:11:48`;`2021-10-21 16:11:48`
`192`;`709`;``;`2021-11-01 19:11:27`;`2021-11-01 19:11:27`
`123`;`443`;``;`2021-06-13 12:55:06`;`2021-06-13 12:55:06`
`124`;`280`;`887`;`2021-06-11 17:27:02`;`2021-06-11 17:27:02`
`125`;`386`;`997`;`2021-07-12 10:13:05`;`2021-07-12 10:13:05`
`126`;`444`;``;`2021-06-14 08:53:40`;`2021-06-14 08:53:40`
`127`;`39`;`728`;`2021-06-17 16:47:40`;`2021-06-17 16:47:40`
`128`;`448`;``;`2021-06-17 16:49:22`;`2021-06-17 16:49:22`
`129`;`451`;``;`2021-06-28 17:58:14`;`2021-06-28 17:58:14`
`130`;`39`;`742`;`2021-06-21 08:40:29`;`2021-06-21 08:40:29`
`133`;`336`;`945`;`2021-07-05 07:59:55`;`2021-07-05 07:59:55`
`132`;`220`;`900`;`2021-06-23 16:43:20`;`2021-06-23 16:43:20`
`134`;`463`;`1040`;`2021-08-04 18:04:21`;`2021-08-04 18:04:21`
`135`;`424`;``;`2021-06-30 17:12:20`;`2021-06-30 17:12:20`
`136`;`149`;`860`;`2021-07-05 07:54:42`;`2021-07-05 07:54:42`
`137`;`433`;``;`2021-07-06 09:53:28`;`2021-07-06 09:53:28`
`138`;`186`;``;`2021-09-22 21:58:01`;`2021-09-22 21:58:01`
`139`;`475`;``;`2021-07-12 15:00:22`;`2021-07-12 15:00:22`
`142`;`220`;`698`;`2021-07-16 19:03:21`;`2021-07-16 19:03:21`
`143`;`443`;``;`2021-07-26 10:58:48`;`2021-07-26 10:58:48`
`144`;`48`;``;`2021-07-23 13:52:59`;`2021-07-23 13:52:59`
`145`;`582`;``;`2021-07-29 08:13:20`;`2021-07-29 08:13:20`
`146`;`587`;``;`2021-08-11 07:30:59`;`2021-08-11 07:30:59`
`147`;`396`;`1054`;`2021-07-31 17:47:36`;`2021-07-31 17:47:36`
`148`;`335`;`943`;`2021-08-01 17:40:37`;`2021-08-01 17:40:37`
`149`;`220`;`693`;`2021-08-01 18:51:58`;`2021-08-01 18:51:58`
`153`;`420`;``;`2021-08-05 09:57:55`;`2021-08-05 09:57:55`
`154`;`599`;``;`2021-08-05 09:49:11`;`2021-08-05 09:49:11`
`155`;`600`;``;`2021-08-06 12:44:58`;`2021-08-06 12:44:58`
`156`;`475`;``;`2021-08-04 18:21:00`;`2021-08-04 18:21:00`
`159`;`475`;``;`2021-08-06 16:45:12`;`2021-08-06 16:45:12`
`160`;`604`;``;`2021-08-16 19:16:03`;`2021-08-16 19:16:03`
`161`;`616`;``;`2021-08-17 08:59:12`;`2021-08-17 08:59:12`
`162`;`617`;``;`2021-08-19 16:19:24`;`2021-08-19 16:19:24`
`163`;`359`;``;`2021-08-18 20:26:17`;`2021-08-18 20:26:17`
`164`;`618`;``;`2021-09-02 12:08:21`;`2021-09-02 12:08:21`
`165`;`619`;``;`2021-08-25 20:46:06`;`2021-08-25 20:46:06`
`166`;`404`;``;`2021-11-12 11:50:58`;`2021-11-12 11:50:58`
`167`;`623`;`1075`;`2021-08-31 13:05:43`;`2021-08-31 13:05:43`
`168`;`623`;``;`2021-09-02 11:04:27`;`2021-09-02 11:04:27`
`169`;`618`;``;`2021-09-01 22:23:08`;`2021-09-01 22:23:08`
`170`;`535`;``;`2021-09-10 14:40:53`;`2021-09-10 14:40:53`
`171`;`639`;``;`2021-09-13 14:56:56`;`2021-09-13 14:56:56`
`172`;`34`;`873`;`2021-09-14 14:23:23`;`2021-09-14 14:23:23`
`173`;`633`;``;`2021-09-16 09:36:41`;`2021-09-16 09:36:41`
`175`;`213`;`1245`;`2021-09-20 22:31:21`;`2021-09-20 22:31:21`
`176`;`213`;`1259`;`2021-09-22 20:49:20`;`2021-09-22 20:49:20`
`177`;`647`;``;`2021-09-22 21:02:51`;`2021-09-22 21:02:51`
`178`;`647`;``;`2021-09-22 21:14:40`;`2021-09-22 21:14:40`
`179`;`252`;``;`2021-09-22 22:36:37`;`2021-09-22 22:36:37`
`180`;`638`;``;`2021-09-22 22:50:31`;`2021-09-22 22:50:31`
`181`;`175`;``;`2021-09-22 22:54:31`;`2021-09-22 22:54:31`
`182`;`190`;``;`2021-09-24 10:52:34`;`2021-09-24 10:52:34`
`183`;`656`;``;`2021-09-28 14:07:43`;`2021-09-28 14:07:43`
`184`;`675`;`1304`;`2021-10-06 15:30:27`;`2021-10-06 15:30:27`
`185`;`39`;`1302`;`2021-10-11 22:12:15`;`2021-10-11 22:12:15`
`186`;`223`;``;`2021-10-12 15:56:14`;`2021-10-12 15:56:14`
`187`;`213`;`1337`;`2021-10-25 12:28:48`;`2021-10-25 12:28:48`
`188`;`439`;`1308`;`2021-10-27 22:09:54`;`2021-10-27 22:09:54`
`189`;`707`;`1387`;`2021-10-29 17:23:33`;`2021-10-29 17:23:33`
`193`;`653`;``;`2021-11-01 19:53:05`;`2021-11-01 19:53:05`
`191`;`10`;``;`2021-10-31 14:13:54`;`2021-10-31 14:13:54`
`194`;`186`;``;`2021-11-02 14:29:46`;`2021-11-02 14:29:46`
`195`;`418`;`1390`;`2021-12-07 11:51:57`;`2021-12-07 11:51:57`
`196`;`339`;``;`2022-01-11 15:02:54`;`2022-01-11 15:02:54`
`197`;`691`;``;`2021-11-09 14:11:14`;`2021-11-09 14:11:14`
`199`;`220`;`1388`;`2021-11-12 07:13:26`;`2021-11-12 07:13:26`
`200`;`719`;``;`2021-11-12 11:36:17`;`2021-11-12 11:36:17`
`204`;`586`;``;`2021-11-26 15:21:13`;`2021-11-26 15:21:13`
`202`;`721`;``;`2021-12-09 17:49:28`;`2021-12-09 17:49:28`
`203`;`720`;``;`2021-11-18 18:55:04`;`2021-11-18 18:55:04`
`205`;`682`;`1399`;`2021-12-03 12:03:15`;`2021-12-03 12:03:15`
`206`;`726`;``;`2021-11-29 20:48:06`;`2021-11-29 20:48:06`
`207`;`213`;`1115`;`2021-11-28 18:26:52`;`2021-11-28 18:26:52`
`208`;`731`;``;`2021-12-01 16:35:53`;`2021-12-01 16:35:53`
`209`;`730`;``;`2021-12-01 16:48:06`;`2021-12-01 16:48:06`
`210`;`679`;`1311`;`2021-12-03 16:52:08`;`2021-12-03 16:52:08`
`211`;`436`;`1374`;`2021-12-03 17:00:57`;`2021-12-03 17:00:57`
`212`;`686`;`1427`;`2022-01-15 12:06:56`;`2022-01-15 12:06:56`
`225`;`451`;`1343`;`2021-12-15 18:20:43`;`2021-12-15 18:20:43`
`215`;`55`;``;`2021-12-09 10:01:04`;`2021-12-09 10:01:04`
`222`;`436`;`1432`;`2021-12-13 09:17:27`;`2021-12-13 09:17:27`
`221`;`439`;`1364`;`2022-05-05 19:25:33`;`2022-05-05 19:25:33`
`220`;`269`;`1430`;`2021-12-09 15:25:27`;`2021-12-09 15:25:27`
`223`;`439`;`1348`;`2021-12-23 08:29:02`;`2021-12-23 08:29:02`
`224`;`439`;`1385`;`2021-12-13 21:21:32`;`2021-12-13 21:21:32`
`226`;`673`;`1443`;`2021-12-17 11:45:43`;`2021-12-17 11:45:43`
`227`;`39`;`744`;`2021-12-20 15:56:56`;`2021-12-20 15:56:56`
`228`;`439`;`1375`;`2022-04-18 14:18:31`;`2022-04-18 14:18:31`
`229`;`184`;``;`2021-12-21 15:36:25`;`2021-12-21 15:36:25`
`230`;`439`;`1368`;`2022-05-09 17:40:50`;`2022-05-09 17:40:50`
`231`;`752`;``;`2022-01-09 09:30:55`;`2022-01-09 09:30:55`
`232`;`717`;``;`2022-01-09 11:50:39`;`2022-01-09 11:50:39`
`233`;`653`;``;`2022-01-10 12:09:08`;`2022-01-10 12:09:08`
`234`;`520`;`1470`;`2022-01-10 16:29:27`;`2022-01-10 16:29:27`
`235`;`673`;`1478`;`2022-01-17 17:35:28`;`2022-01-17 17:35:28`
`236`;`731`;``;`2022-01-10 17:31:23`;`2022-01-10 17:31:23`
`237`;`270`;``;`2022-01-11 12:13:32`;`2022-01-11 12:13:32`
`238`;`757`;``;`2022-01-12 08:56:14`;`2022-01-12 08:56:14`
`239`;`751`;``;`2022-01-12 15:42:24`;`2022-01-12 15:42:24`
`242`;`181`;``;`2022-01-13 17:38:20`;`2022-01-13 17:38:20`
`241`;`754`;``;`2022-01-15 15:56:04`;`2022-01-15 15:56:04`
`243`;`759`;``;`2022-01-13 18:18:58`;`2022-01-13 18:18:58`
`244`;`764`;``;`2022-01-19 10:32:00`;`2022-01-19 10:32:00`
`245`;`691`;``;`2022-01-19 10:45:06`;`2022-01-19 10:45:06`
`246`;`407`;``;`2022-01-19 15:17:14`;`2022-01-19 15:17:14`
`247`;`765`;``;`2022-01-21 10:06:03`;`2022-01-21 10:06:03`
`248`;`184`;``;`2022-01-27 14:59:05`;`2022-01-27 14:59:05`
`249`;`775`;``;`2022-01-26 10:07:20`;`2022-01-26 10:07:20`
`250`;`439`;`1361`;`2022-01-28 11:37:21`;`2022-01-28 11:37:21`
`251`;`777`;`1482`;`2022-02-21 18:22:38`;`2022-02-21 18:22:38`
`252`;`782`;``;`2022-02-02 17:43:49`;`2022-02-02 17:43:49`
`253`;`785`;``;`2022-02-06 16:38:20`;`2022-02-06 16:38:20`
`254`;`788`;``;`2022-02-14 09:06:56`;`2022-02-14 09:06:56`
`255`;`633`;``;`2022-02-14 17:05:13`;`2022-02-14 17:05:13`
`256`;`725`;`1498`;`2022-02-23 10:37:34`;`2022-02-23 10:37:34`
`257`;`673`;`1475`;`2022-02-23 19:10:02`;`2022-02-23 19:10:02`
`258`;`799`;``;`2022-02-23 18:24:26`;`2022-02-23 18:24:26`
`260`;`673`;`1476`;`2022-02-23 19:02:11`;`2022-02-23 19:02:11`
`261`;`802`;``;`2022-03-31 08:39:20`;`2022-03-31 08:39:20`
`263`;`725`;`1507`;`2022-02-28 14:55:39`;`2022-02-28 14:55:39`
`264`;`806`;``;`2022-02-28 17:31:27`;`2022-02-28 17:31:27`
`265`;`807`;``;`2022-02-28 17:35:30`;`2022-02-28 17:35:30`
`266`;`810`;``;`2022-03-07 14:07:09`;`2022-03-07 14:07:09`
`267`;`58`;`1517`;`2022-03-20 18:08:21`;`2022-03-20 18:08:21`
`268`;`220`;`1515`;`2022-03-10 08:48:28`;`2022-03-10 08:48:28`
`289`;`823`;``;`2022-03-28 20:33:06`;`2022-03-28 20:33:06`
`288`;`39`;`756`;`2022-03-23 18:33:01`;`2022-03-23 18:33:01`
`287`;`725`;`1509`;`2022-03-23 18:31:57`;`2022-03-23 18:31:57`
`285`;`817`;``;`2022-04-01 14:33:47`;`2022-04-01 14:33:47`
`286`;`815`;``;`2022-03-21 19:30:39`;`2022-03-21 19:30:39`
`282`;`436`;`1371`;`2022-04-13 12:53:27`;`2022-04-13 12:53:27`
`281`;`213`;`1528`;`2022-03-15 14:43:57`;`2022-03-15 14:43:57`
`280`;`725`;`1509`;`2022-03-14 09:12:53`;`2022-03-14 09:12:53`
`279`;`813`;``;`2022-03-21 22:46:45`;`2022-03-21 22:46:45`
`290`;`58`;`1602`;`2022-03-28 20:41:48`;`2022-03-28 20:41:48`
`291`;`837`;``;`2022-03-31 08:35:55`;`2022-03-31 08:35:55`
`292`;`841`;``;`2022-04-05 17:21:07`;`2022-04-05 17:21:07`
`298`;`885`;``;`2022-04-10 08:37:20`;`2022-04-10 08:37:20`
`299`;`786`;``;`2022-06-07 08:46:12`;`2022-06-07 08:46:12`
`300`;`886`;``;`2022-04-12 10:47:22`;`2022-04-12 10:47:22`
`305`;`891`;``;`2022-04-15 20:12:09`;`2022-04-15 20:12:09`
`307`;`899`;``;`2022-04-20 15:56:53`;`2022-04-20 15:56:53`
`308`;`900`;``;`2022-04-20 18:28:50`;`2022-04-20 18:28:50`
`309`;`888`;``;`2022-07-30 17:17:24`;`2022-07-30 17:17:24`
`310`;`908`;``;`2022-04-23 13:24:58`;`2022-04-23 13:24:58`
`311`;`911`;``;`2022-04-25 11:31:59`;`2022-04-25 11:31:59`
`312`;`41`;`1671`;`2022-05-13 09:35:03`;`2022-05-13 09:35:03`
`317`;`916`;``;`2022-05-02 11:02:07`;`2022-05-02 11:02:07`
`319`;`58`;`1651`;`2022-05-02 19:16:52`;`2022-05-02 19:16:52`
`320`;`922`;``;`2022-04-29 15:00:48`;`2022-04-29 15:00:48`
`322`;`271`;`918`;`2022-05-18 08:37:01`;`2022-05-18 08:37:01`
`348`;`375`;`1402`;`2022-05-31 10:58:31`;`2022-05-31 10:58:31`
`327`;`271`;`909`;`2022-05-06 09:26:20`;`2022-05-06 09:26:20`
`325`;`926`;``;`2022-05-04 18:44:32`;`2022-05-04 18:44:32`
`326`;`846`;``;`2022-05-12 08:53:02`;`2022-05-12 08:53:02`
`328`;`39`;`1616`;`2022-05-06 17:13:18`;`2022-05-06 17:13:18`
`329`;`933`;``;`2022-05-07 10:15:57`;`2022-05-07 10:15:57`
`330`;`935`;``;`2022-05-09 15:07:04`;`2022-05-09 15:07:04`
`331`;`218`;``;`2022-05-10 08:47:05`;`2022-05-10 08:47:05`
`332`;`940`;``;`2022-05-10 15:29:15`;`2022-05-10 15:29:15`
`333`;`941`;``;`2022-05-10 16:35:04`;`2022-05-10 16:35:04`
`334`;`213`;`1663`;`2022-05-10 17:50:36`;`2022-05-10 17:50:36`
`335`;`939`;``;`2022-05-10 17:52:54`;`2022-05-10 17:52:54`
`336`;`942`;``;`2022-05-18 14:23:22`;`2022-05-18 14:23:22`
`337`;`623`;`1680`;`2022-05-18 09:42:59`;`2022-05-18 09:42:59`
`338`;`386`;``;`2022-05-11 21:14:30`;`2022-05-11 21:14:30`
`339`;`374`;``;`2022-05-16 20:29:59`;`2022-05-16 20:29:59`
`340`;`213`;`1683`;`2022-05-18 12:25:09`;`2022-05-18 12:25:09`
`341`;`934`;``;`2022-05-20 08:50:27`;`2022-05-20 08:50:27`
`342`;`951`;``;`2022-05-22 21:13:51`;`2022-05-22 21:13:51`
`343`;`944`;``;`2022-07-28 15:07:02`;`2022-07-28 15:07:02`
`344`;`375`;`1656`;`2022-07-04 13:59:53`;`2022-07-04 13:59:53`
`345`;`439`;`1018`;`2022-05-24 10:56:39`;`2022-05-24 10:56:39`
`347`;`623`;``;`2022-05-25 11:46:43`;`2022-05-25 11:46:43`
`349`;`375`;`1644`;`2022-07-04 14:01:06`;`2022-07-04 14:01:06`
`350`;`970`;``;`2022-06-09 17:24:06`;`2022-06-09 17:24:06`
`351`;`375`;`1700`;`2022-06-23 11:14:43`;`2022-06-23 11:14:43`
`352`;`971`;``;`2022-06-09 19:11:04`;`2022-06-09 19:11:04`
`353`;`937`;``;`2022-06-10 12:07:34`;`2022-06-10 12:07:34`
`354`;`962`;``;`2022-06-13 11:40:32`;`2022-06-13 11:40:32`
`355`;`969`;`1733`;`2022-06-24 13:30:26`;`2022-06-24 13:30:26`
`356`;`817`;``;`2022-06-14 10:10:43`;`2022-06-14 10:10:43`
`357`;`974`;``;`2022-06-18 08:54:48`;`2022-06-18 08:54:48`
`358`;`976`;``;`2022-06-18 10:47:44`;`2022-06-18 10:47:44`
`359`;`983`;``;`2022-07-23 11:04:38`;`2022-07-23 11:04:38`
`361`;`418`;``;`2022-06-21 12:33:41`;`2022-06-21 12:33:41`
`362`;`982`;``;`2022-06-21 22:41:16`;`2022-06-21 22:41:16`
`363`;`984`;``;`2022-06-19 22:14:04`;`2022-06-19 22:14:04`
`364`;`978`;``;`2022-06-21 16:05:42`;`2022-06-21 16:05:42`
`367`;`786`;``;`2022-06-21 12:30:16`;`2022-06-21 12:30:16`
`368`;`981`;``;`2022-06-21 19:41:19`;`2022-06-21 19:41:19`
`369`;`991`;``;`2022-06-22 13:31:39`;`2022-06-22 13:31:39`
`370`;`988`;``;`2022-06-22 15:29:04`;`2022-06-22 15:29:04`
`371`;`932`;`1727`;`2022-06-30 13:50:46`;`2022-06-30 13:50:46`
`372`;`958`;``;`2022-06-24 00:41:09`;`2022-06-24 00:41:09`
`373`;`1000`;``;`2022-06-24 08:26:35`;`2022-06-24 08:26:35`
`374`;`618`;``;`2022-06-24 08:30:32`;`2022-06-24 08:30:32`
`375`;`307`;``;`2022-06-24 10:33:43`;`2022-06-24 10:33:43`
`376`;`171`;``;`2022-06-30 13:35:06`;`2022-06-30 13:35:06`
`377`;`359`;``;`2022-06-25 10:45:18`;`2022-06-25 10:45:18`
`378`;`1006`;``;`2022-06-25 15:25:50`;`2022-06-25 15:25:50`
`379`;`996`;``;`2022-06-25 16:03:25`;`2022-06-25 16:03:25`
`380`;`986`;``;`2022-06-26 14:24:35`;`2022-06-26 14:24:35`
`381`;`1008`;``;`2022-06-27 08:22:25`;`2022-06-27 08:22:25`
`382`;`932`;`1730`;`2022-06-27 15:11:16`;`2022-06-27 15:11:16`
`383`;`997`;``;`2022-06-27 10:53:08`;`2022-06-27 10:53:08`
`384`;`973`;``;`2022-06-29 17:48:58`;`2022-06-29 17:48:58`
`386`;`41`;``;`2022-06-28 21:21:18`;`2022-06-28 21:21:18`
`387`;`9`;``;`2022-06-29 17:56:25`;`2022-06-29 17:56:25`
`388`;`13`;``;`2022-07-29 10:06:33`;`2022-07-29 10:06:33`
`389`;`980`;``;`2022-06-30 17:10:18`;`2022-06-30 17:10:18`
`390`;`439`;`1368`;`2022-07-01 11:38:42`;`2022-07-01 11:38:42`
`391`;`1017`;``;`2022-07-01 12:08:31`;`2022-07-01 12:08:31`
`392`;`785`;``;`2022-07-01 12:21:12`;`2022-07-01 12:21:12`
`393`;`1020`;``;`2022-07-01 14:51:58`;`2022-07-01 14:51:58`
`394`;`1021`;``;`2022-07-01 16:35:24`;`2022-07-01 16:35:24`
`395`;`1019`;``;`2022-07-01 16:51:13`;`2022-07-01 16:51:13`
`396`;`1022`;``;`2022-07-01 18:15:02`;`2022-07-01 18:15:02`
`397`;`1026`;``;`2022-07-02 12:32:20`;`2022-07-02 12:32:20`
`398`;`1027`;``;`2022-07-02 16:25:27`;`2022-07-02 16:25:27`
`399`;`508`;``;`2022-07-02 18:23:51`;`2022-07-02 18:23:51`
`400`;`932`;`1750`;`2022-07-04 15:34:37`;`2022-07-04 15:34:37`
`401`;`1034`;``;`2022-07-05 13:31:06`;`2022-07-05 13:31:06`
`402`;`995`;`1736`;`2022-07-13 08:41:46`;`2022-07-13 08:41:46`
`403`;`1038`;``;`2022-07-05 18:36:18`;`2022-07-05 18:36:18`
`404`;`623`;``;`2022-07-05 18:38:22`;`2022-07-05 18:38:22`
`405`;`1041`;``;`2022-07-06 10:52:23`;`2022-07-06 10:52:23`
`406`;`1043`;``;`2022-07-08 13:15:24`;`2022-07-08 13:15:24`
`407`;`932`;`1761`;`2022-07-08 11:04:10`;`2022-07-08 11:04:10`
`408`;`1051`;``;`2022-07-08 11:52:42`;`2022-07-08 11:52:42`
`409`;`229`;``;`2022-07-08 12:22:12`;`2022-07-08 12:22:12`
`410`;`622`;`1758`;`2022-07-29 10:33:38`;`2022-07-29 10:33:38`
`411`;`226`;``;`2022-07-08 15:53:33`;`2022-07-08 15:53:33`
`412`;`932`;`1762`;`2022-07-09 10:09:01`;`2022-07-09 10:09:01`
`413`;`1055`;``;`2022-07-09 13:31:21`;`2022-07-09 13:31:21`
`423`;`622`;`1779`;`2022-07-29 10:34:09`;`2022-07-29 10:34:09`
`415`;`443`;``;`2022-07-13 12:28:21`;`2022-07-13 12:28:21`
`416`;`1057`;``;`2022-07-09 17:16:42`;`2022-07-09 17:16:42`
`417`;`58`;`1602`;`2022-07-09 17:29:01`;`2022-07-09 17:29:01`
`418`;`1064`;``;`2022-07-12 16:39:35`;`2022-07-12 16:39:35`
`419`;`375`;``;`2022-07-12 16:25:37`;`2022-07-12 16:25:37`
`420`;`1000`;``;`2022-07-14 09:25:18`;`2022-07-14 09:25:18`
`421`;`220`;`1775`;`2022-07-14 17:57:47`;`2022-07-14 17:57:47`
`422`;`1071`;``;`2022-07-14 15:57:34`;`2022-07-14 15:57:34`
`428`;`1080`;``;`2022-07-16 09:48:01`;`2022-07-16 09:48:01`
`425`;`622`;`1780`;`2022-07-29 10:34:30`;`2022-07-29 10:34:30`
`427`;`7`;`1047`;`2022-07-27 22:19:04`;`2022-07-27 22:19:04`
`429`;`1083`;``;`2022-07-16 12:58:04`;`2022-07-16 12:58:04`
`430`;`1020`;``;`2022-07-16 15:48:43`;`2022-07-16 15:48:43`
`431`;`184`;``;`2022-07-18 09:11:22`;`2022-07-18 09:11:22`
`432`;`1056`;``;`2022-07-18 10:52:36`;`2022-07-18 10:52:36`
`433`;`714`;``;`2022-07-19 08:17:31`;`2022-07-19 08:17:31`
`434`;`1090`;``;`2022-07-27 22:06:51`;`2022-07-27 22:06:51`
`435`;`213`;`1683`;`2022-07-23 21:47:51`;`2022-07-23 21:47:51`
`437`;`1086`;``;`2022-07-28 17:22:47`;`2022-07-28 17:22:47`
`438`;`1100`;``;`2022-07-25 15:32:13`;`2022-07-25 15:32:13`
`439`;`58`;`1746`;`2022-07-27 11:06:26`;`2022-07-27 11:06:26`
`441`;`1000`;``;`2022-07-27 12:33:32`;`2022-07-27 12:33:32`
`442`;`1116`;``;`2022-08-02 18:43:02`;`2022-08-02 18:43:02`
`443`;`1054`;``;`2022-07-28 16:40:31`;`2022-07-28 16:40:31`
`444`;`1109`;``;`2022-07-27 19:02:17`;`2022-07-27 19:02:17`
`445`;`1097`;``;`2022-07-29 14:25:03`;`2022-07-29 14:25:03`
`446`;`58`;`1747`;`2022-07-28 12:36:23`;`2022-07-28 12:36:23`
`447`;`1120`;``;`2022-07-28 16:43:39`;`2022-07-28 16:43:39`
`448`;`1121`;``;`2022-07-28 17:16:02`;`2022-07-28 17:16:02`
`449`;`1123`;``;`2022-07-29 10:10:25`;`2022-07-29 10:10:25`
`450`;`1105`;``;`2022-07-29 11:34:52`;`2022-07-29 11:34:52`
`451`;`1000`;``;`2022-07-29 17:59:25`;`2022-07-29 17:59:25`
`452`;`423`;``;`2022-07-30 15:56:26`;`2022-07-30 15:56:26`
`453`;`1130`;``;`2022-07-30 16:53:51`;`2022-07-30 16:53:51`
`454`;`1129`;``;`2022-07-31 17:51:09`;`2022-07-31 17:51:09`
`455`;`971`;``;`2022-08-02 10:48:37`;`2022-08-02 10:48:37`
`456`;`184`;``;`2022-08-02 11:43:13`;`2022-08-02 11:43:13`
`457`;`1134`;``;`2022-08-02 12:48:32`;`2022-08-02 12:48:32`
`458`;`1000`;``;`2022-08-02 13:28:56`;`2022-08-02 13:28:56`
`459`;`1076`;``;`2022-08-02 14:30:26`;`2022-08-02 14:30:26`
`460`;`915`;``;`2022-08-02 21:49:37`;`2022-08-02 21:49:37`
`461`;`163`;``;`2022-08-03 14:41:30`;`2022-08-03 14:41:30`
