`ID`;`DATE`;`STEP`;`ADDRESS`;`ITEM_TYPE`;`ITEM_ID`;`MOVING_TIME`;`EXECUTION_TIME`;`PLANNED_START_HOUR`;`PLANNED_END_HOUR`;`REAL_START_HOUR`;`REAL_END_HOUR`;`DESCRIPTION`;`STATUS`;`CREATION_TIME`;`HEU_MAJ`
`4`;`2021-06-02`;`1`;`Ouffet, Belgique`;`internalMaintenance`;`707`;`84`;`30`;`09:14:00`;`09:44:00`;``;``;``;`confirmed`;`2021-06-03 10:07:49`;`2021-06-03 10:07:49`
`3`;`2021-06-02`;`0`;`Ouffet, Belgique`;`startAddress`;`0`;`0`;`0`;`07:50:00`;`07:50:00`;``;``;``;`confirmed`;`2021-06-03 10:07:49`;`2021-06-03 10:07:49`
`5`;`2021-06-02`;`2`;`Ouffet, Belgique`;`internalMaintenance`;`695`;`15`;`30`;`09:59:00`;`10:29:00`;``;``;``;`confirmed`;`2021-06-03 10:07:49`;`2021-06-03 10:07:49`
`6`;`2021-06-02`;`3`;`Ouffet, Belgique`;`internalMaintenance`;`697`;`54`;`15`;`11:23:00`;`11:38:00`;``;``;``;`confirmed`;`2021-06-03 10:07:49`;`2021-06-03 10:07:49`
`7`;`2021-06-02`;`5`;`8 Rue de la brasserie, 4000 Liège`;`endAddress`;`0`;`19`;`0`;`11:57:00`;`11:57:00`;``;``;``;`confirmed`;`2021-06-03 10:07:49`;`2021-06-03 10:07:49`
`53`;`2021-06-09`;`8`;`Tige de Xhos, Ouffet`;`endAddress`;`0`;`85`;`0`;`17:17:00`;`17:17:00`;`18:35:00`;`18:35:00`;``;`confirmed`;`2021-06-08 09:59:11`;`2021-06-10 08:59:34`
`51`;`2021-06-09`;`6`;`Tour Astro 1210 Saint-Josse-ten-Noode`;`additionalStep`;`0`;`5`;`30`;`15:22:00`;`15:52:00`;`16:05:00`;`16:30:00`;`Déposer les clés chez Actiris. Prévenir Gregory 30 min avant d'arriver. Numéro de téléphone : 0490 52 26 17`;`confirmed`;`2021-06-08 09:59:11`;`2021-06-10 08:58:20`
`50`;`2021-06-09`;`5`;`36 rue stevin 1000 Bruxelles`;`internalMaintenance`;`305`;`26`;`20`;`14:57:00`;`15:17:00`;`15:54:00`;`16:00:00`;``;`confirmed`;`2021-06-08 09:59:11`;`2021-06-10 08:57:57`
`49`;`2021-06-09`;`4`;`27 rue Griottes, 1180 Bruxelles`;`internalMaintenance`;`708`;`24`;`20`;`14:11:00`;`14:31:00`;`14:52:00`;`15:25:00`;``;`confirmed`;`2021-06-08 09:59:11`;`2021-06-10 08:56:36`
`69`;`2021-06-18`;`6`;`Rue Henripré 45, 4821 Andrimont`;`internalMaintenance`;`479`;`15`;`30`;`15:47:00`;`16:17:00`;``;``;``;`confirmed`;`2021-06-16 17:21:44`;`2021-06-16 17:21:44`
`48`;`2021-06-09`;`3`;`Avenue Victor Jacobs 29 - 1040 Etterbeek`;`order`;`129`;`15`;`25`;`13:22:00`;`13:47:00`;`16:45:00`;`17:03:00`;``;`confirmed`;`2021-06-08 09:59:11`;`2021-06-10 08:58:59`
`45`;`2021-06-09`;`0`;`Tige de Xhos, Ouffet`;`startAddress`;`0`;`0`;`0`;`10:30:00`;`10:30:00`;`10:25:00`;`10:25:00`;``;`confirmed`;`2021-06-08 09:59:11`;`2021-06-10 08:50:39`
`46`;`2021-06-09`;`1`;`Avenue Ilya Prigogine 10, 1180 Uccle`;`internalMaintenance`;`689`;`93`;`20`;`12:03:00`;`12:23:00`;`12:05:00`;`12:45:00`;``;`confirmed`;`2021-06-08 09:59:11`;`2021-06-10 08:51:03`
`47`;`2021-06-09`;`2`;`10 cantersteen 1000 Bruxelles (Batiment Becentral)`;`internalMaintenance`;`176`;`24`;`20`;`12:47:00`;`13:07:00`;`13:20:00`;`14:23:00`;``;`confirmed`;`2021-06-08 09:59:11`;`2021-06-10 08:52:20`
`70`;`2021-06-18`;`8`;`Tige de Xhos 4, 4590 Ouffet`;`endAddress`;`0`;`53`;`0`;`17:10:00`;`17:10:00`;``;``;``;`confirmed`;`2021-06-16 17:21:44`;`2021-06-16 17:21:44`
`68`;`2021-06-18`;`5`;`Grand Bosi 3, 4831 Bilstain`;`internalMaintenance`;`525`;`101`;`60`;`14:32:00`;`15:32:00`;``;``;``;`confirmed`;`2021-06-16 17:21:44`;`2021-06-16 17:21:44`
`67`;`2021-06-18`;`4`;`27 rue des Griottes 1180 Bruxelles`;`internalMaintenance`;`724`;`28`;`30`;`12:21:00`;`12:51:00`;``;``;``;`confirmed`;`2021-06-16 17:21:44`;`2021-06-16 17:21:44`
`63`;`2021-06-18`;`0`;`Tige de Xhos 4, 4590 Ouffet`;`startAddress`;`0`;`0`;`0`;`08:30:00`;`08:30:00`;``;``;``;`confirmed`;`2021-06-16 17:21:44`;`2021-06-16 17:21:44`
`64`;`2021-06-18`;`1`;`Avenue des saisons 7, 1050 Bruxelles`;`internalMaintenance`;`555`;`79`;`30`;`09:49:00`;`10:19:00`;``;``;``;`confirmed`;`2021-06-16 17:21:44`;`2021-06-16 17:21:44`
`65`;`2021-06-18`;`2`;`Avenue des Arts, 43, 1000 Bruxelles`;`internalMaintenance`;`726`;`12`;`30`;`10:31:00`;`11:01:00`;``;``;``;`confirmed`;`2021-06-16 17:21:44`;`2021-06-16 17:21:44`
`66`;`2021-06-18`;`3`;`13 avenue Beethoven – 1083 Ganshoren`;`additionalStep`;`0`;`12`;`40`;`11:13:00`;`11:53:00`;``;``;`Test vélo`;`confirmed`;`2021-06-16 17:21:44`;`2021-06-16 17:21:44`
`104`;`2021-06-22`;`9`;`8 Rue de la brasserie, 4000 Liège`;`endAddress`;`0`;`64`;`0`;`18:49:00`;`18:49:00`;``;``;``;`confirmed`;`2021-06-22 09:28:21`;`2021-06-22 09:28:21`
`103`;`2021-06-22`;`7`;`Rue de claminforge 56 5070 Le Roux`;`order`;`53`;`33`;`20`;`17:25:00`;`17:45:00`;``;``;``;`confirmed`;`2021-06-22 09:28:21`;`2021-06-22 09:28:21`
`102`;`2021-06-22`;`6`;`Chaussée de Marche 940, 5100 Namur`;`additionalStep`;`0`;`9`;`20`;`16:32:00`;`16:52:00`;``;``;`Livraison vélo test`;`confirmed`;`2021-06-22 09:28:21`;`2021-06-22 09:28:21`
`101`;`2021-06-22`;`5`;`Rue des Inhauts 23, 5021 Boninne`;`internalMaintenance`;`737`;`40`;`20`;`16:03:00`;`16:23:00`;``;``;``;`confirmed`;`2021-06-22 09:28:21`;`2021-06-22 09:28:21`
`100`;`2021-06-22`;`4`;`rue des epiceas 37 1170 watermael boisfort`;`order`;`138`;`17`;`20`;`15:03:00`;`15:23:00`;``;``;``;`confirmed`;`2021-06-22 09:28:21`;`2021-06-22 09:28:21`
`99`;`2021-06-22`;`3`;`boulevard de l empereur 1000 bruxelles`;`internalMaintenance`;`739`;`1`;`20`;`14:26:00`;`14:46:00`;``;``;``;`confirmed`;`2021-06-22 09:28:21`;`2021-06-22 09:28:21`
`97`;`2021-06-22`;`1`;`Chaussée Romaine 232, 4300 Waremme`;`order`;`135`;`24`;`20`;`12:54:00`;`13:14:00`;`12:55:00`;`13:27:00`;``;`done`;`2021-06-22 09:28:21`;`2021-06-22 13:28:07`
`98`;`2021-06-22`;`2`;`Kantersteen 10 1000 Brussel`;`internalMaintenance`;`738`;`51`;`20`;`14:05:00`;`14:25:00`;``;``;``;`confirmed`;`2021-06-22 09:28:21`;`2021-06-22 09:28:21`
`96`;`2021-06-22`;`0`;`8 Rue de la brasserie, 4000 Liège`;`startAddress`;`0`;`0`;`0`;`12:30:00`;`12:30:00`;``;``;``;`confirmed`;`2021-06-22 09:28:21`;`2021-06-22 09:28:21`
`105`;`2021-07-01`;`0`;`8 Rue de la brasserie, 4000 Liège`;`startAddress`;`0`;`0`;`0`;`11:15:00`;`11:15:00`;``;``;``;`confirmed`;`2021-06-30 14:28:14`;`2021-06-30 14:28:14`
`106`;`2021-07-01`;`1`;`Avenue des Arts, 43, 1000 Bruxelles`;`internalMaintenance`;`780`;`67`;`20`;`12:22:00`;`12:42:00`;``;``;``;`confirmed`;`2021-06-30 14:28:14`;`2021-06-30 14:28:14`
`107`;`2021-07-01`;`2`;`213 Avenue AJ Slegers 1200 Woluwé-Saint-Lambert`;`order`;`143`;`9`;`30`;`12:51:00`;`13:21:00`;``;``;``;`confirmed`;`2021-06-30 14:28:14`;`2021-06-30 14:28:14`
`108`;`2021-07-01`;`3`;`boulevard de l empereur 1000 bruxelles`;`internalMaintenance`;`739`;`13`;`20`;`13:34:00`;`13:54:00`;``;``;``;`confirmed`;`2021-06-30 14:28:14`;`2021-06-30 14:28:14`
`109`;`2021-07-01`;`4`;`Rue Gabrielle Petit 6 1080 Bruxelles`;`order`;`134`;`16`;`20`;`14:10:00`;`14:30:00`;``;``;``;`confirmed`;`2021-06-30 14:28:14`;`2021-06-30 14:28:14`
`110`;`2021-07-01`;`5`;`Avenue Emile Bossaert 241081 Koekelberg`;`additionalStep`;`0`;`7`;`30`;`14:37:00`;`15:07:00`;``;``;`Récupérer 4 vélos`;`confirmed`;`2021-06-30 14:28:14`;`2021-06-30 14:28:14`
`111`;`2021-07-01`;`6`;`Avenue de l’Espérance, 1 6220 Fleurus`;`order`;`141`;`49`;`20`;`15:56:00`;`16:16:00`;``;``;``;`confirmed`;`2021-06-30 14:28:14`;`2021-06-30 14:28:14`
`112`;`2021-07-01`;`8`;`8 Rue de la brasserie, 4000 Liège`;`endAddress`;`0`;`59`;`0`;`17:15:00`;`17:15:00`;``;``;``;`confirmed`;`2021-06-30 14:28:14`;`2021-06-30 14:28:14`
`118`;`2021-07-15`;`0`;`4 tige de Xhos, 4590 Ouffet`;`startAddress`;`0`;`0`;`0`;`08:30:00`;`08:30:00`;``;``;``;`confirmed`;`2021-07-14 16:47:10`;`2021-07-14 16:47:10`
`119`;`2021-07-15`;`1`;`Rue du cimetière 11, 5640 Mettet`;`internalMaintenance`;`787`;`68`;`30`;`09:38:00`;`10:08:00`;``;``;``;`confirmed`;`2021-07-14 16:47:10`;`2021-07-14 16:47:10`
`120`;`2021-07-15`;`2`;`Chemin Vert, 78 6120 NALINNES`;`order`;`147`;`26`;`20`;`10:34:00`;`10:54:00`;``;``;``;`confirmed`;`2021-07-14 16:47:10`;`2021-07-14 16:47:10`
`121`;`2021-07-15`;`3`;`Rue de la Révolution 17A, 6040 Jumet`;`internalMaintenance`;`510`;`16`;`30`;`11:10:00`;`11:40:00`;``;``;``;`confirmed`;`2021-07-14 16:47:10`;`2021-07-14 16:47:10`
`122`;`2021-07-15`;`4`;`Rue de le Roux 28, 6250 Aiseau`;`internalMaintenance`;`646`;`21`;`40`;`12:01:00`;`12:41:00`;``;``;``;`confirmed`;`2021-07-14 16:47:10`;`2021-07-14 16:47:10`
`123`;`2021-07-15`;`6`;`8 Rue de la brasserie, 4000 Liège`;`endAddress`;`0`;`66`;`0`;`13:47:00`;`13:47:00`;``;``;``;`confirmed`;`2021-07-14 16:47:10`;`2021-07-14 16:47:10`
`124`;`2021-07-23`;`0`;`Tige de Xhos 4, 4590 Ouffet`;`startAddress`;`0`;`0`;`0`;`08:00:00`;`08:00:00`;``;``;``;`confirmed`;`2021-07-22 16:47:22`;`2021-07-22 16:47:22`
`125`;`2021-07-23`;`1`;`Avenue de l’Espérance 1, 6220 Fleurus`;`internalMaintenance`;`404`;`61`;`30`;`09:01:00`;`09:31:00`;``;``;``;`confirmed`;`2021-07-22 16:47:22`;`2021-07-22 16:47:22`
`126`;`2021-07-23`;`2`;`Avenue de l’Espérance 1, 6220 Fleurus`;`internalMaintenance`;`510`;`0`;`30`;`09:31:00`;`10:01:00`;``;``;``;`confirmed`;`2021-07-22 16:47:22`;`2021-07-22 16:47:22`
`127`;`2021-07-23`;`3`;`Avenue de l’Espérance 1, 6220 Fleurus `;`internalMaintenance`;`539`;`0`;`30`;`10:01:00`;`10:31:00`;``;``;``;`confirmed`;`2021-07-22 16:47:22`;`2021-07-22 16:47:22`
`128`;`2021-07-23`;`4`;`Rue de le Roux 28, 6250 Aiseau`;`internalMaintenance`;`646`;`15`;`40`;`10:46:00`;`11:26:00`;``;``;``;`confirmed`;`2021-07-22 16:47:22`;`2021-07-22 16:47:22`
`129`;`2021-07-23`;`5`;`Avenue Frans Van Kalken 18, 1070 Anderlecht`;`internalMaintenance`;`498`;`52`;`30`;`12:18:00`;`12:48:00`;``;``;``;`confirmed`;`2021-07-22 16:47:22`;`2021-07-22 16:47:22`
`130`;`2021-07-23`;`6`;`Avenue des coquelicots 5 1970 Wezembeek-Oppem`;`internalMaintenance`;`799`;`27`;`40`;`13:15:00`;`13:55:00`;``;``;``;`confirmed`;`2021-07-22 16:47:22`;`2021-07-22 16:47:22`
`131`;`2021-07-23`;`7`;`rue Émile idiers 41, 1160 Auderghem`;`internalMaintenance`;`543`;`14`;`30`;`14:09:00`;`14:39:00`;``;``;``;`confirmed`;`2021-07-22 16:47:22`;`2021-07-22 16:47:22`
`132`;`2021-07-23`;`9`;`Tige de Xhos 4, 4590 Ouffet`;`endAddress`;`0`;`72`;`0`;`15:51:00`;`15:51:00`;``;``;``;`confirmed`;`2021-07-22 16:47:22`;`2021-07-22 16:47:22`
`133`;`2021-08-11`;`0`;`Rue de la Brasserie, 8`;`startAddress`;`0`;`0`;`0`;`09:00:00`;`09:00:00`;``;``;``;`confirmed`;`2021-08-10 15:41:33`;`2021-08-10 15:41:33`
`134`;`2021-08-11`;`1`;`324 Avenue de Tervueren, 1150 Woluwe saint Pierre`;`internalMaintenance`;`124`;`69`;`30`;`10:09:00`;`10:39:00`;`10:05:00`;`10:25:00`;``;`done`;`2021-08-10 15:41:33`;`2021-08-11 10:25:19`
`135`;`2021-08-11`;`2`;`Av. A.J. Slegers 213, 1200 Woluwe-Saint-Lambert`;`bikeOrder`;`158`;`12`;`30`;`10:51:00`;`11:21:00`;``;``;``;`confirmed`;`2021-08-10 15:41:33`;`2021-08-10 15:41:33`
`136`;`2021-08-11`;`2`;`Av. A.J. Slegers 213, 1200 Woluwe-Saint-Lambert`;`accessoryOrder`;`215`;`12`;`30`;`10:51:00`;`11:21:00`;``;``;``;`confirmed`;`2021-08-10 15:41:33`;`2021-08-10 15:41:33`
`137`;`2021-08-11`;`2`;`Av. A.J. Slegers 213, 1200 Woluwe-Saint-Lambert`;`accessoryOrder`;`214`;`12`;`30`;`10:51:00`;`11:21:00`;``;``;``;`confirmed`;`2021-08-10 15:41:33`;`2021-08-10 15:41:33`
`138`;`2021-08-11`;`3`;`Rue Gabrielle Petit 6, 1080 Bruxelles`;`internalMaintenance`;`802`;`18`;`20`;`11:39:00`;`11:59:00`;`11:20:00`;`11:25:00`;``;`done`;`2021-08-10 15:41:33`;`2021-08-11 11:23:06`
`139`;`2021-08-11`;`4`;`Avenue Ilya Prigogine 10, 1180 Uccle`;`internalMaintenance`;`588`;`28`;`30`;`12:27:00`;`12:57:00`;`11:53:00`;`12:25:00`;``;`done`;`2021-08-10 15:41:33`;`2021-08-11 12:18:59`
`140`;`2021-08-11`;`6`;`71 rue de Perk, 1630 Linkebeek`;`internalMaintenance`;`582`;`27`;`30`;`14:05:00`;`14:35:00`;``;``;``;`confirmed`;`2021-08-10 15:41:33`;`2021-08-11 09:54:20`
`141`;`2021-08-11`;`7`;`4 Tige de Xhos, 4590 Ouffet`;`endAddress`;`0`;`75`;`0`;`15:45:00`;`15:45:00`;``;``;``;`confirmed`;`2021-08-10 15:41:33`;`2021-08-11 07:04:46`
`142`;`2021-08-11`;`5`;`Avenue de l'Astronomie, 30, 1210 Bruxelles`;`additionalStep`;`0`;`20`;`20`;`13:20:00`;`13:40:00`;``;``;`Mettre le sticker + appeler Antoine`;`confirmed`;`2021-08-11 07:03:29`;`2021-08-11 07:03:29`
`143`;`2021-08-18`;`0`;`4 Tige de Xhos, 4590 Ouffet`;`startAddress`;`0`;`0`;`0`;`08:00:00`;`08:00:00`;``;``;``;`confirmed`;`2021-08-16 10:47:55`;`2021-08-16 10:47:55`
`144`;`2021-08-18`;`1`;`Boulevard Mayence 1, 6000 Charleroi`;`internalMaintenance`;`592`;`69`;`25`;`09:09:00`;`09:34:00`;``;``;``;`confirmed`;`2021-08-16 10:47:55`;`2021-08-16 10:47:55`
`145`;`2021-08-18`;`2`;`Boulevard Mayence 1, 6000 Charleroi`;`internalMaintenance`;`596`;`0`;`25`;`09:34:00`;`09:59:00`;``;``;``;`confirmed`;`2021-08-16 10:47:55`;`2021-08-16 10:47:55`
`146`;`2021-08-18`;`3`;`Boulevard Mayence 1, 6000 Charleroi`;`internalMaintenance`;`600`;`0`;`25`;`09:59:00`;`10:24:00`;``;``;``;`confirmed`;`2021-08-16 10:47:55`;`2021-08-16 10:47:55`
`147`;`2021-08-18`;`4`;`Boulevard Mayence 1, 6000 Charleroi`;`internalMaintenance`;`604`;`0`;`25`;`10:24:00`;`10:49:00`;``;``;``;`confirmed`;`2021-08-16 10:47:55`;`2021-08-16 10:47:55`
`148`;`2021-08-18`;`5`;`Boulevard Mayence 1, 6000 Charleroi`;`internalMaintenance`;`608`;`0`;`25`;`10:49:00`;`11:14:00`;``;``;``;`confirmed`;`2021-08-16 10:47:55`;`2021-08-16 10:47:55`
`149`;`2021-08-18`;`6`;`Boulevard Mayence 1, 6000 Charleroi`;`internalMaintenance`;`612`;`0`;`25`;`11:14:00`;`11:39:00`;``;``;``;`confirmed`;`2021-08-16 10:47:55`;`2021-08-16 10:47:55`
`150`;`2021-08-18`;`7`;`Boulevard Mayence 1, 6000 Charleroi`;`internalMaintenance`;`616`;`0`;`25`;`11:39:00`;`12:04:00`;``;``;``;`confirmed`;`2021-08-16 10:47:55`;`2021-08-16 10:47:55`
`151`;`2021-08-18`;`8`;`Avenue de l’Espérance, 1, 6220 Fleurus`;`internalMaintenance`;`84`;`10`;`30`;`12:14:00`;`12:44:00`;``;``;``;`confirmed`;`2021-08-16 10:47:55`;`2021-08-16 10:47:55`
`152`;`2021-08-18`;`9`;`Avenue de l’Espérance 1, 6220 Fleurus`;`internalMaintenance`;`787`;`0`;`30`;`12:44:00`;`13:14:00`;``;``;``;`confirmed`;`2021-08-16 10:47:55`;`2021-08-16 10:47:55`
`153`;`2021-08-18`;`10`;`Rue de Bovesse, 26 5081 La Bruyère `;`bikeOrder`;`22`;`17`;`30`;`13:31:00`;`14:01:00`;``;``;``;`confirmed`;`2021-08-16 10:47:55`;`2021-08-16 10:47:55`
`154`;`2021-08-18`;`12`;`4 Tige de Xhos, 4590 Ouffet`;`endAddress`;`0`;`51`;`0`;`14:52:00`;`14:52:00`;``;``;``;`confirmed`;`2021-08-16 10:47:55`;`2021-08-16 10:47:55`
`179`;`2021-08-31`;`7`;`Rue du cimetière 11, 5640 Mettet`;`internalMaintenance`;`866`;`0`;`20`;`15:32:00`;`15:52:00`;``;``;``;`confirmed`;`2021-08-31 10:43:41`;`2021-08-31 10:43:41`
`178`;`2021-08-31`;`6`;`Rue du cimetière 11, 5640 Mettet`;`internalMaintenance`;`787`;`25`;`20`;`15:12:00`;`15:32:00`;``;``;``;`confirmed`;`2021-08-31 10:43:41`;`2021-08-31 10:43:41`
`177`;`2021-08-31`;`5`;`Avenue de l’Espérance, 1, 6220 Fleurus`;`internalMaintenance`;`830`;`0`;`20`;`14:27:00`;`14:47:00`;``;``;``;`confirmed`;`2021-08-31 10:43:41`;`2021-08-31 10:43:41`
`176`;`2021-08-31`;`4`;`Avenue de l’Espérance, 1, 6220 Fleurus`;`internalMaintenance`;`96`;`0`;`20`;`14:07:00`;`14:27:00`;`10:30:00`;`10:50:00`;``;`done`;`2021-08-31 10:43:41`;`2021-09-15 10:49:21`
`175`;`2021-08-31`;`3`;`Avenue de l’Espérance, 1, 6220 Fleurus`;`internalMaintenance`;`88`;`43`;`20`;`13:47:00`;`14:07:00`;``;``;``;`confirmed`;`2021-08-31 10:43:41`;`2021-08-31 10:43:41`
`174`;`2021-08-31`;`2`;`46 Oude Vijversstraat 44-46, Oude Vijversstraat 44, 1190`;`internalMaintenance`;`869`;`6`;`20`;`12:44:00`;`13:04:00`;`10:30:00`;`10:50:00`;``;`done`;`2021-08-31 10:43:41`;`2021-09-15 10:49:05`
`173`;`2021-08-31`;`1`;`Avenue Frans Van Kalken 18, 1070 Anderlecht`;`internalMaintenance`;`819`;`93`;`20`;`12:18:00`;`12:38:00`;``;``;``;`confirmed`;`2021-08-31 10:43:41`;`2021-08-31 10:43:41`
`172`;`2021-08-31`;`0`;`4 Tige de Xhos, 4590 Ouffet`;`startAddress`;`0`;`0`;`0`;`10:45:00`;`10:45:00`;``;``;``;`confirmed`;`2021-08-31 10:43:41`;`2021-08-31 10:43:41`
`180`;`2021-08-31`;`9`;`4 Tige de Xhos, 4590 Ouffet`;`endAddress`;`0`;`69`;`0`;`17:01:00`;`17:01:00`;``;``;``;`confirmed`;`2021-08-31 10:43:41`;`2021-08-31 10:43:41`
`205`;`2021-09-15`;`7`;`Tour Astro, 1210 Saint-Josse-ten-Noode`;`additionalStep`;`0`;`17`;`30`;`12:47:00`;`13:17:00`;``;``;`Remplacer lock porte Actiris`;`confirmed`;`2021-09-14 16:21:08`;`2021-09-14 16:21:08`
`204`;`2021-09-15`;`6`;`Avenue Frans Van Kalken 18,  1070 Anderlecht`;`accessoryOrder`;`280`;`0`;`0`;`12:30:00`;`12:30:00`;``;``;``;`confirmed`;`2021-09-14 16:21:08`;`2021-09-14 16:21:08`
`203`;`2021-09-15`;`6`;`Avenue Frans Van Kalken 18,  1070 Anderlecht`;`accessoryOrder`;`279`;`0`;`0`;`12:30:00`;`12:30:00`;``;``;``;`confirmed`;`2021-09-14 16:21:08`;`2021-09-14 16:21:08`
`202`;`2021-09-15`;`5`;`Avenue Frans Van Kalken 18,  1070 Anderlecht`;`accessoryOrder`;`280`;`26`;`20`;`12:10:00`;`12:30:00`;`12:18:00`;`12:30:00`;``;`done`;`2021-09-14 16:21:08`;`2021-09-15 12:18:25`
`201`;`2021-09-15`;`5`;`Avenue Frans Van Kalken 18,  1070 Anderlecht`;`accessoryOrder`;`279`;`26`;`20`;`12:10:00`;`12:30:00`;``;``;``;`confirmed`;`2021-09-14 16:21:08`;`2021-09-14 16:21:08`
`200`;`2021-09-15`;`4`;`5 Avenue des Narcisses, 1640 Rhode Saint Genèse`;`internalMaintenance`;`880`;`20`;`25`;`11:19:00`;`11:44:00`;`11:12:00`;`11:46:00`;``;`done`;`2021-09-14 16:21:08`;`2021-09-15 11:46:47`
`199`;`2021-09-15`;`3`;`Avenue de la Houlette - 93 , 1160 Bruxelles`;`bikeOrder`;`176`;`0`;`0`;`10:59:00`;`10:59:00`;``;``;``;`confirmed`;`2021-09-14 16:21:08`;`2021-09-14 16:21:08`
`198`;`2021-09-15`;`2`;`Avenue de La Houlette 93, 1160 Bruxelles`;`accessoryOrder`;`269`;`37`;`30`;`10:29:00`;`10:59:00`;``;``;``;`confirmed`;`2021-09-14 16:21:08`;`2021-09-14 16:21:08`
`197`;`2021-09-15`;`2`;`Avenue de La Houlette 93, 1160 Bruxelles`;`accessoryOrder`;`268`;`37`;`30`;`10:29:00`;`10:59:00`;``;``;``;`confirmed`;`2021-09-14 16:21:08`;`2021-09-14 16:21:08`
`196`;`2021-09-15`;`2`;`Avenue de La Houlette 93, 1160 Bruxelles`;`bikeOrder`;`174`;`37`;`30`;`10:29:00`;`10:59:00`;``;``;``;`confirmed`;`2021-09-14 16:21:08`;`2021-09-14 16:21:08`
`195`;`2021-09-15`;`1`;`Chaussée de Marche 940, 5100 Naninna`;`internalMaintenance`;`690`;`42`;`25`;`09:27:00`;`09:52:00`;`09:20:00`;`09:50:00`;``;`done`;`2021-09-14 16:21:08`;`2021-09-15 09:41:05`
`194`;`2021-09-15`;`0`;`4 Tige de Xhos, 4590 Ouffet`;`startAddress`;`0`;`0`;`0`;`08:45:00`;`08:45:00`;``;``;``;`confirmed`;`2021-09-14 16:21:08`;`2021-09-14 16:21:08`
`206`;`2021-09-15`;`8`;`Rue Alphonse Vanden Bossche 21, 1140 Evere`;`internalMaintenance`;`888`;`13`;`25`;`13:30:00`;`13:55:00`;``;``;``;`confirmed`;`2021-09-14 16:21:08`;`2021-09-14 16:21:08`
`207`;`2021-09-15`;`9`;`4 Tige de Xhos, 4590 Ouffet`;`endAddress`;`0`;`86`;`0`;`15:21:00`;`15:21:00`;``;``;``;`confirmed`;`2021-09-14 16:21:08`;`2021-09-14 16:32:11`
`242`;`2021-10-01`;`6`;`4 Tige de Xhos, 4590 Ouffet`;`endAddress`;`0`;`66`;`0`;`15:27:00`;`15:27:00`;``;``;``;`confirmed`;`2021-09-30 09:45:36`;`2021-10-01 10:18:44`
`241`;`2021-10-01`;`5`;`rue de claminforge 56 5070 Le Roux`;`internalMaintenance`;`753`;`19`;`32`;`13:49:00`;`14:21:00`;``;``;``;`confirmed`;`2021-09-30 09:45:36`;`2021-10-01 10:18:42`
`237`;`2021-10-01`;`1`;`avenue de la toison d'or 63 1060 Bruxelles`;`internalMaintenance`;`911`;`85`;`27`;`10:40:00`;`11:07:00`;`10:25:00`;`11:05:00`;``;`done`;`2021-09-30 09:45:36`;`2021-10-01 12:05:47`
`240`;`2021-10-01`;`4`;`Avenue de l’Espérance, 1, 6220 Fleurus`;`internalMaintenance`;`92`;`43`;`20`;`13:10:00`;`13:30:00`;`13:30:00`;`13:54:00`;``;`done`;`2021-09-30 09:45:36`;`2021-10-01 13:54:27`
`239`;`2021-10-01`;`3`;`Avenue Frans Van Kalken 18, 1070 Anderlecht`;`internalMaintenance`;`910`;`22`;`27`;`12:00:00`;`12:27:00`;`12:41:00`;`12:50:00`;``;`done`;`2021-09-30 09:45:36`;`2021-10-01 12:46:46`
`238`;`2021-10-01`;`2`;`Rue Gabrielle Petit 6, 1080 Bruxelles`;`internalMaintenance`;`749`;`11`;`20`;`11:18:00`;`11:38:00`;`11:25:00`;`12:05:00`;``;`done`;`2021-09-30 09:45:36`;`2021-10-01 12:05:04`
`236`;`2021-10-01`;`0`;`4 Tige de Xhos, 4590 Ouffet`;`startAddress`;`0`;`0`;`0`;`09:15:00`;`09:15:00`;``;``;``;`confirmed`;`2021-09-30 09:45:36`;`2021-10-01 10:16:20`
`243`;`2021-10-12`;`1`;`4 Tige de Xhos, 4590 Ouffet`;`startAddress`;`0`;`0`;`0`;`09:00:00`;`09:00:00`;``;``;``;`confirmed`;`2021-10-12 09:11:20`;`2021-10-12 09:11:20`
`244`;`2021-10-12`;`1`;`Rue Gabrielle Petit 6, 1080 Bruxelles`;`internalMaintenance`;`192`;`93`;`43`;`10:33:00`;`11:16:00`;``;``;``;`confirmed`;`2021-10-12 09:11:20`;`2021-10-12 09:11:20`
`245`;`2021-10-12`;`2`;`Avenue des Narcisses 5, 1640 Rhode-Saint-Genèse`;`internalMaintenance`;`470`;`37`;`27`;`11:53:00`;`12:20:00`;``;``;``;`confirmed`;`2021-10-12 09:11:20`;`2021-10-12 09:11:20`
`246`;`2021-10-12`;`3`;`Avenue de l’Espérance, 1, 6220 Fleurus`;`internalMaintenance`;`809`;`45`;`43`;`13:05:00`;`13:48:00`;``;``;``;`confirmed`;`2021-10-12 09:11:20`;`2021-10-12 09:11:20`
`247`;`2021-10-12`;`4`;`Passage d'Heuvy 6, 5000 Namur`;`internalMaintenance`;`919`;`23`;`82`;`14:11:00`;`15:33:00`;``;``;``;`confirmed`;`2021-10-12 09:11:20`;`2021-10-12 09:11:20`
`248`;`2021-10-12`;`6`;`4 Tige de Xhos, 4590 Ouffet`;`endAddress`;`0`;`54`;`0`;`16:27:00`;`16:27:00`;``;``;``;`confirmed`;`2021-10-12 09:11:20`;`2021-10-12 09:11:20`
`249`;`2021-10-20`;`1`;`4 Tige de Xhos, 4590 Ouffet`;`startAddress`;`0`;`0`;`0`;`07:30:00`;`07:30:00`;``;``;``;`confirmed`;`2021-10-19 21:45:49`;`2021-10-19 21:45:49`
`250`;`2021-10-20`;`1`;`Rue Gabrielle Petit 6, 1080 Bruxelles`;`internalMaintenance`;`943`;`81`;`15`;`08:51:00`;`09:06:00`;``;``;``;`confirmed`;`2021-10-19 21:45:49`;`2021-10-19 21:45:49`
`251`;`2021-10-20`;`2`;`Rue Gabrielle Petit 6, 1080 Bruxelles`;`internalMaintenance`;`945`;`18`;`45`;`09:24:00`;`10:09:00`;``;``;``;`confirmed`;`2021-10-19 21:45:49`;`2021-10-19 21:45:49`
`252`;`2021-10-20`;`3`;`Rue Gabrielle Petit 6, 1080 Bruxelles`;`internalMaintenance`;`661`;`8`;`45`;`10:17:00`;`11:02:00`;``;``;``;`confirmed`;`2021-10-19 21:45:49`;`2021-10-19 21:45:49`
`253`;`2021-10-20`;`4`;`Rue Stevin 216, 1000 Bruxelles`;`internalMaintenance`;`322`;`14`;`40`;`11:16:00`;`11:56:00`;``;``;``;`confirmed`;`2021-10-19 21:45:49`;`2021-10-19 21:45:49`
`254`;`2021-10-20`;`5`;`Chau. de la Hulpe 181, 1170 Watermael-Boitsfort`;`internalMaintenance`;`330`;`0`;`40`;`11:56:00`;`12:36:00`;``;``;``;`confirmed`;`2021-10-19 21:45:49`;`2021-10-19 21:45:49`
`255`;`2021-10-20`;`6`;`avenue Victor Jacobs 29 - 1040 Etterbeek`;`internalMaintenance`;`334`;`0`;`40`;`12:36:00`;`13:16:00`;``;``;``;`confirmed`;`2021-10-19 21:45:49`;`2021-10-19 21:45:49`
`256`;`2021-10-20`;`7`;`Av. Jean Monnet 4, 1348 Ottignies-Louvain-la-Neuve`;`internalMaintenance`;`983`;`36`;`30`;`13:52:00`;`14:22:00`;``;``;``;`confirmed`;`2021-10-19 21:45:49`;`2021-10-19 21:45:49`
`257`;`2021-10-20`;`9`;`4 Tige de Xhos, 4590 Ouffet`;`endAddress`;`0`;`60`;`0`;`15:22:00`;`15:22:00`;``;``;``;`confirmed`;`2021-10-19 21:45:49`;`2021-10-19 21:45:49`
`258`;`2021-11-19`;`1`;`rue de la brasserie 8 4000 liege`;`startAddress`;`0`;`0`;`0`;`07:30:00`;`07:30:00`;``;``;``;`confirmed`;`2021-11-18 14:32:59`;`2021-11-18 14:32:59`
`259`;`2021-11-19`;`1`;`Av. du Prince de Liège 78, 5100 Namur`;`internalMaintenance`;`173`;`51`;`10`;`08:21:00`;`08:31:00`;``;``;``;`confirmed`;`2021-11-18 14:32:59`;`2021-11-18 14:32:59`
`260`;`2021-11-19`;`2`;`Passage d'Heuvy 6, 5000 Namen`;`internalMaintenance`;`1026`;`10`;`30`;`08:41:00`;`09:11:00`;``;``;``;`confirmed`;`2021-11-18 14:32:59`;`2021-11-18 14:32:59`
`261`;`2021-11-19`;`3`;`Av. de l'Espérance 1, 6220 Fleurus`;`internalMaintenance`;`1024`;`25`;`20`;`09:36:00`;`09:56:00`;``;``;``;`confirmed`;`2021-11-18 14:32:59`;`2021-11-18 14:32:59`
`262`;`2021-11-19`;`4`;`Chemin vert, 78 3120 NALINNES`;`internalMaintenance`;`1031`;`23`;`35`;`10:19:00`;`10:54:00`;``;``;``;`confirmed`;`2021-11-18 14:32:59`;`2021-11-18 14:32:59`
`263`;`2021-11-19`;`5`;`Rue Ernest Solvay 49, 6211 Mellet`;`bikeOrder`;`197`;`24`;`20`;`11:18:00`;`11:38:00`;``;``;``;`confirmed`;`2021-11-18 14:32:59`;`2021-11-18 14:32:59`
`264`;`2021-11-19`;`5`;`Rue Ernest Solvay 49, 6211 Mellet`;`accessoryOrder`;`361`;`24`;`20`;`11:18:00`;`11:38:00`;``;``;``;`confirmed`;`2021-11-18 14:32:59`;`2021-11-18 14:32:59`
`265`;`2021-11-19`;`5`;`Rue Ernest Solvay 49, 6211 Mellet`;`accessoryOrder`;`362`;`24`;`20`;`11:18:00`;`11:38:00`;``;``;``;`confirmed`;`2021-11-18 14:32:59`;`2021-11-18 14:32:59`
`266`;`2021-11-19`;`5`;`Rue Ernest Solvay 49, 6211 Mellet`;`accessoryOrder`;`363`;`24`;`20`;`11:18:00`;`11:38:00`;``;``;``;`confirmed`;`2021-11-18 14:32:59`;`2021-11-18 14:32:59`
`267`;`2021-11-19`;`5`;`Rue Ernest Solvay 49, 6211 Mellet`;`accessoryOrder`;`365`;`24`;`20`;`11:18:00`;`11:38:00`;``;``;``;`confirmed`;`2021-11-18 14:32:59`;`2021-11-18 14:32:59`
`268`;`2021-11-19`;`5`;`Rue Ernest Solvay 49, 6211 Mellet`;`accessoryOrder`;`366`;`24`;`20`;`11:18:00`;`11:38:00`;``;``;``;`confirmed`;`2021-11-18 14:32:59`;`2021-11-18 14:32:59`
`269`;`2021-11-19`;`5`;`Rue Ernest Solvay 49, 6211 Mellet`;`accessoryOrder`;`367`;`24`;`20`;`11:18:00`;`11:38:00`;``;``;``;`confirmed`;`2021-11-18 14:32:59`;`2021-11-18 14:32:59`
`270`;`2021-11-19`;`5`;`Rue Ernest Solvay 49, 6211 Mellet`;`accessoryOrder`;`368`;`24`;`20`;`11:18:00`;`11:38:00`;``;``;``;`confirmed`;`2021-11-18 14:32:59`;`2021-11-18 14:32:59`
`271`;`2021-11-19`;`5`;`Rue Ernest Solvay 49, 6211 Mellet`;`accessoryOrder`;`369`;`24`;`20`;`11:18:00`;`11:38:00`;``;``;``;`confirmed`;`2021-11-18 14:32:59`;`2021-11-18 14:32:59`
`272`;`2021-11-19`;`5`;`Rue Ernest Solvay 49, 6211 Mellet`;`accessoryOrder`;`370`;`24`;`20`;`11:18:00`;`11:38:00`;``;``;``;`confirmed`;`2021-11-18 14:32:59`;`2021-11-18 14:32:59`
`273`;`2021-11-19`;`5`;`Rue Ernest Solvay 49, 6211 Mellet`;`accessoryOrder`;`371`;`24`;`20`;`11:18:00`;`11:38:00`;``;``;``;`confirmed`;`2021-11-18 14:32:59`;`2021-11-18 14:32:59`
`274`;`2021-11-19`;`5`;`Rue Ernest Solvay 49, 6211 Mellet`;`accessoryOrder`;`372`;`24`;`20`;`11:18:00`;`11:38:00`;``;``;``;`confirmed`;`2021-11-18 14:32:59`;`2021-11-18 14:32:59`
`275`;`2021-11-19`;`6`;`Rue des Salanganes 28 – 1428 Lillois`;`internalMaintenance`;`56`;`26`;`30`;`12:04:00`;`12:34:00`;``;``;``;`confirmed`;`2021-11-18 14:32:59`;`2021-11-18 14:32:59`
`276`;`2021-11-19`;`7`;`Av. Jean Monnet 4, 1348 Ottignies-Louvain-la-Neuve`;`internalMaintenance`;`1033`;`22`;`15`;`12:56:00`;`13:11:00`;``;``;``;`confirmed`;`2021-11-18 14:32:59`;`2021-11-18 14:32:59`
`277`;`2021-11-19`;`8`;`Rue du Commerce 20, 1000 Bruxelles`;`internalMaintenance`;`1035`;`30`;`30`;`13:41:00`;`14:11:00`;``;``;``;`confirmed`;`2021-11-18 14:32:59`;`2021-11-18 14:32:59`
`278`;`2021-11-19`;`9`;`36 rue stevin 1000 BXL`;`internalMaintenance`;`1014`;`6`;`20`;`14:17:00`;`14:37:00`;``;``;``;`confirmed`;`2021-11-18 14:32:59`;`2021-11-18 14:32:59`
`279`;`2021-11-19`;`10`;`13 avenue Beethoven 1083 Ganshoren`;`internalMaintenance`;`1034`;`13`;`30`;`14:50:00`;`15:20:00`;``;``;``;`confirmed`;`2021-11-18 14:32:59`;`2021-11-19 10:53:53`
`280`;`2021-11-19`;`12`;`rue de la brasserie 8 4000 liege`;`endAddress`;`0`;`75`;`0`;`16:35:00`;`16:35:00`;``;``;``;`confirmed`;`2021-11-18 14:32:59`;`2021-11-18 14:32:59`
`281`;`2021-11-25`;`1`;`rue de la brasserie 8 4000 liege`;`startAddress`;`0`;`0`;`0`;`12:30:00`;`12:30:00`;``;``;``;`confirmed`;`2021-11-24 21:06:05`;`2021-11-24 21:06:05`
`282`;`2021-11-25`;`1`;`Rue de la brasserie`;`internalMaintenance`;`1032`;`69`;`20`;`13:39:00`;`13:59:00`;``;``;``;`confirmed`;`2021-11-24 21:06:05`;`2021-11-24 21:06:05`
`283`;`2021-11-25`;`2`;`Rue Gabrielle Petit 6, 1080 Bruxelles`;`internalMaintenance`;`326`;`18`;`20`;`14:17:00`;`14:37:00`;``;``;``;`confirmed`;`2021-11-24 21:06:05`;`2021-11-24 21:06:05`
`284`;`2021-11-25`;`3`;`Rue Gabrielle Petit 6, 1080 Bruxelles`;`internalMaintenance`;`393`;`0`;`20`;`14:37:00`;`14:57:00`;``;``;``;`confirmed`;`2021-11-24 21:06:05`;`2021-11-24 21:06:05`
`285`;`2021-11-25`;`4`;`12 cantersteen 1000 Bruxelles`;`internalMaintenance`;`1014`;`13`;`20`;`15:10:00`;`15:30:00`;``;``;``;`confirmed`;`2021-11-24 21:06:05`;`2021-11-24 21:06:05`
`286`;`2021-11-25`;`5`;`220 avenue Franklin Roosevelt à 1050 Bruxelles `;`internalMaintenance`;`1016`;`15`;`20`;`15:45:00`;`16:05:00`;``;``;``;`confirmed`;`2021-11-24 21:06:05`;`2021-11-24 21:06:05`
`287`;`2021-11-25`;`6`;`Rue du Ham 45 Uccle 1180`;`internalMaintenance`;`132`;`8`;`20`;`16:13:00`;`16:33:00`;``;``;``;`confirmed`;`2021-11-24 21:06:05`;`2021-11-24 21:06:05`
`288`;`2021-11-25`;`8`;`rue de la brasserie 8 4000 liege`;`endAddress`;`0`;`78`;`0`;`17:51:00`;`17:51:00`;``;``;``;`confirmed`;`2021-11-24 21:06:05`;`2021-11-24 21:06:05`
`289`;`2021-12-15`;`0`;`rue de la brasserie 8 4000 liège`;`startAddress`;`0`;`0`;`0`;`08:30:00`;`08:30:00`;``;``;``;`confirmed`;`2021-12-14 16:51:20`;`2021-12-14 16:52:37`
`290`;`2021-12-15`;`1`;`Passage d'Heuvy 6, 5000 Namen`;`internalMaintenance`;`1090`;`52`;`50`;`09:22:00`;`10:12:00`;``;``;``;`confirmed`;`2021-12-14 16:51:20`;`2021-12-14 16:51:20`
`291`;`2021-12-15`;`2`;`Rue du tir de Ronet 39 5020 Flawinne`;`internalMaintenance`;`1089`;`7`;`50`;`10:19:00`;`11:09:00`;``;``;``;`confirmed`;`2021-12-14 16:51:20`;`2021-12-14 16:51:20`
`292`;`2021-12-15`;`3`;`Rue du cimetière 11, 5640 Mettet`;`internalMaintenance`;`1069`;`29`;`20`;`11:38:00`;`11:58:00`;``;``;``;`confirmed`;`2021-12-14 16:51:20`;`2021-12-14 16:51:20`
`293`;`2021-12-15`;`4`;`Av. de l'Espérance 1, 6220 Fleurus`;`internalMaintenance`;`861`;`24`;`20`;`12:22:00`;`12:42:00`;``;``;``;`confirmed`;`2021-12-14 16:51:20`;`2021-12-14 16:51:20`
`294`;`2021-12-15`;`5`;`Rue Ernest Solvay 49, 6211 Mellet`;`internalMaintenance`;`1091`;`13`;`20`;`12:55:00`;`13:15:00`;``;``;``;`confirmed`;`2021-12-14 16:51:20`;`2021-12-14 16:51:20`
`316`;`2021-12-16`;`1`;`Rue de la résistance 25 1490 Court-St-Etienne`;`accessoryOrder`;`456`;`62`;`20`;`11:17:00`;`11:37:00`;``;``;``;`confirmed`;`2021-12-16 09:38:30`;`2021-12-16 09:38:30`
`315`;`2021-12-16`;`1`;`Rue de la résistance 25 1490 Court-St-Etienne`;`accessoryOrder`;`457`;`62`;`20`;`11:17:00`;`11:37:00`;``;``;``;`confirmed`;`2021-12-16 09:38:30`;`2021-12-16 09:38:30`
`314`;`2021-12-16`;`1`;`Rue de la résistance 25 1490 Court-St-Etienne`;`bikeOrder`;`214`;`62`;`20`;`11:17:00`;`11:37:00`;``;``;``;`confirmed`;`2021-12-16 09:38:30`;`2021-12-16 09:38:30`
`313`;`2021-12-16`;`1`;`rue de la brasserie 8 4000 liège`;`startAddress`;`0`;`0`;`0`;`10:15:00`;`10:15:00`;``;``;``;`confirmed`;`2021-12-16 09:38:30`;`2021-12-16 09:38:30`
`311`;`2021-12-15`;`10`;`1250 chaussée de Waterloo`;`additionalStep`;`0`;`23`;`30`;`16:42:05`;`17:12:00`;``;``;`Test vélo`;`confirmed`;`2021-12-14 17:04:02`;`2021-12-15 14:24:46`
`312`;`2021-12-15`;`11`;`Av. Albert 1er 277, 1332 Rixensart`;`additionalStep`;`0`;`34`;`20`;`17:46:00`;`18:06:00`;``;``;`Test trotti`;`confirmed`;`2021-12-14 17:04:44`;`2021-12-14 17:05:47`
`301`;`2021-12-15`;`1`;`Passage d'Heuvy 6, 5000 Namen`;`internalMaintenance`;`1090`;`52`;`50`;`09:22:00`;`10:12:00`;``;``;``;`confirmed`;`2021-12-14 16:54:41`;`2021-12-14 16:54:41`
`302`;`2021-12-15`;`2`;`Rue du tir de Ronet 39 5020 Flawinne`;`internalMaintenance`;`1089`;`7`;`50`;`10:19:00`;`11:09:00`;``;``;``;`confirmed`;`2021-12-14 16:54:41`;`2021-12-14 16:54:41`
`303`;`2021-12-15`;`3`;`Rue du cimetière 11, 5640 Mettet`;`internalMaintenance`;`1069`;`29`;`20`;`11:38:00`;`11:58:00`;``;``;``;`confirmed`;`2021-12-14 16:54:41`;`2021-12-14 16:54:41`
`304`;`2021-12-15`;`4`;`Av. de l'Espérance 1, 6220 Fleurus`;`internalMaintenance`;`861`;`24`;`20`;`12:22:00`;`12:42:00`;``;``;``;`confirmed`;`2021-12-14 16:54:41`;`2021-12-14 16:54:41`
`305`;`2021-12-15`;`5`;`Rue Ernest Solvay 49, 6211 Mellet`;`internalMaintenance`;`1091`;`13`;`20`;`12:55:00`;`13:15:00`;``;``;``;`confirmed`;`2021-12-14 16:54:41`;`2021-12-14 16:54:41`
`306`;`2021-12-15`;`8`;`rue des écoles 7141 Carnières `;`bikeOrder`;`74`;`20`;`20`;`14:05:00`;`14:25:00`;``;``;``;`confirmed`;`2021-12-14 16:54:41`;`2021-12-14 17:07:14`
`307`;`2021-12-15`;`7`;`Rue de bertransart 59 6280 Gerpinnes`;`bikeOrder`;`195`;`27`;`20`;`14:52:00`;`15:12:00`;``;``;``;`confirmed`;`2021-12-14 16:54:41`;`2021-12-14 17:07:12`
`308`;`2021-12-15`;`9`;`chemin des postes 134 à 1410 Waterloo `;`bikeOrder`;`208`;`47`;`20`;`15:59:00`;`16:19:00`;``;``;``;`confirmed`;`2021-12-14 16:54:41`;`2021-12-14 16:54:41`
`309`;`2021-12-15`;`12`;`16 champ du curé, 1390 Biez`;`internalMaintenance`;`1088`;`22`;`20`;`18:28:00`;`18:48:00`;``;``;``;`confirmed`;`2021-12-14 16:54:41`;`2021-12-14 17:05:50`
`310`;`2021-12-15`;`13`;`rue de la brasserie 8 4000 liege`;`endAddress`;`0`;`63`;`0`;`19:51:00`;`19:51:00`;``;``;``;`confirmed`;`2021-12-14 16:54:41`;`2021-12-14 17:05:52`
`317`;`2021-12-16`;`1`;`Rue de la résistance 25 1490 Court-St-Etienne`;`accessoryOrder`;`455`;`62`;`20`;`11:17:00`;`11:37:00`;``;``;``;`confirmed`;`2021-12-16 09:38:30`;`2021-12-16 09:38:30`
`318`;`2021-12-16`;`1`;`Rue de la résistance 25 1490 Court-St-Etienne`;`accessoryOrder`;`454`;`62`;`20`;`11:17:00`;`11:37:00`;``;``;``;`confirmed`;`2021-12-16 09:38:30`;`2021-12-16 09:38:30`
`319`;`2021-12-16`;`1`;`Rue de la résistance 25 1490 Court-St-Etienne`;`accessoryOrder`;`453`;`62`;`20`;`11:17:00`;`11:37:00`;``;``;``;`confirmed`;`2021-12-16 09:38:30`;`2021-12-16 09:38:30`
`320`;`2021-12-16`;`1`;`Rue de la résistance 25 1490 Court-St-Etienne`;`accessoryOrder`;`452`;`62`;`20`;`11:17:00`;`11:37:00`;``;``;``;`confirmed`;`2021-12-16 09:38:30`;`2021-12-16 09:38:30`
`321`;`2021-12-16`;`3`;`5, avenue des Narcisses 1640 Rhode-Saint-Genèse `;`internalMaintenance`;`1070`;`24`;`30`;`12:51:00`;`13:21:00`;``;``;``;`confirmed`;`2021-12-16 09:38:30`;`2021-12-16 09:38:30`
`322`;`2021-12-16`;`4`;`Avenue de la Houlette - 93  1160 Bruxelles`;`internalMaintenance`;`973`;`21`;`20`;`13:42:00`;`14:02:00`;``;``;``;`confirmed`;`2021-12-16 09:38:30`;`2021-12-16 09:38:30`
`323`;`2021-12-16`;`5`;`Avenue de la Houlette - 93  1160 Bruxelles`;`internalMaintenance`;`976`;`0`;`20`;`14:02:00`;`14:22:00`;``;``;``;`confirmed`;`2021-12-16 09:38:30`;`2021-12-16 09:38:30`
`324`;`2021-12-16`;`6`;`213 Avenue AJ Slegers 1200 Woluwé-Saint-Lambert`;`internalMaintenance`;`839`;`12`;`30`;`14:34:00`;`15:04:00`;``;``;``;`confirmed`;`2021-12-16 09:38:30`;`2021-12-16 09:38:30`
`325`;`2021-12-16`;`7`;`Rue des anciens etangs 44-46 1190 Bruxelles`;`internalMaintenance`;`1000`;`21`;`30`;`15:25:00`;`15:55:00`;``;``;``;`confirmed`;`2021-12-16 09:38:30`;`2021-12-16 09:38:30`
`326`;`2021-12-16`;`8`;`Avenue Edouard Kufferath 46 boite 6 1020 Laeken`;`internalMaintenance`;`995`;`20`;`30`;`16:15:00`;`16:45:00`;``;``;``;`confirmed`;`2021-12-16 09:38:30`;`2021-12-16 09:38:30`
`327`;`2021-12-16`;`9`;`Rue Gabrielle Petit 6, 1080 Bruxelles`;`internalMaintenance`;`1092`;`10`;`20`;`16:55:00`;`17:15:00`;``;``;``;`confirmed`;`2021-12-16 09:38:30`;`2021-12-16 09:38:30`
`328`;`2021-12-16`;`11`;`rue de la brasserie 8 4000 liege`;`endAddress`;`0`;`76`;`0`;`18:31:00`;`18:31:00`;``;``;``;`confirmed`;`2021-12-16 09:38:30`;`2021-12-16 09:38:30`
`329`;`2022-02-18`;`1`;`4 Tige de Xhos, 4590 Ouffet`;`startAddress`;`0`;`0`;`0`;`08:30:00`;`08:30:00`;``;``;``;`confirmed`;`2022-02-16 14:56:49`;`2022-02-16 14:56:49`
`330`;`2022-02-18`;`1`;`Rue sous l’église 14. 5020 Temploux`;`internalMaintenance`;`121`;`52`;`5`;`09:22:00`;`09:27:00`;``;``;``;`confirmed`;`2022-02-16 14:56:49`;`2022-02-16 14:56:49`
`331`;`2022-02-18`;`2`;`Avenue de l’Espérance, 1, 6220 Fleurus`;`internalMaintenance`;`409`;`16`;`30`;`09:43:00`;`10:13:00`;``;``;``;`confirmed`;`2022-02-16 14:56:49`;`2022-02-16 14:56:49`
`332`;`2022-02-18`;`3`;`Avenue de l’Espérance, 1, 6220 Fleurus`;`internalMaintenance`;`1190`;`0`;`30`;`10:13:00`;`10:43:00`;``;``;``;`confirmed`;`2022-02-16 14:56:49`;`2022-02-16 14:56:49`
`333`;`2022-02-18`;`4`;`Avenue Guillaume Poels, 20 1160 Auderghem`;`internalMaintenance`;`1211`;`44`;`30`;`11:27:00`;`11:57:00`;``;``;``;`confirmed`;`2022-02-16 14:56:49`;`2022-02-16 14:56:49`
`334`;`2022-02-18`;`6`;`8 place des barricades 1000 bruxelles`;`internalMaintenance`;`1212`;`19`;`30`;`12:50:00`;`13:20:00`;``;``;``;`confirmed`;`2022-02-16 14:56:49`;`2022-02-17 17:49:55`
`335`;`2022-02-18`;`7`;`Rue Gabrielle Petit 6, 1080 Bruxelles`;`internalMaintenance`;`1213`;`12`;`20`;`13:33:00`;`13:53:00`;``;``;``;`confirmed`;`2022-02-16 14:56:49`;`2022-02-17 17:50:29`
`336`;`2022-02-18`;`8`;`schuttervest 88/1 malines`;`internalMaintenance`;`461`;`33`;`30`;`14:26:00`;`14:56:00`;``;``;``;`confirmed`;`2022-02-16 14:56:49`;`2022-02-17 17:50:50`
`337`;`2022-02-18`;`10`;`4 Tige de Xhos, 4590 Ouffet`;`endAddress`;`0`;`60`;`0`;`17:16:00`;`17:16:00`;``;``;``;`confirmed`;`2022-02-16 14:56:49`;`2022-02-17 17:54:14`
`338`;`2022-02-18`;`5`;`Avenue de la Houlette - 93 1160 Bruxelles`;`internalMaintenance`;`1225`;`2`;`30`;`12:05:00`;`12:35:00`;``;``;``;`confirmed`;`2022-02-16 14:56:49`;`2022-02-17 17:55:43`
`339`;`2022-02-18`;`9`;`25 rue de la resistance, court st etienne`;`internalMaintenance`;`1226`;`46`;`30`;`15:46:00`;`16:16:00`;``;``;``;`confirmed`;`2022-02-16 14:56:49`;`2022-02-17 17:54:39`
`340`;`2022-03-11`;`1`;`4 Tige de Xhos, 4590 Ouffet`;`startAddress`;`0`;`0`;`0`;`08:30:00`;`08:30:00`;``;``;``;`confirmed`;`2022-03-11 10:07:16`;`2022-03-11 10:07:16`
`341`;`2022-03-11`;`1`;`Avenue Guillaume Poels, 20 1160 Auderghem`;`bikeOrder`;`246`;`73`;`20`;`09:43:00`;`10:03:00`;``;``;``;`confirmed`;`2022-03-11 10:07:16`;`2022-03-11 10:07:16`
`342`;`2022-03-11`;`2`;`Rue Gabrielle Petit 6, 1080 Bruxelles`;`internalMaintenance`;`1254`;`27`;`20`;`10:30:00`;`10:50:00`;``;``;``;`confirmed`;`2022-03-11 10:07:16`;`2022-03-11 10:07:16`
`343`;`2022-03-11`;`3`;`Morgenlandstraat 113, 1040 etterbeek`;`internalMaintenance`;`458`;`17`;`20`;`11:07:00`;`11:27:00`;``;``;``;`confirmed`;`2022-03-11 10:07:16`;`2022-03-11 10:07:16`
`344`;`2022-03-11`;`5`;`8 place des barricades 1000 bruxelles`;`bikeOrder`;`243`;`3`;`20`;`12:11:00`;`12:31:00`;``;``;``;`confirmed`;`2022-03-11 10:07:16`;`2022-03-11 10:07:16`
`345`;`2022-03-11`;`6`;`16 champ du curé, 1390 Biez`;`internalMaintenance`;`1250`;`37`;`20`;`13:08:00`;`13:28:00`;``;``;``;`confirmed`;`2022-03-11 10:07:16`;`2022-03-11 10:07:16`
`346`;`2022-03-11`;`7`;`Penant 1, 5500 Dinant`;`bikeOrder`;`236`;`53`;`20`;`14:21:00`;`14:41:00`;``;``;``;`confirmed`;`2022-03-11 10:07:16`;`2022-03-11 10:07:16`
`347`;`2022-03-11`;`9`;`4 Tige de Xhos, 4590 Ouffet`;`endAddress`;`0`;`49`;`0`;`15:30:00`;`15:30:00`;``;``;``;`confirmed`;`2022-03-11 10:07:16`;`2022-03-11 10:07:16`
`348`;`2022-03-11`;`1`;`4 Tige de Xhos, 4590 Ouffet`;`startAddress`;`0`;`0`;`0`;`08:30:00`;`08:30:00`;``;``;``;`confirmed`;`2022-03-11 10:07:20`;`2022-03-11 10:07:20`
`349`;`2022-03-11`;`1`;`Avenue Guillaume Poels, 20 1160 Auderghem`;`bikeOrder`;`246`;`73`;`20`;`09:43:00`;`10:03:00`;``;``;``;`confirmed`;`2022-03-11 10:07:20`;`2022-03-11 10:07:20`
`350`;`2022-03-11`;`2`;`Rue Gabrielle Petit 6, 1080 Bruxelles`;`internalMaintenance`;`1254`;`27`;`20`;`10:30:00`;`10:50:00`;``;``;``;`confirmed`;`2022-03-11 10:07:20`;`2022-03-11 10:07:20`
`351`;`2022-03-11`;`3`;`Morgenlandstraat 113, 1040 etterbeek`;`internalMaintenance`;`458`;`17`;`20`;`11:07:00`;`11:27:00`;``;``;``;`confirmed`;`2022-03-11 10:07:20`;`2022-03-11 10:07:20`
`352`;`2022-03-11`;`5`;`8 place des barricades 1000 bruxelles`;`bikeOrder`;`243`;`3`;`20`;`12:11:00`;`12:31:00`;``;``;``;`confirmed`;`2022-03-11 10:07:20`;`2022-03-11 10:07:20`
`353`;`2022-03-11`;`6`;`16 champ du curé, 1390 Biez`;`internalMaintenance`;`1250`;`37`;`20`;`13:08:00`;`13:28:00`;``;``;``;`confirmed`;`2022-03-11 10:07:20`;`2022-03-11 10:07:20`
`354`;`2022-03-11`;`7`;`Penant 1, 5500 Dinant`;`bikeOrder`;`236`;`53`;`20`;`14:21:00`;`14:41:00`;``;``;``;`confirmed`;`2022-03-11 10:07:20`;`2022-03-11 10:07:20`
`355`;`2022-03-11`;`9`;`4 Tige de Xhos, 4590 Ouffet`;`endAddress`;`0`;`49`;`0`;`15:30:00`;`15:30:00`;``;``;``;`confirmed`;`2022-03-11 10:07:20`;`2022-03-11 10:07:20`
`356`;`2022-05-19`;`1`;`4 Tige de Xhos, 4590 Ouffet`;`startAddress`;`0`;`0`;`0`;`06:30:00`;`06:30:00`;``;``;``;`confirmed`;`2022-05-18 15:40:42`;`2022-05-18 15:40:42`
`357`;`2022-05-19`;`1`;`rue Émile idiers 41, 1160 Auderghem `;`internalMaintenance`;`544`;`73`;`30`;`07:43:00`;`08:13:00`;``;``;``;`confirmed`;`2022-05-18 15:40:42`;`2022-05-18 15:40:42`
`358`;`2022-05-19`;`2`;`Avenue Ilya Prigogine 10, 1180 Uccle`;`internalMaintenance`;`589`;`26`;`30`;`08:39:00`;`09:09:00`;``;``;``;`confirmed`;`2022-05-18 15:40:42`;`2022-05-18 15:40:42`
`359`;`2022-05-19`;`3`;`Vantegemstraat 23, 9230 Wetteren`;`bikeOrder`;`312`;`34`;`30`;`09:43:00`;`10:13:00`;``;``;``;`confirmed`;`2022-05-18 15:40:42`;`2022-05-18 15:40:42`
`360`;`2022-05-19`;`3`;`Vantegemstraat 23, 9230 Wetteren`;`accessoryOrder`;`459`;`34`;`30`;`09:43:00`;`10:13:00`;``;``;``;`confirmed`;`2022-05-18 15:40:42`;`2022-05-18 15:40:42`
`361`;`2022-05-19`;`4`;`Avenue Edouard Kufferath 46  1020 Laeken`;`internalMaintenance`;`1426`;`30`;`15`;`10:43:00`;`10:58:00`;``;``;``;`confirmed`;`2022-05-18 15:40:42`;`2022-05-18 15:40:42`
`362`;`2022-05-19`;`5`;` Rue Gabrielle Petit 6, 1080 Bruxelles`;`bikeOrder`;`313`;`10`;`30`;`11:08:00`;`11:38:00`;``;``;``;`confirmed`;`2022-05-18 15:40:42`;`2022-05-18 15:40:42`
`363`;`2022-05-19`;`5`;` Rue Gabrielle Petit 6, 1080 Bruxelles`;`accessoryOrder`;`1282`;`10`;`30`;`11:08:00`;`11:38:00`;``;``;``;`confirmed`;`2022-05-18 15:40:42`;`2022-05-18 15:40:42`
`364`;`2022-05-19`;`6`;`Avenue Paul Deschanel 53 1030 Schaerbeek`;`internalMaintenance`;`682`;`16`;`45`;`11:54:00`;`12:39:00`;``;``;``;`confirmed`;`2022-05-18 15:40:42`;`2022-05-18 15:40:42`
`365`;`2022-05-19`;`7`;` rue du commerce 20-22 , 1000 Bruxelles`;`internalMaintenance`;`1147`;`12`;`44`;`12:51:00`;`13:35:00`;``;``;``;`confirmed`;`2022-05-18 15:40:42`;`2022-05-18 15:40:42`
`366`;`2022-05-19`;`8`;`Rue d’Arlon 63 1040`;`internalMaintenance`;`1234`;`4`;`45`;`13:39:00`;`14:24:00`;``;``;``;`confirmed`;`2022-05-18 15:40:42`;`2022-05-18 15:40:42`
`367`;`2022-05-19`;`9`;`Clos du Manoir 6, 1150`;`bikeOrder`;`307`;`15`;`30`;`14:39:00`;`15:09:00`;``;``;``;`confirmed`;`2022-05-18 15:40:42`;`2022-05-18 15:40:42`
`368`;`2022-05-19`;`9`;`Clos du Manoir 6, 1150`;`accessoryOrder`;`1303`;`15`;`30`;`14:39:00`;`15:09:00`;``;``;``;`confirmed`;`2022-05-18 15:40:42`;`2022-05-18 15:40:42`
`369`;`2022-05-19`;`9`;`Clos du Manoir 6, 1150`;`accessoryOrder`;`1274`;`15`;`30`;`14:39:00`;`15:09:00`;``;``;``;`confirmed`;`2022-05-18 15:40:42`;`2022-05-18 15:40:42`
`370`;`2022-05-19`;`9`;`Clos du Manoir 6, 1150`;`accessoryOrder`;`1275`;`15`;`30`;`14:39:00`;`15:09:00`;``;``;``;`confirmed`;`2022-05-18 15:40:42`;`2022-05-18 15:40:42`
`371`;`2022-05-19`;`11`;`4 Tige de Xhos, 4590 Ouffet`;`endAddress`;`0`;`76`;`0`;`16:25:00`;`16:25:00`;``;``;``;`confirmed`;`2022-05-18 15:40:42`;`2022-05-18 15:40:42`
`372`;`2022-06-01`;`1`;`22 quai de rome Liege`;`startAddress`;`0`;`0`;`0`;`07:30:00`;`07:30:00`;``;``;``;`confirmed`;`2022-06-01 07:08:35`;`2022-06-01 07:08:35`
`373`;`2022-06-01`;`1`;`Rue Gergel 7, 1970 Wezembeek-Oppem`;`internalMaintenance`;`1456`;`63`;`20`;`08:33:00`;`08:53:00`;``;``;``;`confirmed`;`2022-06-01 07:08:35`;`2022-06-01 07:08:35`
`374`;`2022-06-01`;`2`;`Avenue de l’Astronomie 14 Sterrenkundelaan Bruxelles 1210 Brussel `;`internalMaintenance`;`1489`;`18`;`20`;`09:11:00`;`09:31:00`;``;``;``;`confirmed`;`2022-06-01 07:08:35`;`2022-06-01 07:08:35`
`375`;`2022-06-01`;`3`;`Rue de la Consolation 58, 1030 Schaarbeek`;`bikeOrder`;`227`;`3`;`20`;`09:34:00`;`09:54:00`;``;``;``;`confirmed`;`2022-06-01 07:08:35`;`2022-06-01 07:08:35`
`376`;`2022-06-01`;`3`;`Rue de la Consolation 58, 1030 Schaarbeek`;`accessoryOrder`;`1004`;`3`;`20`;`09:34:00`;`09:54:00`;``;``;``;`confirmed`;`2022-06-01 07:08:35`;`2022-06-01 07:08:35`
`377`;`2022-06-01`;`3`;`Rue de la Consolation 58, 1030 Schaarbeek`;`accessoryOrder`;`1005`;`3`;`20`;`09:34:00`;`09:54:00`;``;``;``;`confirmed`;`2022-06-01 07:08:35`;`2022-06-01 07:08:35`
`378`;`2022-06-01`;`3`;`Rue de la Consolation 58, 1030 Schaarbeek`;`accessoryOrder`;`1006`;`3`;`20`;`09:34:00`;`09:54:00`;``;``;``;`confirmed`;`2022-06-01 07:08:35`;`2022-06-01 07:08:35`
`379`;`2022-06-01`;`4`;`Rue Gabrielle Petit 6, 1080 Bruxelles`;`internalMaintenance`;`1461`;`15`;`20`;`10:09:00`;`10:29:00`;``;``;``;`confirmed`;`2022-06-01 07:08:35`;`2022-06-01 07:08:35`
`380`;`2022-06-01`;`5`;`Rue Gabrielle Petit 6, 1080 Bruxelles`;`internalMaintenance`;`1490`;`0`;`20`;`10:29:00`;`10:49:00`;``;``;``;`confirmed`;`2022-06-01 07:08:35`;`2022-06-01 07:08:35`
`381`;`2022-06-01`;`6`;`Avenue de l’Espérance, 1, 6220 Fleurus`;`internalMaintenance`;`97`;`56`;`20`;`11:45:00`;`12:05:00`;``;``;``;`confirmed`;`2022-06-01 07:08:35`;`2022-06-01 07:08:35`
`382`;`2022-06-01`;`8`;`4 Tige de Xhos, 4590 Ouffet`;`endAddress`;`0`;`59`;`0`;`13:04:00`;`13:04:00`;``;``;``;`confirmed`;`2022-06-01 07:08:35`;`2022-06-01 07:08:35`
`476`;`2022-06-30`;`5`;` rue du commerce 20-22 , 1000 Bruxelles`;`internalMaintenance`;`1147`;`11`;`30`;`11:42:00`;`12:12:00`;`13:47:00`;`14:06:00`;``;`done`;`2022-06-29 18:12:43`;`2022-06-30 14:06:26`
`475`;`2022-06-30`;`4`;`Rue Gabrielle Petit 6, 1080 Bruxelles`;`internalMaintenance`;`1490`;`10`;`20`;`11:11:00`;`11:31:00`;`12:26:00`;`13:15:00`;``;`done`;`2022-06-29 18:12:43`;`2022-06-30 13:15:48`
`474`;`2022-06-30`;`3`;`13 avenue Beethoven 1083 Ganshoren`;`internalMaintenance`;`1530`;`30`;`19`;`10:42:00`;`11:01:00`;`12:21:00`;`13:15:00`;``;`done`;`2022-06-29 18:12:43`;`2022-06-30 13:15:34`
`473`;`2022-06-30`;`2`;`Vantegemstraat 23, 9230 Wetteren`;`internalMaintenance`;`1567`;`15`;`10`;`10:02:00`;`10:12:00`;`11:04:00`;`11:23:00`;``;`done`;`2022-06-29 18:12:43`;`2022-06-30 11:23:21`
`472`;`2022-06-30`;`1`;`Ongena k Brugstraat 10 A -9270 Kalken`;`internalMaintenance`;`1577`;`107`;`30`;`09:17:00`;`09:47:00`;`09:56:00`;`10:48:00`;``;`done`;`2022-06-29 18:12:43`;`2022-06-30 10:48:29`
`470`;`2022-06-29`;`12`;`quai de rome 22 4000 liege`;`endAddress`;`0`;`74`;`0`;`16:44:00`;`16:44:00`;``;``;``;`confirmed`;`2022-06-28 22:40:05`;`2022-06-28 22:40:05`
`469`;`2022-06-29`;`10`;`Av. Jacques Pastur, 49 1180 Uccle`;`internalMaintenance`;`231`;`0`;`20`;`15:10:00`;`15:30:00`;``;``;``;`confirmed`;`2022-06-28 22:40:05`;`2022-06-28 22:40:05`
`468`;`2022-06-29`;`9`;`Av. Jacques Pastur, 49 1180 Uccle`;`internalMaintenance`;`227`;`8`;`20`;`14:50:00`;`15:10:00`;``;``;``;`confirmed`;`2022-06-28 22:40:05`;`2022-06-28 22:40:05`
`467`;`2022-06-29`;`8`;`Chaussée de Saint-Job, 294 1180 Uccle`;`internalMaintenance`;`223`;`0`;`20`;`14:22:00`;`14:42:00`;``;``;``;`confirmed`;`2022-06-28 22:40:05`;`2022-06-28 22:40:05`
`466`;`2022-06-29`;`7`;`Chaussée de Saint-Job, 294 1180 Uccle`;`internalMaintenance`;`219`;`8`;`20`;`14:02:00`;`14:22:00`;``;``;``;`confirmed`;`2022-06-28 22:40:05`;`2022-06-28 22:40:05`
`465`;`2022-06-29`;`6`;`Av. de Boetendael 34, 1180 Uccle`;`internalMaintenance`;`215`;`0`;`20`;`13:34:00`;`13:54:00`;``;``;``;`confirmed`;`2022-06-28 22:40:05`;`2022-06-28 22:40:05`
`464`;`2022-06-29`;`5`;`Av. de Boetendael 34, 1180 Uccle`;`internalMaintenance`;`211`;`0`;`20`;`13:14:00`;`13:34:00`;`12:45:00`;`15:00:00`;``;`done`;`2022-06-28 22:40:05`;`2022-06-29 15:00:18`
`463`;`2022-06-29`;`3`;`avenue frans van kalken 18 , 198 1070 Anderlecht `;`internalMaintenance`;`499`;`43`;`20`;`12:08:00`;`12:28:00`;`11:55:00`;`12:22:00`;``;`done`;`2022-06-28 22:40:05`;`2022-06-29 12:22:23`
`462`;`2022-06-29`;`2`;`Avenue de l’Espérance, 1, 6220 Fleurus`;`internalMaintenance`;`1572`;`14`;`10`;`11:15:00`;`11:25:00`;`11:00:00`;`11:05:00`;``;`done`;`2022-06-28 22:40:05`;`2022-06-29 11:05:39`
`461`;`2022-06-29`;`1`;`Rue des combattants 6 5140 Tongrinne`;`internalMaintenance`;`93`;`61`;`30`;`10:31:00`;`11:01:00`;`10:30:00`;`10:46:00`;``;`done`;`2022-06-28 22:40:05`;`2022-06-29 10:46:13`
`460`;`2022-06-29`;`1`;`quai de rome 22`;`startAddress`;`0`;`0`;`0`;`09:30:00`;`09:30:00`;`10:30:00`;`10:46:00`;``;`done`;`2022-06-28 22:40:05`;`2022-06-29 10:46:13`
`459`;`2022-06-29`;`12`;`quai de rome 22 4000 liege`;`endAddress`;`0`;`74`;`0`;`16:44:00`;`16:44:00`;``;``;``;`confirmed`;`2022-06-28 22:39:51`;`2022-06-28 22:39:51`
`458`;`2022-06-29`;`10`;`Av. Jacques Pastur, 49 1180 Uccle`;`internalMaintenance`;`231`;`0`;`20`;`15:10:00`;`15:30:00`;``;``;``;`confirmed`;`2022-06-28 22:39:51`;`2022-06-28 22:39:51`
`457`;`2022-06-29`;`9`;`Av. Jacques Pastur, 49 1180 Uccle`;`internalMaintenance`;`227`;`8`;`20`;`14:50:00`;`15:10:00`;``;``;``;`confirmed`;`2022-06-28 22:39:50`;`2022-06-28 22:39:50`
`456`;`2022-06-29`;`8`;`Chaussée de Saint-Job, 294 1180 Uccle`;`internalMaintenance`;`223`;`0`;`20`;`14:22:00`;`14:42:00`;``;``;``;`confirmed`;`2022-06-28 22:39:50`;`2022-06-28 22:39:50`
`455`;`2022-06-29`;`7`;`Chaussée de Saint-Job, 294 1180 Uccle`;`internalMaintenance`;`219`;`8`;`20`;`14:02:00`;`14:22:00`;``;``;``;`confirmed`;`2022-06-28 22:39:50`;`2022-06-28 22:39:50`
`471`;`2022-06-30`;`1`;`quai de rome 22 4000 liege`;`startAddress`;`0`;`0`;`0`;`07:30:00`;`07:30:00`;`09:56:00`;`10:48:00`;``;`done`;`2022-06-29 18:12:43`;`2022-06-30 10:48:29`
`454`;`2022-06-29`;`6`;`Av. de Boetendael 34, 1180 Uccle`;`internalMaintenance`;`215`;`0`;`20`;`13:34:00`;`13:54:00`;``;``;``;`confirmed`;`2022-06-28 22:39:50`;`2022-06-28 22:39:50`
`453`;`2022-06-29`;`5`;`Av. de Boetendael 34, 1180 Uccle`;`internalMaintenance`;`211`;`0`;`20`;`13:14:00`;`13:34:00`;`12:45:00`;`15:00:00`;``;`done`;`2022-06-28 22:39:50`;`2022-06-29 15:00:18`
`452`;`2022-06-29`;`3`;`avenue frans van kalken 18 , 198 1070 Anderlecht `;`internalMaintenance`;`499`;`43`;`20`;`12:08:00`;`12:28:00`;`11:55:00`;`12:22:00`;``;`done`;`2022-06-28 22:39:50`;`2022-06-29 12:22:23`
`451`;`2022-06-29`;`2`;`Avenue de l’Espérance, 1, 6220 Fleurus`;`internalMaintenance`;`1572`;`14`;`10`;`11:15:00`;`11:25:00`;`11:00:00`;`11:05:00`;``;`done`;`2022-06-28 22:39:50`;`2022-06-29 11:05:39`
`450`;`2022-06-29`;`1`;`Rue des combattants 6 5140 Tongrinne`;`internalMaintenance`;`93`;`61`;`30`;`10:31:00`;`11:01:00`;`10:30:00`;`10:46:00`;``;`done`;`2022-06-28 22:39:50`;`2022-06-29 10:46:13`
`448`;`2022-06-23`;`10`;`quai de rome 22 4000 liege`;`endAddress`;`0`;`60`;`0`;`15:43:00`;`15:43:00`;``;``;``;`confirmed`;`2022-06-22 16:27:47`;`2022-06-22 16:27:47`
`447`;`2022-06-23`;`8`;`Rue d arlon 63 1040 bruxelles`;`internalMaintenance`;`1261`;`8`;`30`;`14:13:00`;`14:43:00`;``;``;``;`confirmed`;`2022-06-22 16:27:47`;`2022-06-22 16:27:47`
`446`;`2022-06-23`;`7`;`Avenue de l Astronomie 14, 1210 Bruxelles`;`internalMaintenance`;`1542`;`10`;`20`;`13:45:00`;`14:05:00`;``;``;``;`confirmed`;`2022-06-22 16:27:47`;`2022-06-22 16:27:47`
`445`;`2022-06-23`;`6`;`Rue Gabrielle Petit 6, 1080 Bruxelles`;`internalMaintenance`;`750`;`0`;`20`;`13:15:00`;`13:35:00`;``;``;``;`confirmed`;`2022-06-22 16:27:47`;`2022-06-22 16:27:47`
`444`;`2022-06-23`;`5`;`Rue Gabrielle Petit 6, 1080 Bruxelles`;`internalMaintenance`;`193`;`10`;`20`;`12:55:00`;`13:15:00`;``;``;``;`confirmed`;`2022-06-22 16:27:47`;`2022-06-22 16:27:47`
`443`;`2022-06-23`;`4`;`13 avenue Beethoven 1083 Ganshoren`;`internalMaintenance`;`1530`;`23`;`30`;`12:15:00`;`12:45:00`;``;``;``;`confirmed`;`2022-06-22 16:27:47`;`2022-06-22 16:27:47`
`449`;`2022-06-29`;`1`;`quai de rome 22`;`startAddress`;`0`;`0`;`0`;`09:30:00`;`09:30:00`;`10:30:00`;`10:46:00`;``;`done`;`2022-06-28 22:39:50`;`2022-06-29 10:46:13`
`442`;`2022-06-23`;`3`;`Rue de Stalle 15a  1180 Uccle`;`internalMaintenance`;`1292`;`60`;`30`;`11:22:00`;`11:52:00`;``;``;``;`confirmed`;`2022-06-22 16:27:47`;`2022-06-22 16:27:47`
`441`;`2022-06-23`;`2`;`Namur, Place de la Station 1, 5000 Namur`;`internalMaintenance`;`1540`;`41`;`20`;`10:02:00`;`10:22:00`;`10:20:00`;`10:38:00`;``;`done`;`2022-06-22 16:27:47`;`2022-06-23 10:38:40`
`440`;`2022-06-23`;`1`;`Av. de l'Industrie 1, 4500 Huy`;`internalMaintenance`;`1541`;`36`;`30`;`08:51:00`;`09:21:00`;`08:50:00`;`09:19:00`;``;`done`;`2022-06-22 16:27:47`;`2022-06-23 09:19:40`
`439`;`2022-06-23`;`1`;`quai de rome 22 4000 liege`;`startAddress`;`0`;`0`;`0`;`08:15:00`;`08:15:00`;`08:50:00`;`09:19:00`;``;`done`;`2022-06-22 16:27:47`;`2022-06-23 09:19:40`
`438`;`2022-06-10`;`10`;`TNPS sprl, Rue des Phlox 9, 5100 Namur`;`additionalStep`;`0`;`32`;`20`;`14:32:00`;`14:42:00`;``;``;`récupérer 5 vélos Bemoov`;`confirmed`;`2022-06-09 16:51:25`;`2022-06-09 16:52:35`
`427`;`2022-06-10`;`0`;`8 rue de la brasserie, 4000 liege`;`startAddress`;`0`;`0`;`0`;`07:00:00`;`07:00:00`;``;``;``;`confirmed`;`2022-06-09 14:17:36`;`2022-06-09 14:18:36`
`428`;`2022-06-10`;`1`;`Avenue de Tervueren 324, Woluwe-Saint-Pierre`;`internalMaintenance`;`125`;`68`;`30`;`08:08:00`;`08:38:00`;``;``;``;`confirmed`;`2022-06-09 14:17:36`;`2022-06-09 14:17:36`
`429`;`2022-06-10`;`2`;`Rue Gabrielle Petit 6, 1080 Bruxelles`;`internalMaintenance`;`1230`;`19`;`30`;`08:57:00`;`09:27:00`;``;``;``;`confirmed`;`2022-06-09 14:17:36`;`2022-06-09 14:17:36`
`430`;`2022-06-10`;`3`;`Rue Gabrielle Petit 6, 1080 Bruxelles`;`internalMaintenance`;`1485`;`0`;`30`;`09:27:00`;`09:57:00`;``;``;``;`confirmed`;`2022-06-09 14:17:36`;`2022-06-09 14:17:36`
`431`;`2022-06-10`;`4`;`Emiel Derooverlaan 26, 1501 Buizingen`;`internalMaintenance`;`1509`;`26`;`30`;`10:23:00`;`10:53:00`;``;``;``;`confirmed`;`2022-06-09 14:17:36`;`2022-06-09 14:17:36`
`432`;`2022-06-10`;`5`;`Avenue de l’Espérance, 1, 6220 Fleurus`;`internalMaintenance`;`89`;`34`;`30`;`11:27:00`;`11:57:00`;``;``;``;`confirmed`;`2022-06-09 14:17:36`;`2022-06-09 14:17:36`
`433`;`2022-06-10`;`6`;`Avenue de l’Espérance, 1, 6220 Fleurus`;`internalMaintenance`;`540`;`0`;`30`;`11:57:00`;`12:27:00`;``;``;``;`confirmed`;`2022-06-09 14:17:36`;`2022-06-09 14:17:36`
`434`;`2022-06-10`;`7`;`Avenue de l’Espérance, 1, 6220 Fleurus`;`internalMaintenance`;`647`;`0`;`30`;`12:27:00`;`12:57:00`;``;``;``;`confirmed`;`2022-06-09 14:17:36`;`2022-06-09 14:17:36`
`435`;`2022-06-10`;`8`;`Avenue de l’Espérance, 1, 6220 Fleurus`;`internalMaintenance`;`1447`;`0`;`15`;`12:57:00`;`13:12:00`;``;``;``;`confirmed`;`2022-06-09 14:17:36`;`2022-06-09 14:17:36`
`436`;`2022-06-10`;`9`;`Rue Ardenelle 59, 5032 Sombreffe`;`internalMaintenance`;`1507`;`18`;`30`;`13:30:00`;`14:00:00`;``;``;``;`confirmed`;`2022-06-09 14:17:36`;`2022-06-09 14:17:36`
`437`;`2022-06-10`;`11`;`8 rue de la brasserie, 4000 liege`;`endAddress`;`0`;`54`;`0`;`15:55:00`;`15:55:00`;``;``;``;`confirmed`;`2022-06-09 14:17:36`;`2022-06-09 16:49:41`
`477`;`2022-06-30`;`6`;`8 place des barricades 1000 Bruxelles`;`internalMaintenance`;`1261`;`4`;`30`;`12:16:00`;`12:46:00`;`14:15:00`;`14:36:00`;``;`done`;`2022-06-29 18:12:43`;`2022-06-30 14:36:12`
`478`;`2022-06-30`;`7`;`avenue Victor Jacobs 29 - 1040 Etterbeek`;`internalMaintenance`;`946`;`10`;`30`;`12:56:00`;`13:26:00`;`15:00:00`;`15:20:00`;``;`done`;`2022-06-29 18:12:43`;`2022-06-30 15:20:49`
`479`;`2022-06-30`;`8`;`brusselssteenweg 90, 3090 Overijse`;`bikeOrder`;`359`;`22`;`20`;`13:48:00`;`14:08:00`;``;``;``;`confirmed`;`2022-06-29 18:12:43`;`2022-06-29 18:12:43`
`480`;`2022-06-30`;`8`;`brusselssteenweg 90, 3090 Overijse`;`accessoryOrder`;`1394`;`22`;`20`;`13:48:00`;`14:08:00`;``;``;``;`confirmed`;`2022-06-29 18:12:43`;`2022-06-29 18:12:43`
`481`;`2022-06-30`;`8`;`brusselssteenweg 90, 3090 Overijse`;`accessoryOrder`;`1390`;`22`;`20`;`13:48:00`;`14:08:00`;``;``;``;`confirmed`;`2022-06-29 18:12:43`;`2022-06-29 18:12:43`
`482`;`2022-06-30`;`8`;`brusselssteenweg 90, 3090 Overijse`;`accessoryOrder`;`1389`;`22`;`20`;`13:48:00`;`14:08:00`;``;``;``;`confirmed`;`2022-06-29 18:12:43`;`2022-06-29 18:12:43`
`483`;`2022-06-30`;`10`;`4 Tige de Xhos, 4590 Ouffet`;`endAddress`;`0`;`72`;`0`;`15:20:00`;`15:20:00`;``;``;``;`confirmed`;`2022-06-29 18:12:43`;`2022-06-29 18:12:43`
`484`;`2022-07-22`;`1`;`KAMEO Bikes`;`startAddress`;`0`;`0`;`0`;`08:00:00`;`08:00:00`;`09:00:00`;`09:24:00`;``;`done`;`2022-07-20 10:02:03`;`2022-07-22 09:24:50`
`485`;`2022-07-22`;`1`;`Infrabel Namur ACLI, Passage d'Heuvy 6, 5000 Namur`;`internalMaintenance`;`1484`;`58`;`30`;`08:58:00`;`09:28:00`;`09:00:00`;`09:24:00`;``;`done`;`2022-07-20 10:02:03`;`2022-07-22 09:24:50`
`486`;`2022-07-22`;`2`;`CLI Ronet, Rue Tir de Ronet 39, 5020 Namur`;`internalMaintenance`;`1583`;`9`;`30`;`09:37:00`;`10:07:00`;`09:42:00`;`10:34:00`;``;`done`;`2022-07-20 10:02:03`;`2022-07-22 10:34:43`
`487`;`2022-07-22`;`3`;`Chaussée de marche 578, Namur`;`bikeOrder`;`380`;`18`;`20`;`10:25:00`;`10:45:00`;`10:58:00`;`11:11:00`;``;`done`;`2022-07-20 10:02:03`;`2022-07-22 11:12:02`
`488`;`2022-07-22`;`4`;`rue de Jamiolle 102E 5630 Villers Deux Eglises`;`bikeOrder`;`381`;`50`;`20`;`11:35:00`;`11:55:00`;`11:59:00`;`12:14:00`;``;`done`;`2022-07-20 10:02:03`;`2022-07-22 12:14:24`
`489`;`2022-07-22`;`5`;`Avenue de l’Espérance, 1, 6220 Fleurus`;`internalMaintenance`;`810`;`30`;`30`;`12:25:00`;`12:55:00`;`12:44:00`;`13:58:00`;``;`done`;`2022-07-20 10:02:03`;`2022-07-22 13:58:27`
`490`;`2022-07-22`;`6`;`Rue Saint Eloi 112, 7141 Carnières`;`bikeOrder`;`376`;`25`;`20`;`13:20:00`;`13:40:00`;`14:32:00`;`14:50:00`;``;`done`;`2022-07-20 10:02:03`;`2022-07-22 14:50:07`
`491`;`2022-07-22`;`7`;`Avenue Jacques Pastur, 47, 1180 Uccle`;`internalMaintenance`;`1585`;`49`;`20`;`14:29:00`;`14:49:00`;`15:33:00`;`15:57:00`;``;`done`;`2022-07-20 10:02:03`;`2022-07-22 15:57:35`
`492`;`2022-07-22`;`8`;`Avenue Jacques Pastur, 47, 1180 Uccle`;`internalMaintenance`;`1586`;`0`;`20`;`14:49:00`;`15:09:00`;`15:33:00`;``;``;`done`;`2022-07-20 10:02:03`;`2022-07-22 15:33:23`
`493`;`2022-07-22`;`10`;`KAMEO Bikes`;`endAddress`;`0`;`73`;`0`;`16:22:00`;`16:22:00`;``;``;``;`confirmed`;`2022-07-20 10:02:03`;`2022-07-20 10:02:03`
