`ID`;`name`;`parent category`;`CURRENT TIMESTAMP`;`CURRENT TIMESTAMP`
`2`;`cadenas`;NULL;`2022-08-04 12:32:59`;`2022-08-04 12:32:59`
`5`;`entretien`;NULL;`2022-08-04 12:32:59`;`2022-08-04 12:32:59`
`6`;`selle`;NULL;`2022-08-04 12:32:59`;`2022-08-04 12:32:59`
`47`;`plateau`;`75`;`2022-08-04 12:32:59`;`2022-08-04 12:32:59`
`17`;`support smartphone`;NULL;`2022-08-04 12:32:59`;`2022-08-04 12:32:59`
`172`;`accessoire`;`168`;`2022-08-04 12:32:59`;`2022-08-04 12:32:59`
`171`;`autre`;`168`;`2022-08-04 12:32:59`;`2022-08-04 12:32:59`
`170`;`VTT`;`168`;`2022-08-04 12:32:59`;`2022-08-04 12:32:59`
`169`;`route`;`168`;`2022-08-04 12:32:59`;`2022-08-04 12:32:59`
`30`;`GPS`;NULL;`2022-08-04 12:32:59`;`2022-08-04 12:32:59`
`168`;`pedalier`;`75`;`2022-08-04 12:32:59`;`2022-08-04 12:32:59`
`32`;`pneu`;NULL;`2022-08-04 12:32:59`;`2022-08-04 12:32:59`
`167`;`accessoire`;`166`;`2022-08-04 12:32:59`;`2022-08-04 12:32:59`
`166`;`manivelles classiques`;`160`;`2022-08-04 12:32:59`;`2022-08-04 12:32:59`
`165`;`accessoires`;`161`;`2022-08-04 12:32:59`;`2022-08-04 12:32:59`
`39`;`garde boue`;NULL;`2022-08-04 12:32:59`;`2022-08-04 12:32:59`
`164`;`autre`;`161`;`2022-08-04 12:32:59`;`2022-08-04 12:32:59`
`41`;`retroviseurs`;NULL;`2022-08-04 12:32:59`;`2022-08-04 12:32:59`
`163`;`shimano`;`161`;`2022-08-04 12:32:59`;`2022-08-04 12:32:59`
`162`;`bosch`;`161`;`2022-08-04 12:32:59`;`2022-08-04 12:32:59`
`46`;`bequille`;NULL;`2022-08-04 12:32:59`;`2022-08-04 12:32:59`
`161`;`manivelles ebike`;`160`;`2022-08-04 12:32:59`;`2022-08-04 12:32:59`
`49`;`pedales`;NULL;`2022-08-04 12:32:59`;`2022-08-04 12:32:59`
`50`;`roulement`;NULL;`2022-08-04 12:32:59`;`2022-08-04 12:32:59`
`160`;`manivelles`;`75`;`2022-08-04 12:32:59`;`2022-08-04 12:32:59`
`53`;`traceur`;`30`;`2022-08-04 12:32:59`;`2022-08-04 12:32:59`
`54`;`porte velos`;NULL;`2022-08-04 12:32:59`;`2022-08-04 12:32:59`
`57`;`pieces electriques VAE`;NULL;`2022-08-04 12:32:59`;`2022-08-04 12:32:59`
`58`;`freins`;NULL;`2022-08-04 12:32:59`;`2022-08-04 12:32:59`
`59`;`remorque`;NULL;`2022-08-04 12:32:59`;`2022-08-04 12:32:59`
`61`;`cable et gaine`;NULL;`2022-08-04 12:32:59`;`2022-08-04 12:32:59`
`62`;`o ring joint`;NULL;`2022-08-04 12:32:59`;`2022-08-04 12:32:59`
`63`;`roue`;NULL;`2022-08-04 12:32:59`;`2022-08-04 12:32:59`
`64`;`infrastructure`;NULL;`2022-08-04 12:32:59`;`2022-08-04 12:32:59`
`159`;`faux maillonts`;`151`;`2022-08-04 12:32:59`;`2022-08-04 12:32:59`
`158`;`12 vitesses`;`151`;`2022-08-04 12:32:59`;`2022-08-04 12:32:59`
`157`;`11 vitesses`;`151`;`2022-08-04 12:32:59`;`2022-08-04 12:32:59`
`156`;`10 vitesses`;`151`;`2022-08-04 12:32:59`;`2022-08-04 12:32:59`
`71`;`boitier de pedalier`;`75`;`2022-08-04 12:32:59`;`2022-08-04 12:32:59`
`72`;`pare chaine`;NULL;`2022-08-04 12:32:59`;`2022-08-04 12:32:59`
`155`;`9 vitesses`;`151`;`2022-08-04 12:32:59`;`2022-08-04 12:32:59`
`75`;`transmission`;NULL;`2022-08-04 12:32:59`;`2022-08-04 12:32:59`
`76`;`gaines`;NULL;`2022-08-04 12:32:59`;`2022-08-04 12:32:59`
`77`;`vitesses`;NULL;`2022-08-04 12:32:59`;`2022-08-04 12:32:59`
`78`;`hydratation`;NULL;`2022-08-04 12:32:59`;`2022-08-04 12:32:59`
`79`;`poste de pilotage`;NULL;`2022-08-04 12:32:59`;`2022-08-04 12:32:59`
`80`;`bagagerie`;NULL;`2022-08-04 12:32:59`;`2022-08-04 12:32:59`
`81`;`eclairage`;NULL;`2022-08-04 12:32:59`;`2022-08-04 12:32:59`
`82`;`chambre a air`;NULL;`2022-08-04 12:32:59`;`2022-08-04 12:32:59`
`83`;`porte bagage`;NULL;`2022-08-04 12:32:59`;`2022-08-04 12:32:59`
`84`;`accessoire enfant`;NULL;`2022-08-04 12:32:59`;`2022-08-04 12:32:59`
`85`;`sonette`;NULL;`2022-08-04 12:32:59`;`2022-08-04 12:32:59`
`86`;`equipement pilote`;NULL;`2022-08-04 12:32:59`;`2022-08-04 12:32:59`
`87`;`suspension`;NULL;`2022-08-04 12:32:59`;`2022-08-04 12:32:59`
`88`;`accessoire`;`30`;`2022-08-04 12:32:59`;`2022-08-04 12:32:59`
`89`;`bequille centrale`;`46`;`2022-08-04 12:32:59`;`2022-08-04 12:32:59`
`90`;`bequille arriere`;`46`;`2022-08-04 12:32:59`;`2022-08-04 12:32:59`
`91`;`accessoire`;`46`;`2022-08-04 12:32:59`;`2022-08-04 12:32:59`
`92`;`BSA`;`71`;`2022-08-04 12:32:59`;`2022-08-04 12:32:59`
`93`;`Pressfit 41`;`71`;`2022-08-04 12:32:59`;`2022-08-04 12:32:59`
`94`;`Pressfit 42`;`71`;`2022-08-04 12:32:59`;`2022-08-04 12:32:59`
`95`;`Pressfit 46`;`71`;`2022-08-04 12:32:59`;`2022-08-04 12:32:59`
`96`;`Pressfit t4`;`71`;`2022-08-04 12:32:59`;`2022-08-04 12:32:59`
`97`;`accessoire`;`71`;`2022-08-04 12:32:59`;`2022-08-04 12:32:59`
`98`;`pieces detachees`;`71`;`2022-08-04 12:32:59`;`2022-08-04 12:32:59`
`99`;`avec axe`;`92`;`2022-08-04 12:32:59`;`2022-08-04 12:32:59`
`102`;`DUB`;`92`;`2022-08-04 12:32:59`;`2022-08-04 12:32:59`
`101`;`24mm GXP`;`92`;`2022-08-04 12:32:59`;`2022-08-04 12:32:59`
`103`;`30mm`;`92`;`2022-08-04 12:32:59`;`2022-08-04 12:32:59`
`104`;`DUB`;`93`;`2022-08-04 12:32:59`;`2022-08-04 12:32:59`
`105`;`24mm GXP`;`93`;`2022-08-04 12:32:59`;`2022-08-04 12:32:59`
`106`;`30mm`;`93`;`2022-08-04 12:32:59`;`2022-08-04 12:32:59`
`107`;`DUB`;`94`;`2022-08-04 12:32:59`;`2022-08-04 12:32:59`
`108`;`24mm GXP`;`94`;`2022-08-04 12:32:59`;`2022-08-04 12:32:59`
`109`;`30mm`;`94`;`2022-08-04 12:32:59`;`2022-08-04 12:32:59`
`110`;`DUB`;`95`;`2022-08-04 12:32:59`;`2022-08-04 12:32:59`
`111`;`24mm GXP`;`95`;`2022-08-04 12:32:59`;`2022-08-04 12:32:59`
`112`;`30mm`;`95`;`2022-08-04 12:32:59`;`2022-08-04 12:32:59`
`113`;`DUB`;`96`;`2022-08-04 12:32:59`;`2022-08-04 12:32:59`
`114`;`24mm GXP`;`96`;`2022-08-04 12:32:59`;`2022-08-04 12:32:59`
`115`;`30mm`;`96`;`2022-08-04 12:32:59`;`2022-08-04 12:32:59`
`116`;`cassette`;`75`;`2022-08-04 12:32:59`;`2022-08-04 12:32:59`
`117`;`scram shimano 9 10`;`116`;`2022-08-04 12:32:59`;`2022-08-04 12:32:59`
`118`;`7 vitesses`;`117`;`2022-08-04 12:32:59`;`2022-08-04 12:32:59`
`119`;`8 vitesses`;`117`;`2022-08-04 12:32:59`;`2022-08-04 12:32:59`
`120`;`9 vitesses`;`117`;`2022-08-04 12:32:59`;`2022-08-04 12:32:59`
`121`;`10 vitesses`;`117`;`2022-08-04 12:32:59`;`2022-08-04 12:32:59`
`122`;`11 vitesses`;`117`;`2022-08-04 12:32:59`;`2022-08-04 12:32:59`
`123`;`12 vitesses`;`117`;`2022-08-04 12:32:59`;`2022-08-04 12:32:59`
`124`;`pignon`;`117`;`2022-08-04 12:32:59`;`2022-08-04 12:32:59`
`125`;`XD`;`116`;`2022-08-04 12:32:59`;`2022-08-04 12:32:59`
`126`;`7 vitesses`;`125`;`2022-08-04 12:32:59`;`2022-08-04 12:32:59`
`127`;`11 vitesses`;`125`;`2022-08-04 12:32:59`;`2022-08-04 12:32:59`
`128`;`12 vitesses`;`125`;`2022-08-04 12:32:59`;`2022-08-04 12:32:59`
`129`;`Microspline`;`116`;`2022-08-04 12:32:59`;`2022-08-04 12:32:59`
`130`;`12 vitesses`;`129`;`2022-08-04 12:32:59`;`2022-08-04 12:32:59`
`131`;`pignon`;`129`;`2022-08-04 12:32:59`;`2022-08-04 12:32:59`
`132`;`pieces detachees`;`116`;`2022-08-04 12:32:59`;`2022-08-04 12:32:59`
`133`;`etoile`;`47`;`2022-08-04 12:32:59`;`2022-08-04 12:32:59`
`134`;`mono`;`47`;`2022-08-04 12:32:59`;`2022-08-04 12:32:59`
`135`;`double`;`47`;`2022-08-04 12:32:59`;`2022-08-04 12:32:59`
`136`;`triple`;`47`;`2022-08-04 12:32:59`;`2022-08-04 12:32:59`
`137`;`direct mount`;`134`;`2022-08-04 12:32:59`;`2022-08-04 12:32:59`
`138`;`shimano ebike`;`137`;`2022-08-04 12:32:59`;`2022-08-04 12:32:59`
`139`;`bosch ebike`;`137`;`2022-08-04 12:32:59`;`2022-08-04 12:32:59`
`140`;`dm shimano`;`137`;`2022-08-04 12:32:59`;`2022-08-04 12:32:59`
`141`;`dm sram`;`137`;`2022-08-04 12:32:59`;`2022-08-04 12:32:59`
`142`;`dm raceface`;`137`;`2022-08-04 12:32:59`;`2022-08-04 12:32:59`
`143`;`76 bcd`;`134`;`2022-08-04 12:32:59`;`2022-08-04 12:32:59`
`144`;`96 bcd`;`134`;`2022-08-04 12:32:59`;`2022-08-04 12:32:59`
`145`;`104 bcd`;`134`;`2022-08-04 12:32:59`;`2022-08-04 12:32:59`
`147`;`accessoire`;`134`;`2022-08-04 12:32:59`;`2022-08-04 12:32:59`
`148`;`pignon mono`;`75`;`2022-08-04 12:32:59`;`2022-08-04 12:32:59`
`149`;`pignon`;`148`;`2022-08-04 12:32:59`;`2022-08-04 12:32:59`
`150`;`pieces detachees`;`148`;`2022-08-04 12:32:59`;`2022-08-04 12:32:59`
`151`;`chaines`;`75`;`2022-08-04 12:32:59`;`2022-08-04 12:32:59`
`152`;`1 vitesse`;`151`;`2022-08-04 12:32:59`;`2022-08-04 12:32:59`
`153`;`6 7 vitesses`;`151`;`2022-08-04 12:32:59`;`2022-08-04 12:32:59`
`154`;`8 vitesses`;`151`;`2022-08-04 12:32:59`;`2022-08-04 12:32:59`
`173`;`cable frein`;`61`;`2022-08-04 12:32:59`;`2022-08-04 12:32:59`
`174`;`cable vitesses`;`61`;`2022-08-04 12:32:59`;`2022-08-04 12:32:59`
`175`;`cables electriques vitesses`;`61`;`2022-08-04 12:32:59`;`2022-08-04 12:32:59`
`176`;`cables accessoires cables`;`61`;`2022-08-04 12:32:59`;`2022-08-04 12:32:59`
`177`;`kit cables et gaines`;`61`;`2022-08-04 12:32:59`;`2022-08-04 12:32:59`
`178`;`gaines freins`;`76`;`2022-08-04 12:32:59`;`2022-08-04 12:32:59`
`179`;`gaines vitesses`;`76`;`2022-08-04 12:32:59`;`2022-08-04 12:32:59`
`180`;`accessoires gaines`;`76`;`2022-08-04 12:32:59`;`2022-08-04 12:32:59`
`181`;`cadenas basiques`;`2`;`2022-08-04 12:32:59`;`2022-08-04 12:32:59`
`182`;`cadenas homologues assurance`;`2`;`2022-08-04 12:32:59`;`2022-08-04 12:32:59`
`183`;`accessoires cadenas`;`2`;`2022-08-04 12:32:59`;`2022-08-04 12:32:59`
`184`;`derailleur arriere`;`77`;`2022-08-04 12:32:59`;`2022-08-04 12:32:59`
`185`;`Shimano`;`184`;`2022-08-04 12:32:59`;`2022-08-04 12:32:59`
`186`;`sram`;`184`;`2022-08-04 12:32:59`;`2022-08-04 12:32:59`
`187`;`6 7 vitesses`;`185`;`2022-08-04 12:32:59`;`2022-08-04 12:32:59`
`188`;`8 vitesses`;`185`;`2022-08-04 12:32:59`;`2022-08-04 12:32:59`
`189`;`9 vitesses`;`185`;`2022-08-04 12:32:59`;`2022-08-04 12:32:59`
`190`;`10 vitesses`;`185`;`2022-08-04 12:32:59`;`2022-08-04 12:32:59`
`191`;`11 vitesses`;`185`;`2022-08-04 12:32:59`;`2022-08-04 12:32:59`
`192`;`12 vitesses`;`185`;`2022-08-04 12:32:59`;`2022-08-04 12:32:59`
`193`;`pieces detachees`;`185`;`2022-08-04 12:32:59`;`2022-08-04 12:32:59`
`194`;`autres marques`;`184`;`2022-08-04 12:32:59`;`2022-08-04 12:32:59`
`195`;`accessoires`;`184`;`2022-08-04 12:32:59`;`2022-08-04 12:32:59`
`196`;`6 7 vitesses`;`186`;`2022-08-04 12:32:59`;`2022-08-04 12:32:59`
`197`;`8 vitesses`;`186`;`2022-08-04 12:32:59`;`2022-08-04 12:32:59`
`198`;`9 vitesses`;`186`;`2022-08-04 12:32:59`;`2022-08-04 12:32:59`
`199`;`10 vitesses`;`186`;`2022-08-04 12:32:59`;`2022-08-04 12:32:59`
`200`;`11 vitesses`;`186`;`2022-08-04 12:32:59`;`2022-08-04 12:32:59`
`201`;`12 vitesses`;`186`;`2022-08-04 12:32:59`;`2022-08-04 12:32:59`
`202`;`pieces detachees`;`186`;`2022-08-04 12:32:59`;`2022-08-04 12:32:59`
`203`;`derailleur avant`;`77`;`2022-08-04 12:32:59`;`2022-08-04 12:32:59`
`204`;`accessoires derailleurs`;`77`;`2022-08-04 12:32:59`;`2022-08-04 12:32:59`
`205`;`shifter`;`77`;`2022-08-04 12:32:59`;`2022-08-04 12:32:59`
`206`;`patte de derailleur`;`77`;`2022-08-04 12:32:59`;`2022-08-04 12:32:59`
`207`;`Shimano`;`203`;`2022-08-04 12:32:59`;`2022-08-04 12:32:59`
`208`;`sram`;`203`;`2022-08-04 12:32:59`;`2022-08-04 12:32:59`
`209`;`piece detachees`;`203`;`2022-08-04 12:32:59`;`2022-08-04 12:32:59`
`210`;`disques`;`58`;`2022-08-04 12:32:59`;`2022-08-04 12:32:59`
`211`;`garnitures de frein`;`58`;`2022-08-04 12:32:59`;`2022-08-04 12:32:59`
`212`;`pieces detachees`;`58`;`2022-08-04 12:32:59`;`2022-08-04 12:32:59`
`213`;`leviers`;`58`;`2022-08-04 12:32:59`;`2022-08-04 12:32:59`
`214`;`etriers`;`58`;`2022-08-04 12:32:59`;`2022-08-04 12:32:59`
`215`;`durites`;`58`;`2022-08-04 12:32:59`;`2022-08-04 12:32:59`
`216`;`accessoires freins`;`58`;`2022-08-04 12:32:59`;`2022-08-04 12:32:59`
`217`;`adaptateurs`;`58`;`2022-08-04 12:32:59`;`2022-08-04 12:32:59`
`218`;`disques`;`210`;`2022-08-04 12:32:59`;`2022-08-04 12:32:59`
`219`;`accessoires disques`;`210`;`2022-08-04 12:32:59`;`2022-08-04 12:32:59`
`220`;`patins de frein`;`211`;`2022-08-04 12:32:59`;`2022-08-04 12:32:59`
`221`;`plaquettes de frein`;`211`;`2022-08-04 12:32:59`;`2022-08-04 12:32:59`
`222`;`plieces detachees`;`211`;`2022-08-04 12:32:59`;`2022-08-04 12:32:59`
`223`;`v brake`;`220`;`2022-08-04 12:32:59`;`2022-08-04 12:32:59`
`224`;`cantilever`;`220`;`2022-08-04 12:32:59`;`2022-08-04 12:32:59`
`225`;`route`;`220`;`2022-08-04 12:32:59`;`2022-08-04 12:32:59`
`226`;`autre`;`220`;`2022-08-04 12:32:59`;`2022-08-04 12:32:59`
`227`;`pieces detachees`;`220`;`2022-08-04 12:32:59`;`2022-08-04 12:32:59`
`228`;`shimano`;`221`;`2022-08-04 12:32:59`;`2022-08-04 12:32:59`
`229`;`sram`;`221`;`2022-08-04 12:32:59`;`2022-08-04 12:32:59`
`230`;`magura`;`221`;`2022-08-04 12:32:59`;`2022-08-04 12:32:59`
`231`;`hope`;`221`;`2022-08-04 12:32:59`;`2022-08-04 12:32:59`
`232`;`hayes`;`221`;`2022-08-04 12:32:59`;`2022-08-04 12:32:59`
`233`;`formula`;`221`;`2022-08-04 12:32:59`;`2022-08-04 12:32:59`
`234`;`pieces detachees`;`221`;`2022-08-04 12:32:59`;`2022-08-04 12:32:59`
`235`;`appareils`;`5`;`2022-08-04 12:32:59`;`2022-08-04 12:32:59`
`236`;`produits nettoyants`;`5`;`2022-08-04 12:32:59`;`2022-08-04 12:32:59`
`237`;`lubrifiants`;`5`;`2022-08-04 12:32:59`;`2022-08-04 12:32:59`
`238`;`outillage`;`5`;`2022-08-04 12:32:59`;`2022-08-04 12:32:59`
`239`;`pompes`;`5`;`2022-08-04 12:32:59`;`2022-08-04 12:32:59`
`240`;`savon`;`236`;`2022-08-04 12:32:59`;`2022-08-04 12:32:59`
`241`;`degraissant`;`236`;`2022-08-04 12:32:59`;`2022-08-04 12:32:59`
`242`;`outils`;`238`;`2022-08-04 12:32:59`;`2022-08-04 12:32:59`
`243`;`multitools`;`238`;`2022-08-04 12:32:59`;`2022-08-04 12:32:59`
`244`;`pompes a pied`;`239`;`2022-08-04 12:32:59`;`2022-08-04 12:32:59`
`245`;`pompes a main`;`239`;`2022-08-04 12:32:59`;`2022-08-04 12:32:59`
`246`;`co2`;`239`;`2022-08-04 12:32:59`;`2022-08-04 12:32:59`
`247`;`pompes a pied`;`244`;`2022-08-04 12:32:59`;`2022-08-04 12:32:59`
`248`;`accessoires`;`244`;`2022-08-04 12:32:59`;`2022-08-04 12:32:59`
`249`;`pieces detachees`;`244`;`2022-08-04 12:32:59`;`2022-08-04 12:32:59`
`250`;`pompes a main`;`245`;`2022-08-04 12:32:59`;`2022-08-04 12:32:59`
`251`;`accessoires`;`245`;`2022-08-04 12:32:59`;`2022-08-04 12:32:59`
`252`;`pieces detachees`;`245`;`2022-08-04 12:32:59`;`2022-08-04 12:32:59`
`253`;`percuteur`;`246`;`2022-08-04 12:32:59`;`2022-08-04 12:32:59`
`254`;`cartouches`;`246`;`2022-08-04 12:32:59`;`2022-08-04 12:32:59`
`255`;`accessoires`;`246`;`2022-08-04 12:32:59`;`2022-08-04 12:32:59`
`256`;`pieces detachees`;`246`;`2022-08-04 12:32:59`;`2022-08-04 12:32:59`
`257`;`garde boue avant`;`39`;`2022-08-04 12:32:59`;`2022-08-04 12:32:59`
`258`;`garde boue arriere`;`39`;`2022-08-04 12:32:59`;`2022-08-04 12:32:59`
`259`;`accessoires garde boue`;`39`;`2022-08-04 12:32:59`;`2022-08-04 12:32:59`
`260`;`pieces detachees`;`39`;`2022-08-04 12:32:59`;`2022-08-04 12:32:59`
`261`;`bidon`;`78`;`2022-08-04 12:32:59`;`2022-08-04 12:32:59`
`262`;`porte bidon`;`78`;`2022-08-04 12:32:59`;`2022-08-04 12:32:59`
`263`;`sac a eau`;`78`;`2022-08-04 12:32:59`;`2022-08-04 12:32:59`
`264`;`accessoires`;`78`;`2022-08-04 12:32:59`;`2022-08-04 12:32:59`
`265`;`guidons`;`79`;`2022-08-04 12:32:59`;`2022-08-04 12:32:59`
`266`;`poignees`;`79`;`2022-08-04 12:32:59`;`2022-08-04 12:32:59`
`267`;`guidolines`;`79`;`2022-08-04 12:32:59`;`2022-08-04 12:32:59`
`268`;`potences`;`79`;`2022-08-04 12:32:59`;`2022-08-04 12:32:59`
`269`;`guidon vtt`;`265`;`2022-08-04 12:32:59`;`2022-08-04 12:32:59`
`270`;`guidon route`;`265`;`2022-08-04 12:32:59`;`2022-08-04 12:32:59`
`271`;`guidon trekking`;`265`;`2022-08-04 12:32:59`;`2022-08-04 12:32:59`
`272`;`guidon ville`;`265`;`2022-08-04 12:32:59`;`2022-08-04 12:32:59`
`273`;`accessoires guidon`;`265`;`2022-08-04 12:32:59`;`2022-08-04 12:32:59`
`274`;`guidolines`;`267`;`2022-08-04 12:32:59`;`2022-08-04 12:32:59`
`275`;`accessoires guidolines`;`267`;`2022-08-04 12:32:59`;`2022-08-04 12:32:59`
`276`;`25.4 mm`;`268`;`2022-08-04 12:32:59`;`2022-08-04 12:32:59`
`277`;`31.8 mm`;`268`;`2022-08-04 12:32:59`;`2022-08-04 12:32:59`
`278`;`35 mm`;`268`;`2022-08-04 12:32:59`;`2022-08-04 12:32:59`
`279`;`infrastructure`;`64`;`2022-08-04 12:32:59`;`2022-08-04 12:32:59`
`280`;`bache`;`64`;`2022-08-04 12:32:59`;`2022-08-04 12:32:59`
`281`;`paniers`;`80`;`2022-08-04 12:32:59`;`2022-08-04 12:32:59`
`282`;`sacoches selle`;`80`;`2022-08-04 12:32:59`;`2022-08-04 12:32:59`
`283`;`sacoches guidon`;`80`;`2022-08-04 12:32:59`;`2022-08-04 12:32:59`
`284`;`sacoches porte bagage`;`80`;`2022-08-04 12:32:59`;`2022-08-04 12:32:59`
`285`;`sacoches cadre`;`80`;`2022-08-04 12:32:59`;`2022-08-04 12:32:59`
`286`;`pare chaine`;`72`;`2022-08-04 12:32:59`;`2022-08-04 12:32:59`
`287`;`accessoires pare chaine`;`72`;`2022-08-04 12:32:59`;`2022-08-04 12:32:59`
`288`;`pieces detachees`;`72`;`2022-08-04 12:32:59`;`2022-08-04 12:32:59`
`289`;`Pedales plates`;`49`;`2022-08-04 12:32:59`;`2022-08-04 12:32:59`
`290`;`Pedales clips`;`49`;`2022-08-04 12:32:59`;`2022-08-04 12:32:59`
`291`;`accessoires pedales`;NULL;`2022-08-04 12:32:59`;`2022-08-04 12:32:59`
`292`;`accessoires pedales`;`49`;`2022-08-04 12:32:59`;`2022-08-04 12:32:59`
`293`;`pieces detachees`;`49`;`2022-08-04 12:32:59`;`2022-08-04 12:32:59`
`294`;`phare avant`;`81`;`2022-08-04 12:32:59`;`2022-08-04 12:32:59`
`295`;`phare arriere`;`81`;`2022-08-04 12:32:59`;`2022-08-04 12:32:59`
`296`;`catadioptres`;`81`;`2022-08-04 12:32:59`;`2022-08-04 12:32:59`
`297`;`batteries`;`57`;`2022-08-04 12:32:59`;`2022-08-04 12:32:59`
`298`;`consoles`;`57`;`2022-08-04 12:32:59`;`2022-08-04 12:32:59`
`299`;`cables`;`57`;`2022-08-04 12:32:59`;`2022-08-04 12:32:59`
`300`;`accessoires vae`;`57`;`2022-08-04 12:32:59`;`2022-08-04 12:32:59`
`301`;`pieces detachees`;`57`;`2022-08-04 12:32:59`;`2022-08-04 12:32:59`
`302`;`batterie shimano`;`297`;`2022-08-04 12:32:59`;`2022-08-04 12:32:59`
`303`;`batterie autre`;`297`;`2022-08-04 12:32:59`;`2022-08-04 12:32:59`
`304`;`batterie bosch`;`297`;`2022-08-04 12:32:59`;`2022-08-04 12:32:59`
`305`;`powerpack`;`304`;`2022-08-04 12:32:59`;`2022-08-04 12:32:59`
`306`;`Batterie porte bagage`;`304`;`2022-08-04 12:32:59`;`2022-08-04 12:32:59`
`307`;`powertube`;`304`;`2022-08-04 12:32:59`;`2022-08-04 12:32:59`
`308`;`console bosch`;`298`;`2022-08-04 12:32:59`;`2022-08-04 12:32:59`
`309`;`console shimano`;`298`;`2022-08-04 12:32:59`;`2022-08-04 12:32:59`
`310`;`console autre`;`298`;`2022-08-04 12:32:59`;`2022-08-04 12:32:59`
`311`;`accessoire consoles`;`298`;`2022-08-04 12:32:59`;`2022-08-04 12:32:59`
`312`;`support de plaque`;`300`;`2022-08-04 12:32:59`;`2022-08-04 12:32:59`
`313`;`chargeurs`;`300`;`2022-08-04 12:32:59`;`2022-08-04 12:32:59`
`314`;`support`;`300`;`2022-08-04 12:32:59`;`2022-08-04 12:32:59`
`315`;`bosch`;`313`;`2022-08-04 12:32:59`;`2022-08-04 12:32:59`
`316`;`shimano`;`313`;`2022-08-04 12:32:59`;`2022-08-04 12:32:59`
`317`;`autre`;`313`;`2022-08-04 12:32:59`;`2022-08-04 12:32:59`
`318`;`enfant`;`32`;`2022-08-04 12:32:59`;`2022-08-04 12:32:59`
`319`;`chaise roulante`;`32`;`2022-08-04 12:32:59`;`2022-08-04 12:32:59`
`320`;`vtt`;`32`;`2022-08-04 12:32:59`;`2022-08-04 12:32:59`
`321`;`vtc gravel`;`32`;`2022-08-04 12:32:59`;`2022-08-04 12:32:59`
`322`;`route`;`32`;`2022-08-04 12:32:59`;`2022-08-04 12:32:59`
`323`;`accessoires`;`32`;`2022-08-04 12:32:59`;`2022-08-04 12:32:59`
`324`;`tubeless`;`32`;`2022-08-04 12:32:59`;`2022-08-04 12:32:59`
`325`;`anticrevaison`;`32`;`2022-08-04 12:32:59`;`2022-08-04 12:32:59`
`326`;`mousse anti pincement`;`32`;`2022-08-04 12:32:59`;`2022-08-04 12:32:59`
`327`;`12`;`318`;`2022-08-04 12:32:59`;`2022-08-04 12:32:59`
`328`;`14`;`318`;`2022-08-04 12:32:59`;`2022-08-04 12:32:59`
`329`;`16`;`318`;`2022-08-04 12:32:59`;`2022-08-04 12:32:59`
`330`;`20`;`318`;`2022-08-04 12:32:59`;`2022-08-04 12:32:59`
`331`;`24`;`318`;`2022-08-04 12:32:59`;`2022-08-04 12:32:59`
`332`;`26`;`320`;`2022-08-04 12:32:59`;`2022-08-04 12:32:59`
`333`;`27.5`;`320`;`2022-08-04 12:32:59`;`2022-08-04 12:32:59`
`334`;`29`;`320`;`2022-08-04 12:32:59`;`2022-08-04 12:32:59`
`335`;`26`;`321`;`2022-08-04 12:32:59`;`2022-08-04 12:32:59`
`336`;`27.5`;`321`;`2022-08-04 12:32:59`;`2022-08-04 12:32:59`
`337`;`700c`;`321`;`2022-08-04 12:32:59`;`2022-08-04 12:32:59`
`338`;`26`;`322`;`2022-08-04 12:32:59`;`2022-08-04 12:32:59`
`339`;`27.5`;`322`;`2022-08-04 12:32:59`;`2022-08-04 12:32:59`
`340`;`700c`;`322`;`2022-08-04 12:32:59`;`2022-08-04 12:32:59`
`341`;`valves`;`324`;`2022-08-04 12:32:59`;`2022-08-04 12:32:59`
`342`;`obus`;`324`;`2022-08-04 12:32:59`;`2022-08-04 12:32:59`
`343`;`fond de jante`;`324`;`2022-08-04 12:32:59`;`2022-08-04 12:32:59`
`344`;`accessoires`;`324`;`2022-08-04 12:32:59`;`2022-08-04 12:32:59`
`345`;`produit tubeless`;`324`;`2022-08-04 12:32:59`;`2022-08-04 12:32:59`
`346`;`12`;`82`;`2022-08-04 12:32:59`;`2022-08-04 12:32:59`
`347`;`14`;`82`;`2022-08-04 12:32:59`;`2022-08-04 12:32:59`
`352`;`26`;`82`;`2022-08-04 12:32:59`;`2022-08-04 12:32:59`
`349`;`16`;`82`;`2022-08-04 12:32:59`;`2022-08-04 12:32:59`
`350`;`20`;`82`;`2022-08-04 12:32:59`;`2022-08-04 12:32:59`
`351`;`24`;`82`;`2022-08-04 12:32:59`;`2022-08-04 12:32:59`
`353`;`27.5`;`82`;`2022-08-04 12:32:59`;`2022-08-04 12:32:59`
`354`;`700c`;`82`;`2022-08-04 12:32:59`;`2022-08-04 12:32:59`
`355`;`29`;`82`;`2022-08-04 12:32:59`;`2022-08-04 12:32:59`
`356`;`accessoires`;`82`;`2022-08-04 12:32:59`;`2022-08-04 12:32:59`
`357`;`porte bagage avant`;`83`;`2022-08-04 12:32:59`;`2022-08-04 12:32:59`
`358`;`porte bagage arrire`;`83`;`2022-08-04 12:32:59`;`2022-08-04 12:32:59`
`359`;`accessoires`;`83`;`2022-08-04 12:32:59`;`2022-08-04 12:32:59`
`360`;`pieces detachee`;`83`;`2022-08-04 12:32:59`;`2022-08-04 12:32:59`
`361`;`haillon`;`54`;`2022-08-04 12:32:59`;`2022-08-04 12:32:59`
`362`;`boulle d attelage`;`54`;`2022-08-04 12:32:59`;`2022-08-04 12:32:59`
`363`;`toit`;`54`;`2022-08-04 12:32:59`;`2022-08-04 12:32:59`
`364`;`accessoires`;`54`;`2022-08-04 12:32:59`;`2022-08-04 12:32:59`
`365`;`porte velo`;`361`;`2022-08-04 12:32:59`;`2022-08-04 12:32:59`
`366`;`accessoires`;`361`;`2022-08-04 12:32:59`;`2022-08-04 12:32:59`
`367`;`pieces detachees`;`361`;`2022-08-04 12:32:59`;`2022-08-04 12:32:59`
`368`;`porte velo`;`362`;`2022-08-04 12:32:59`;`2022-08-04 12:32:59`
`369`;`accessoires`;`362`;`2022-08-04 12:32:59`;`2022-08-04 12:32:59`
`370`;`pieces detachees`;`362`;`2022-08-04 12:32:59`;`2022-08-04 12:32:59`
`371`;`porte velo`;`363`;`2022-08-04 12:32:59`;`2022-08-04 12:32:59`
`372`;`accessoires`;`363`;`2022-08-04 12:32:59`;`2022-08-04 12:32:59`
`373`;`pieces detachees`;`363`;`2022-08-04 12:32:59`;`2022-08-04 12:32:59`
`374`;`Remorque`;`59`;`2022-08-04 12:32:59`;`2022-08-04 12:32:59`
`375`;`Accessoires`;`59`;`2022-08-04 12:32:59`;`2022-08-04 12:32:59`
`376`;`Pieces detachees`;`59`;`2022-08-04 12:32:59`;`2022-08-04 12:32:59`
`377`;`Roues completes`;`63`;`2022-08-04 12:32:59`;`2022-08-04 12:32:59`
`378`;`Paire de roues`;`377`;`2022-08-04 12:32:59`;`2022-08-04 12:32:59`
`379`;`Roues avant`;`377`;`2022-08-04 12:32:59`;`2022-08-04 12:32:59`
`380`;`Roues arriere`;`377`;`2022-08-04 12:32:59`;`2022-08-04 12:32:59`
`381`;`Enfant`;`378`;`2022-08-04 12:32:59`;`2022-08-04 12:32:59`
`382`;`26""`;`378`;`2022-08-04 12:32:59`;`2022-08-04 12:32:59`
`383`;`retroviseur`;`41`;`2022-08-04 12:32:59`;`2022-08-04 12:32:59`
`384`;`retroviseur`;`41`;`2022-08-04 12:32:59`;`2022-08-04 12:32:59`
`385`;`Accessoires`;`41`;`2022-08-04 12:32:59`;`2022-08-04 12:32:59`
`386`;`pieces détachées`;`41`;`2022-08-04 12:32:59`;`2022-08-04 12:32:59`
`387`;`pieces détachées`;`41`;`2022-08-04 12:32:59`;`2022-08-04 12:32:59`
`388`;`27.5""`;`378`;`2022-08-04 12:32:59`;`2022-08-04 12:32:59`
`389`;`700c`;`378`;`2022-08-04 12:32:59`;`2022-08-04 12:32:59`
`390`;`29""`;`378`;`2022-08-04 12:32:59`;`2022-08-04 12:32:59`
`391`;`enfant`;`379`;`2022-08-04 12:32:59`;`2022-08-04 12:32:59`
`392`;`26""`;`379`;`2022-08-04 12:32:59`;`2022-08-04 12:32:59`
`393`;`700c`;`379`;`2022-08-04 12:32:59`;`2022-08-04 12:32:59`
`394`;`27.5""`;`379`;`2022-08-04 12:32:59`;`2022-08-04 12:32:59`
`395`;`29""`;`379`;`2022-08-04 12:32:59`;`2022-08-04 12:32:59`
`396`;`enfant`;`380`;`2022-08-04 12:32:59`;`2022-08-04 12:32:59`
`397`;`26""`;`380`;`2022-08-04 12:32:59`;`2022-08-04 12:32:59`
`398`;`27.5""`;`380`;`2022-08-04 12:32:59`;`2022-08-04 12:32:59`
`399`;`700c`;`380`;`2022-08-04 12:32:59`;`2022-08-04 12:32:59`
`400`;`29""`;`380`;`2022-08-04 12:32:59`;`2022-08-04 12:32:59`
`401`;`moyeux`;`63`;`2022-08-04 12:32:59`;`2022-08-04 12:32:59`
`402`;`moyeux avant`;`401`;`2022-08-04 12:32:59`;`2022-08-04 12:32:59`
`403`;`moyeux arriere`;`401`;`2022-08-04 12:32:59`;`2022-08-04 12:32:59`
`404`;`Accessoires moyeux`;`401`;`2022-08-04 12:32:59`;`2022-08-04 12:32:59`
`405`;`Accessoires moyeux`;`401`;`2022-08-04 12:32:59`;`2022-08-04 12:32:59`
`406`;`pieces detachees`;`401`;`2022-08-04 12:32:59`;`2022-08-04 12:32:59`
`407`;`body`;`406`;`2022-08-04 12:32:59`;`2022-08-04 12:32:59`
`408`;`pieces detachees body`;`406`;`2022-08-04 12:32:59`;`2022-08-04 12:32:59`
`409`;`axes`;`406`;`2022-08-04 12:32:59`;`2022-08-04 12:32:59`
`410`;`pieces detyachees moyeux`;`406`;`2022-08-04 12:32:59`;`2022-08-04 12:32:59`
`411`;`Adaptateurs`;`406`;`2022-08-04 12:32:59`;`2022-08-04 12:32:59`
`412`;`body`;`407`;`2022-08-04 12:32:59`;`2022-08-04 12:32:59`
`413`;`jantes`;`63`;`2022-08-04 12:32:59`;`2022-08-04 12:32:59`
`414`;`enfant`;`413`;`2022-08-04 12:32:59`;`2022-08-04 12:32:59`
`415`;`26""`;`413`;`2022-08-04 12:32:59`;`2022-08-04 12:32:59`
`416`;`27.5""`;`413`;`2022-08-04 12:32:59`;`2022-08-04 12:32:59`
`417`;`700c`;`413`;`2022-08-04 12:32:59`;`2022-08-04 12:32:59`
`418`;`29""`;`413`;`2022-08-04 12:32:59`;`2022-08-04 12:32:59`
`419`;`Accessoires jantes`;`413`;`2022-08-04 12:32:59`;`2022-08-04 12:32:59`
`420`;`Nipples`;`63`;`2022-08-04 12:32:59`;`2022-08-04 12:32:59`
`421`;`Aluminium`;`420`;`2022-08-04 12:32:59`;`2022-08-04 12:32:59`
`422`;`Laiton`;`420`;`2022-08-04 12:32:59`;`2022-08-04 12:32:59`
`423`;`Accessoires Nipples`;`420`;`2022-08-04 12:32:59`;`2022-08-04 12:32:59`
`424`;`Rayons`;`63`;`2022-08-04 12:32:59`;`2022-08-04 12:32:59`
`425`;`Rayons droit`;`424`;`2022-08-04 12:32:59`;`2022-08-04 12:32:59`
`426`;`Rayons coudés`;`424`;`2022-08-04 12:32:59`;`2022-08-04 12:32:59`
`427`;`Accessoires`;`424`;`2022-08-04 12:32:59`;`2022-08-04 12:32:59`
`428`;`jeux de direction`;`50`;`2022-08-04 12:32:59`;`2022-08-04 12:32:59`
`429`;`Standard=old`;`428`;`2022-08-04 12:32:59`;`2022-08-04 12:32:59`
`430`;`jeux de  direction`;`429`;`2022-08-04 12:32:59`;`2022-08-04 12:32:59`
`431`;`pieces détachées`;`429`;`2022-08-04 12:32:59`;`2022-08-04 12:32:59`
`432`;`externe`;`428`;`2022-08-04 12:32:59`;`2022-08-04 12:32:59`
`433`;`intégré/semi integré`;`428`;`2022-08-04 12:32:59`;`2022-08-04 12:32:59`
`434`;`pieces détachées`;`428`;`2022-08-04 12:32:59`;`2022-08-04 12:32:59`
`435`;`roulements`;`428`;`2022-08-04 12:32:59`;`2022-08-04 12:32:59`
`436`;`jeux de direction`;`432`;`2022-08-04 12:32:59`;`2022-08-04 12:32:59`
`437`;`pieces détachees`;`432`;`2022-08-04 12:32:59`;`2022-08-04 12:32:59`
`438`;`pieces détachees`;`433`;`2022-08-04 12:32:59`;`2022-08-04 12:32:59`
`439`;`jeux de direction`;`433`;`2022-08-04 12:32:59`;`2022-08-04 12:32:59`
`440`;`étoiules`;`434`;`2022-08-04 12:32:59`;`2022-08-04 12:32:59`
`441`;`entretoises`;`434`;`2022-08-04 12:32:59`;`2022-08-04 12:32:59`
`442`;`capuchon de direction`;`434`;`2022-08-04 12:32:59`;`2022-08-04 12:32:59`
`443`;`Accessoires de direction`;`434`;`2022-08-04 12:32:59`;`2022-08-04 12:32:59`
`444`;`1""1/8`;`435`;`2022-08-04 12:32:59`;`2022-08-04 12:32:59`
`445`;`1""1/2`;`435`;`2022-08-04 12:32:59`;`2022-08-04 12:32:59`
`446`;`Autres`;`435`;`2022-08-04 12:32:59`;`2022-08-04 12:32:59`
`447`;`roulements MAX`;`50`;`2022-08-04 12:32:59`;`2022-08-04 12:32:59`
`448`;`roulements Céramiques`;`50`;`2022-08-04 12:32:59`;`2022-08-04 12:32:59`
`449`;`roulements`;`50`;`2022-08-04 12:32:59`;`2022-08-04 12:32:59`
`450`;`Selles`;`6`;`2022-08-04 12:32:59`;`2022-08-04 12:32:59`
`451`;`Tige de selle`;`6`;`2022-08-04 12:32:59`;`2022-08-04 12:32:59`
`452`;`collier de selle`;`6`;`2022-08-04 12:32:59`;`2022-08-04 12:32:59`
`453`;`selle`;`450`;`2022-08-04 12:32:59`;`2022-08-04 12:32:59`
`454`;`Accessoires selle`;`450`;`2022-08-04 12:32:59`;`2022-08-04 12:32:59`
`455`;`tige de selle rigide`;`451`;`2022-08-04 12:32:59`;`2022-08-04 12:32:59`
`456`;`tige de selle suspendue`;`451`;`2022-08-04 12:32:59`;`2022-08-04 12:32:59`
`457`;`tige de selle telescopique`;`451`;`2022-08-04 12:32:59`;`2022-08-04 12:32:59`
`458`;`trige de selle`;`457`;`2022-08-04 12:32:59`;`2022-08-04 12:32:59`
`459`;`commande`;`457`;`2022-08-04 12:32:59`;`2022-08-04 12:32:59`
`460`;`accessoires tige de selles telescopique`;`457`;`2022-08-04 12:32:59`;`2022-08-04 12:32:59`
`461`;`pieces détachées`;`457`;`2022-08-04 12:32:59`;`2022-08-04 12:32:59`
`462`;`réducteurs`;`451`;`2022-08-04 12:32:59`;`2022-08-04 12:32:59`
`463`;`Accessoires tige de selle`;`451`;`2022-08-04 12:32:59`;`2022-08-04 12:32:59`
`464`;`colliers`;`452`;`2022-08-04 12:32:59`;`2022-08-04 12:32:59`
`465`;`Accessoires colliers`;`452`;`2022-08-04 12:32:59`;`2022-08-04 12:32:59`
`466`;`pieces détachées`;`452`;`2022-08-04 12:32:59`;`2022-08-04 12:32:59`
`467`;`follow me`;`84`;`2022-08-04 12:32:59`;`2022-08-04 12:32:59`
`468`;`siege enfant`;`84`;`2022-08-04 12:32:59`;`2022-08-04 12:32:59`
`469`;`autre`;`84`;`2022-08-04 12:32:59`;`2022-08-04 12:32:59`
`470`;`follow me`;`467`;`2022-08-04 12:32:59`;`2022-08-04 12:32:59`
`471`;`Accessoires`;`467`;`2022-08-04 12:32:59`;`2022-08-04 12:32:59`
`472`;`pieces détachées`;`467`;`2022-08-04 12:32:59`;`2022-08-04 12:32:59`
`473`;`Siege`;`468`;`2022-08-04 12:32:59`;`2022-08-04 12:32:59`
`474`;`Accessoires siege enfants`;`468`;`2022-08-04 12:32:59`;`2022-08-04 12:32:59`
`475`;`pieces détachées`;`468`;`2022-08-04 12:32:59`;`2022-08-04 12:32:59`
`476`;`sonnette`;`85`;`2022-08-04 12:32:59`;`2022-08-04 12:32:59`
`477`;`Accessoires sonnettes`;`85`;`2022-08-04 12:32:59`;`2022-08-04 12:32:59`
`478`;`support smartphone`;`17`;`2022-08-04 12:32:59`;`2022-08-04 12:32:59`
`479`;`pieces détachées`;`17`;`2022-08-04 12:32:59`;`2022-08-04 12:32:59`
`480`;`caques`;`86`;`2022-08-04 12:32:59`;`2022-08-04 12:32:59`
`481`;`têtes`;`86`;`2022-08-04 12:32:59`;`2022-08-04 12:32:59`
`482`;`gants`;`86`;`2022-08-04 12:32:59`;`2022-08-04 12:32:59`
`483`;`Chaussures`;`86`;`2022-08-04 12:32:59`;`2022-08-04 12:32:59`
`484`;`Warmers`;`86`;`2022-08-04 12:32:59`;`2022-08-04 12:32:59`
`485`;`Chaussetes`;`86`;`2022-08-04 12:32:59`;`2022-08-04 12:32:59`
`486`;`cuissards`;`86`;`2022-08-04 12:32:59`;`2022-08-04 12:32:59`
`487`;`pantalons`;`86`;`2022-08-04 12:32:59`;`2022-08-04 12:32:59`
`488`;`maillots`;`86`;`2022-08-04 12:32:59`;`2022-08-04 12:32:59`
`489`;`Vestes`;`86`;`2022-08-04 12:32:59`;`2022-08-04 12:32:59`
`490`;`Combinaisons`;`86`;`2022-08-04 12:32:59`;`2022-08-04 12:32:59`
`491`;`protections`;`86`;`2022-08-04 12:32:59`;`2022-08-04 12:32:59`
`492`;`casques`;`480`;`2022-08-04 12:32:59`;`2022-08-04 12:32:59`
`493`;`casques intégral`;`480`;`2022-08-04 12:32:59`;`2022-08-04 12:32:59`
`494`;`casques enfants`;`480`;`2022-08-04 12:32:59`;`2022-08-04 12:32:59`
`495`;`accessoires casques`;`480`;`2022-08-04 12:32:59`;`2022-08-04 12:32:59`
`496`;`bandana`;`481`;`2022-08-04 12:32:59`;`2022-08-04 12:32:59`
`497`;`sous casques`;`481`;`2022-08-04 12:32:59`;`2022-08-04 12:32:59`
`498`;`cagoules`;`481`;`2022-08-04 12:32:59`;`2022-08-04 12:32:59`
`499`;`buff`;`481`;`2022-08-04 12:32:59`;`2022-08-04 12:32:59`
`500`;`gants courts`;`482`;`2022-08-04 12:32:59`;`2022-08-04 12:32:59`
`501`;`gants longs`;`482`;`2022-08-04 12:32:59`;`2022-08-04 12:32:59`
`502`;`gants longs`;`482`;`2022-08-04 12:32:59`;`2022-08-04 12:32:59`
`503`;`gants hiver`;`482`;`2022-08-04 12:32:59`;`2022-08-04 12:32:59`
`504`;`chaussures plates`;`483`;`2022-08-04 12:32:59`;`2022-08-04 12:32:59`
`505`;`chaussures clips`;`483`;`2022-08-04 12:32:59`;`2022-08-04 12:32:59`
`506`;`chaussures plates`;`504`;`2022-08-04 12:32:59`;`2022-08-04 12:32:59`
`507`;`Accessoires chaussures plates`;`504`;`2022-08-04 12:32:59`;`2022-08-04 12:32:59`
`508`;`chaussures VTT`;`505`;`2022-08-04 12:32:59`;`2022-08-04 12:32:59`
`509`;`chaussures route`;`505`;`2022-08-04 12:32:59`;`2022-08-04 12:32:59`
`510`;`chaussures commuting`;`505`;`2022-08-04 12:32:59`;`2022-08-04 12:32:59`
`511`;`Accessoires chaussures clips`;`505`;`2022-08-04 12:32:59`;`2022-08-04 12:32:59`
`512`;`manchettes`;`484`;`2022-08-04 12:32:59`;`2022-08-04 12:32:59`
`513`;`jambières`;`484`;`2022-08-04 12:32:59`;`2022-08-04 12:32:59`
`514`;`genoux`;`484`;`2022-08-04 12:32:59`;`2022-08-04 12:32:59`
`515`;`body manche courtes`;`484`;`2022-08-04 12:32:59`;`2022-08-04 12:32:59`
`516`;`body manche longues`;`484`;`2022-08-04 12:32:59`;`2022-08-04 12:32:59`
`517`;`cuissard courts`;`486`;`2022-08-04 12:32:59`;`2022-08-04 12:32:59`
`518`;`cuissard long`;`486`;`2022-08-04 12:32:59`;`2022-08-04 12:32:59`
`519`;`cuissard 3/4`;`486`;`2022-08-04 12:32:59`;`2022-08-04 12:32:59`
`520`;`cuissard sans bretelles`;`486`;`2022-08-04 12:32:59`;`2022-08-04 12:32:59`
`521`;`pantalons`;`487`;`2022-08-04 12:32:59`;`2022-08-04 12:32:59`
`522`;`pantalons de pluie`;`487`;`2022-08-04 12:32:59`;`2022-08-04 12:32:59`
`523`;`sur pantalons`;`487`;`2022-08-04 12:32:59`;`2022-08-04 12:32:59`
`524`;`maillots collants`;`488`;`2022-08-04 12:32:59`;`2022-08-04 12:32:59`
`525`;`maillots amples`;`488`;`2022-08-04 12:32:59`;`2022-08-04 12:32:59`
`526`;`manches courtes`;`524`;`2022-08-04 12:32:59`;`2022-08-04 12:32:59`
`527`;`manches longues`;`524`;`2022-08-04 12:32:59`;`2022-08-04 12:32:59`
`528`;`manches longues`;`525`;`2022-08-04 12:32:59`;`2022-08-04 12:32:59`
`529`;`manches courtes`;`525`;`2022-08-04 12:32:59`;`2022-08-04 12:32:59`
`530`;`vestes thermiques`;`489`;`2022-08-04 12:32:59`;`2022-08-04 12:32:59`
`531`;`vestes coupes vents`;`489`;`2022-08-04 12:32:59`;`2022-08-04 12:32:59`
`532`;`vestes imperméables`;`489`;`2022-08-04 12:32:59`;`2022-08-04 12:32:59`
`533`;`coudières`;`491`;`2022-08-04 12:32:59`;`2022-08-04 12:32:59`
`534`;`genoullières`;`491`;`2022-08-04 12:32:59`;`2022-08-04 12:32:59`
`535`;`dorsales`;`491`;`2022-08-04 12:32:59`;`2022-08-04 12:32:59`
`536`;`neck brace`;`491`;`2022-08-04 12:32:59`;`2022-08-04 12:32:59`
`537`;`fourches`;`87`;`2022-08-04 12:32:59`;`2022-08-04 12:32:59`
`538`;`amortisseurs`;`87`;`2022-08-04 12:32:59`;`2022-08-04 12:32:59`
`539`;`fourches`;`537`;`2022-08-04 12:32:59`;`2022-08-04 12:32:59`
`540`;`pieces détachées  fourches`;`537`;`2022-08-04 12:32:59`;`2022-08-04 12:32:59`
`541`;`Accessoires fourches`;`537`;`2022-08-04 12:32:59`;`2022-08-04 12:32:59`
`542`;`kit entretien`;`537`;`2022-08-04 12:32:59`;`2022-08-04 12:32:59`
`543`;`kit entretien amortisseurs`;`538`;`2022-08-04 12:32:59`;`2022-08-04 12:32:59`
`544`;`amortisseurs`;`538`;`2022-08-04 12:32:59`;`2022-08-04 12:32:59`
`545`;`pieces détachées amortisseurs`;`538`;`2022-08-04 12:32:59`;`2022-08-04 12:32:59`
`546`;`Accessoires amortisseurs`;`538`;`2022-08-04 12:32:59`;`2022-08-04 12:32:59`
`549`;`freins complets`;`58`;`2022-08-04 12:32:59`;`2022-08-04 12:32:59`
`550`;`VTT`;`290`;`2022-08-04 12:32:59`;`2022-08-04 12:32:59`
`551`;`Route`;`290`;`2022-08-04 12:32:59`;`2022-08-04 12:32:59`
`552`;`18`;`318`;`2022-08-04 12:32:59`;`2022-08-04 12:32:59`
`553`;`18`;`318`;`2022-08-04 12:32:59`;`2022-08-04 12:32:59`
`554`;`Campagnolo`;`71`;`2022-08-04 12:32:59`;`2022-08-04 12:32:59`
`557`;`longtail & cargo`;`358`;`2022-08-04 12:32:59`;`2022-08-04 12:32:59`
`558`;`longtail & cargo`;`357`;`2022-08-04 12:32:59`;`2022-08-04 12:32:59`
`559`;`longtail & cargo`;`473`;`2022-08-04 12:32:59`;`2022-08-04 12:32:59`
`560`;`longtail & cargo`;`284`;`2022-08-04 12:32:59`;`2022-08-04 12:32:59`
`561`;`longtail & cargo`;`89`;`2022-08-04 12:32:59`;`2022-08-04 12:32:59`
`562`;`longtail & cargo`;`474`;`2022-08-04 12:32:59`;`2022-08-04 12:32:59`
`563`;`longtail & cargo`;`375`;`2022-08-04 12:32:59`;`2022-08-04 12:32:59`
`564`;`longtail & cargo`;`359`;`2022-08-04 12:32:59`;`2022-08-04 12:32:59`
`565`;`promotion`;NULL;`2022-08-04 12:32:59`;`2022-08-04 12:32:59`
`568`;`Shorts`;`86`;`2022-08-04 12:32:59`;`2022-08-04 12:32:59`
`569`;`Lunettes`;`86`;`2022-08-04 12:32:59`;`2022-08-04 12:32:59`
`570`;`28`;`320`;`2022-08-04 12:32:59`;`2022-08-04 12:32:59`
`571`;`Stabilisateurs`;`84`;`2022-08-04 12:32:59`;`2022-08-04 12:32:59`
