`company_id`;`catalog_id`;`company_id`;`CREATION_TIME`;`HEU_MAJ`
`1`;`*`;`1`;`2021-08-10 10:55:11`;`2020-03-26 17:58:27`
`2`;`*`;`2`;`2021-08-10 10:55:11`;`2021-12-28 07:58:35`
`3`;`*`;`3`;`2021-08-10 10:55:11`;`2019-12-01 17:18:52`
`4`;`*`;`4`;`2021-08-10 10:55:11`;`2019-12-01 17:38:05`
`5`;`*`;`5`;`2021-08-10 10:55:11`;`2020-03-04 11:44:04`
`6`;`*`;`6`;`2021-08-10 10:55:11`;`2021-12-28 08:04:55`
`7`;`*`;`7`;`2021-08-10 10:55:11`;`2020-10-28 14:26:18`
`8`;`*`;`8`;`2021-08-10 10:55:11`;`2019-12-17 10:52:29`
`9`;`*`;`9`;`2021-08-10 10:55:11`;`2021-10-05 09:59:07`
`10`;`*`;`10`;`2021-08-10 10:55:11`;`2021-10-05 09:58:42`
`11`;`*`;`11`;`2021-08-10 10:55:11`;`2020-01-04 18:28:30`
`12`;`*`;`12`;`2021-08-10 10:55:11`;`2019-09-06 18:04:30`
`13`;`*`;`13`;`2021-08-10 10:55:11`;`2022-05-04 21:48:32`
`14`;`*`;`14`;`2021-08-10 10:55:11`;`2020-05-01 18:24:36`
`15`;`*`;`15`;`2021-08-10 10:55:11`;`2019-12-01 17:24:32`
`16`;`*`;`16`;`2021-08-10 10:55:11`;`2019-12-01 18:02:26`
`17`;`*`;`17`;`2021-08-10 10:55:11`;`2020-11-17 21:27:12`
`18`;`*`;`18`;`2021-08-10 10:55:11`;`2020-01-09 16:11:32`
`19`;`*`;`19`;`2021-08-10 10:55:11`;`2019-09-25 17:01:31`
`20`;`*`;`20`;`2021-08-10 10:55:11`;`2019-12-01 17:19:05`
`21`;`*`;`21`;`2021-08-10 10:55:11`;`2019-09-26 15:35:04`
`22`;`*`;`22`;`2021-08-10 10:55:11`;`2020-01-09 21:39:04`
`23`;`*`;`23`;`2021-08-10 10:55:11`;`2020-02-25 13:56:01`
`24`;`*`;`24`;`2021-08-10 10:55:11`;`2020-08-05 17:39:41`
`25`;`*`;`25`;`2021-08-10 10:55:11`;`2019-09-27 14:40:57`
`26`;`*`;`26`;`2021-08-10 10:55:11`;`2019-09-30 10:12:49`
`27`;`*`;`27`;`2021-08-10 10:55:11`;`2020-04-24 09:03:25`
`28`;`*`;`28`;`2021-08-10 10:55:11`;`2019-12-01 17:27:10`
`29`;`*`;`29`;`2021-08-10 10:55:11`;`2019-10-15 15:28:43`
`30`;`*`;`30`;`2021-08-10 10:55:11`;`2019-10-17 12:17:43`
`31`;`*`;`31`;`2021-08-10 10:55:11`;`2020-12-21 12:19:19`
`32`;`*`;`32`;`2021-08-10 10:55:11`;`2021-07-28 11:17:56`
`33`;`*`;`33`;`2021-08-10 10:55:11`;`2019-11-25 22:00:07`
`34`;`*`;`34`;`2021-08-10 10:55:11`;`2020-04-13 20:00:07`
`35`;`*`;`35`;`2021-08-10 10:55:11`;`2020-03-25 11:14:18`
`36`;`*`;`36`;`2021-08-10 10:55:11`;`2020-02-01 16:03:28`
`38`;`*`;`38`;`2021-08-10 10:55:11`;`2019-12-23 16:31:29`
`39`;`*`;`39`;`2021-08-10 10:55:11`;`2020-10-31 10:55:53`
`40`;`*`;`40`;`2021-08-10 10:55:11`;`2020-03-14 14:32:42`
`41`;`*`;`41`;`2021-08-10 10:55:11`;`2021-04-16 17:06:57`
`42`;`*`;`42`;`2021-08-10 10:55:11`;`2020-08-31 17:39:23`
`43`;`*`;`43`;`2021-08-10 10:55:11`;`2020-01-21 11:03:45`
`44`;`*`;`44`;`2021-08-10 10:55:11`;`2022-06-13 11:58:09`
`45`;`*`;`45`;`2021-08-10 10:55:11`;`2020-01-21 11:43:29`
`46`;`*`;`46`;`2021-08-10 10:55:11`;`2020-01-21 15:24:02`
`47`;`*`;`47`;`2021-08-10 10:55:11`;`2020-01-21 16:34:36`
`48`;`*`;`48`;`2021-08-10 10:55:11`;`2021-12-01 14:10:57`
`49`;`*`;`49`;`2021-08-10 10:55:11`;`2020-01-28 10:31:46`
`50`;`*`;`50`;`2021-08-10 10:55:11`;`2020-01-28 10:54:27`
`51`;`*`;`51`;`2021-08-10 10:55:11`;`2020-01-28 11:09:02`
`52`;`*`;`52`;`2021-08-10 10:55:11`;`2021-07-28 09:50:33`
`53`;`*`;`53`;`2021-08-10 10:55:11`;`2020-01-28 11:30:41`
`54`;`*`;`54`;`2021-08-10 10:55:11`;`2020-01-28 14:47:26`
`55`;`*`;`55`;`2021-08-10 10:55:11`;`2021-11-12 15:47:18`
`56`;`*`;`56`;`2021-08-10 10:55:11`;`2020-01-28 15:16:41`
`57`;`*`;`57`;`2021-08-10 10:55:11`;`2020-01-28 15:25:22`
`58`;`*`;`58`;`2021-08-10 10:55:11`;`2022-07-27 11:19:04`
`59`;`*`;`59`;`2021-08-10 10:55:11`;`2020-01-28 16:14:17`
`60`;`*`;`60`;`2021-08-10 10:55:11`;`2020-02-18 15:05:40`
`61`;`*`;`61`;`2021-08-10 10:55:11`;`2020-02-18 15:05:32`
`62`;`*`;`62`;`2021-08-10 10:55:11`;`2020-02-18 15:05:23`
`63`;`*`;`63`;`2021-08-10 10:55:11`;`2021-07-28 11:57:42`
`64`;`*`;`64`;`2021-08-10 10:55:11`;`2021-07-28 11:37:27`
`65`;`*`;`65`;`2021-08-10 10:55:11`;`2020-02-18 15:05:06`
`66`;`*`;`66`;`2021-08-10 10:55:11`;`2020-02-18 15:06:38`
`67`;`*`;`67`;`2021-08-10 10:55:11`;`2020-02-18 15:03:22`
`68`;`*`;`68`;`2021-08-10 10:55:11`;`2021-07-28 09:37:12`
`69`;`*`;`69`;`2021-08-10 10:55:11`;`2021-07-28 09:50:02`
`71`;`*`;`71`;`2021-08-10 10:55:11`;`2020-04-06 17:11:47`
`72`;`*`;`72`;`2021-08-10 10:55:11`;`2020-02-19 10:50:55`
`73`;`*`;`73`;`2021-08-10 10:55:11`;`2020-02-19 11:22:40`
`74`;`*`;`74`;`2021-08-10 10:55:11`;`2020-02-21 10:05:39`
`75`;`*`;`75`;`2021-08-10 10:55:11`;`2021-07-27 20:42:27`
`76`;`*`;`76`;`2021-08-10 10:55:11`;`2020-02-19 11:51:28`
`77`;`*`;`77`;`2021-08-10 10:55:11`;`2020-02-19 13:06:55`
`78`;`*`;`78`;`2021-08-10 10:55:11`;`2020-02-21 09:47:24`
`79`;`*`;`79`;`2021-08-10 10:55:11`;`2021-07-28 10:53:10`
`80`;`*`;`80`;`2021-08-10 10:55:11`;`2020-02-19 13:46:25`
`81`;`*`;`81`;`2021-08-10 10:55:11`;`2020-02-21 09:49:39`
`82`;`*`;`82`;`2021-08-10 10:55:11`;`2020-02-21 10:23:34`
`83`;`*`;`83`;`2021-08-10 10:55:11`;`2020-02-21 10:27:47`
`84`;`*`;`84`;`2021-08-10 10:55:11`;`2020-02-21 11:11:50`
`85`;`*`;`85`;`2021-08-10 10:55:11`;`2020-02-25 14:37:22`
`87`;`*`;`87`;`2021-08-10 10:55:11`;`2020-02-25 14:22:54`
`88`;`*`;`88`;`2021-08-10 10:55:11`;`2020-02-25 14:34:44`
`89`;`*`;`89`;`2021-08-10 10:55:11`;`2020-02-25 14:54:27`
`90`;`*`;`90`;`2021-08-10 10:55:11`;`2020-02-25 15:02:00`
`91`;`*`;`91`;`2021-08-10 10:55:11`;`2020-02-27 09:14:57`
`92`;`*`;`92`;`2021-08-10 10:55:11`;`2020-02-27 09:34:22`
`93`;`*`;`93`;`2021-08-10 10:55:11`;`2020-02-27 09:40:24`
`94`;`*`;`94`;`2021-08-10 10:55:11`;`2021-07-28 11:38:55`
`95`;`*`;`95`;`2021-08-10 10:55:11`;`2020-02-27 10:04:18`
`96`;`*`;`96`;`2021-08-10 10:55:11`;`2020-02-27 10:11:22`
`97`;`*`;`97`;`2021-08-10 10:55:11`;`2020-02-27 10:30:41`
`98`;`*`;`98`;`2021-08-10 10:55:11`;`2020-02-27 10:39:16`
`99`;`*`;`99`;`2021-08-10 10:55:11`;`2020-02-27 14:47:14`
`100`;`*`;`100`;`2021-08-10 10:55:11`;`2020-02-27 10:47:33`
`101`;`*`;`101`;`2021-08-10 10:55:11`;`2020-02-27 10:58:41`
`102`;`*`;`102`;`2021-08-10 10:55:11`;`2020-02-27 11:02:28`
`103`;`*`;`103`;`2021-08-10 10:55:11`;`2021-07-28 09:49:32`
`104`;`*`;`104`;`2021-08-10 10:55:11`;`2021-04-13 13:58:18`
`105`;`*`;`105`;`2021-08-10 10:55:11`;`2020-03-03 11:54:14`
`106`;`*`;`106`;`2021-08-10 10:55:11`;`2021-07-28 11:05:29`
`107`;`*`;`107`;`2021-08-10 10:55:11`;`2021-07-28 11:15:18`
`108`;`*`;`108`;`2021-08-10 10:55:11`;`2020-03-03 14:15:09`
`109`;`*`;`109`;`2021-08-10 10:55:11`;`2021-07-28 11:38:32`
`110`;`*`;`110`;`2021-08-10 10:55:11`;`2020-03-03 14:28:14`
`111`;`*`;`111`;`2021-08-10 10:55:11`;`2021-07-28 10:51:59`
`112`;`*`;`112`;`2021-08-10 10:55:11`;`2020-06-01 11:33:44`
`113`;`*`;`113`;`2021-08-10 10:55:11`;`2021-07-28 11:04:54`
`114`;`*`;`114`;`2021-08-10 10:55:11`;`2021-07-28 10:47:58`
`115`;`*`;`115`;`2021-08-10 10:55:11`;`2021-12-28 07:44:55`
`116`;`*`;`116`;`2021-08-10 10:55:11`;`2021-07-28 11:57:29`
`117`;`*`;`117`;`2021-08-10 10:55:11`;`2021-07-28 10:47:02`
`118`;`*`;`118`;`2021-08-10 10:55:11`;`2020-03-03 15:16:16`
`119`;`*`;`119`;`2021-08-10 10:55:11`;`2021-07-28 11:29:48`
`120`;`*`;`120`;`2021-08-10 10:55:11`;`2020-03-25 11:01:18`
`121`;`*`;`121`;`2021-08-10 10:55:11`;`2021-07-28 11:31:02`
`122`;`*`;`122`;`2021-08-10 10:55:11`;`2021-07-27 20:51:27`
`123`;`*`;`123`;`2021-08-10 10:55:11`;`2020-03-11 13:48:38`
`124`;`*`;`124`;`2021-08-10 10:55:11`;`2020-03-11 13:50:59`
`125`;`*`;`125`;`2021-08-10 10:55:11`;`2020-03-11 13:55:13`
`126`;`*`;`126`;`2021-08-10 10:55:11`;`2021-07-27 20:41:35`
`130`;`*`;`130`;`2021-08-10 10:55:11`;`2020-04-02 11:56:19`
`132`;`*`;`132`;`2021-08-10 10:55:11`;`2021-10-05 09:58:48`
`133`;`*`;`133`;`2021-08-10 10:55:11`;`2020-04-02 12:32:57`
`134`;`*`;`134`;`2021-08-10 10:55:11`;`2021-10-05 09:58:58`
`135`;`*`;`135`;`2021-08-10 10:55:11`;`2020-04-02 12:43:14`
`138`;`*`;`138`;`2021-08-10 10:55:11`;`2020-07-06 16:19:30`
`139`;`*`;`139`;`2021-08-10 10:55:11`;`2020-04-03 10:28:43`
`141`;`*`;`141`;`2021-08-10 10:55:11`;`2020-04-02 19:51:21`
`142`;`*`;`142`;`2021-08-10 10:55:11`;`2021-12-28 07:47:11`
`143`;`*`;`143`;`2021-08-10 10:55:11`;`2020-04-02 18:46:44`
`144`;`*`;`144`;`2021-08-10 10:55:11`;`2020-04-02 19:09:31`
`145`;`*`;`145`;`2021-08-10 10:55:11`;`2021-10-05 09:58:53`
`146`;`*`;`146`;`2021-08-10 10:55:11`;`2020-04-02 19:37:45`
`147`;`*`;`147`;`2021-08-10 10:55:11`;`2020-04-02 19:42:50`
`148`;`*`;`148`;`2021-08-10 10:55:11`;`2022-01-15 15:40:38`
`149`;`*`;`149`;`2021-08-10 10:55:11`;`2020-06-09 15:29:07`
`150`;`*`;`150`;`2021-08-10 10:55:11`;`2020-04-24 09:30:49`
`151`;`*`;`151`;`2021-08-10 10:55:11`;`2020-04-24 10:21:29`
`152`;`*`;`152`;`2021-08-10 10:55:11`;`2020-04-24 10:45:23`
`153`;`*`;`153`;`2021-08-10 10:55:11`;`2021-07-28 10:48:22`
`154`;`*`;`154`;`2021-08-10 10:55:11`;`2021-07-28 10:42:39`
`155`;`*`;`155`;`2021-08-10 10:55:11`;`2020-04-28 11:10:08`
`156`;`*`;`156`;`2021-08-10 10:55:11`;`2021-07-28 10:50:27`
`157`;`*`;`157`;`2021-08-10 10:55:11`;`2021-07-28 11:46:55`
`158`;`*`;`158`;`2021-08-10 10:55:11`;`2021-07-28 11:19:03`
`159`;`*`;`159`;`2021-08-10 10:55:11`;`2020-04-28 15:01:53`
`160`;`*`;`160`;`2021-08-10 10:55:11`;`2021-07-28 10:40:08`
`161`;`*`;`161`;`2021-08-10 10:55:11`;`2020-04-28 15:04:16`
`162`;`*`;`162`;`2021-08-10 10:55:11`;`2021-07-28 12:01:43`
`163`;`*`;`163`;`2021-08-10 10:55:11`;`2020-05-02 16:23:30`
`164`;`*`;`164`;`2021-08-10 10:55:11`;`2021-07-28 11:39:10`
`165`;`*`;`165`;`2021-08-10 10:55:11`;`2020-05-04 14:26:56`
`166`;`*`;`166`;`2021-08-10 10:55:11`;`2020-05-04 14:44:47`
`167`;`*`;`167`;`2021-08-10 10:55:11`;`2020-05-04 14:51:53`
`168`;`*`;`168`;`2021-08-10 10:55:11`;`2020-05-04 14:58:31`
`169`;`*`;`169`;`2021-08-10 10:55:11`;`2021-10-05 09:56:59`
`170`;`*`;`170`;`2021-08-10 10:55:11`;`2020-05-07 22:41:45`
`171`;`*`;`171`;`2021-08-10 10:55:11`;`2020-05-07 22:56:17`
`172`;`*`;`172`;`2021-08-10 10:55:11`;`2020-06-01 11:22:09`
`173`;`*`;`173`;`2021-08-10 10:55:11`;`2020-06-01 10:54:51`
`174`;`*`;`174`;`2021-08-10 10:55:11`;`2021-10-15 15:37:21`
`175`;`*`;`175`;`2021-08-10 10:55:11`;`2020-06-02 11:15:12`
`176`;`*`;`176`;`2021-08-10 10:55:11`;`2021-07-28 11:18:27`
`177`;`*`;`177`;`2021-08-10 10:55:11`;`2021-07-28 10:51:06`
`178`;`*`;`178`;`2021-08-10 10:55:11`;`2020-05-19 09:25:55`
`179`;`*`;`179`;`2021-08-10 10:55:11`;`2021-07-28 09:53:02`
`180`;`*`;`180`;`2021-08-10 10:55:11`;`2022-07-20 08:31:47`
`181`;`*`;`181`;`2021-08-10 10:55:11`;`2020-05-19 15:03:28`
`182`;`*`;`182`;`2021-08-10 10:55:11`;`2020-05-20 09:28:07`
`183`;`*`;`183`;`2021-08-10 10:55:11`;`2020-07-01 17:19:57`
`184`;`*`;`184`;`2021-08-10 10:55:11`;`2022-01-12 15:54:35`
`185`;`*`;`185`;`2021-08-10 10:55:11`;`2020-05-26 09:22:21`
`186`;`*`;`186`;`2021-08-10 10:55:11`;`2020-07-08 09:04:16`
`187`;`*`;`187`;`2021-08-10 10:55:11`;`2021-07-28 10:53:56`
`188`;`*`;`188`;`2021-08-10 10:55:11`;`2021-07-28 10:01:42`
`189`;`*`;`189`;`2021-08-10 10:55:11`;`2021-07-28 10:42:59`
`190`;`*`;`190`;`2021-08-10 10:55:11`;`2021-09-24 11:01:30`
`191`;`*`;`191`;`2021-08-10 10:55:11`;`2020-05-28 12:13:05`
`192`;`*`;`192`;`2021-08-10 10:55:11`;`2021-07-28 09:39:40`
`193`;`*`;`193`;`2021-08-10 10:55:11`;`2020-05-28 12:20:33`
`194`;`*`;`194`;`2021-08-10 10:55:11`;`2021-07-28 11:12:14`
`195`;`*`;`195`;`2021-08-10 10:55:11`;`2021-12-28 07:45:28`
`196`;`*`;`196`;`2021-08-10 10:55:11`;`2021-07-28 11:44:14`
`197`;`*`;`197`;`2021-08-10 10:55:11`;`2021-07-28 11:58:41`
`198`;`*`;`198`;`2021-08-10 10:55:11`;`2021-07-28 10:41:03`
`199`;`*`;`199`;`2021-08-10 10:55:11`;`2020-05-28 13:17:07`
`200`;`*`;`200`;`2021-08-10 10:55:11`;`2021-07-28 11:30:30`
`201`;`*`;`201`;`2021-08-10 10:55:11`;`2020-05-30 19:02:50`
`202`;`*`;`202`;`2021-08-10 10:55:11`;`2020-08-31 10:55:27`
`203`;`*`;`203`;`2021-08-10 10:55:11`;`2021-07-28 11:56:25`
`204`;`*`;`204`;`2021-08-10 10:55:11`;`2021-02-01 12:03:30`
`205`;`*`;`205`;`2021-08-10 10:55:11`;`2020-06-03 09:25:16`
`206`;`*`;`206`;`2021-08-10 10:55:11`;`2021-07-28 10:55:06`
`207`;`*`;`207`;`2021-08-10 10:55:11`;`2021-07-28 10:54:52`
`208`;`*`;`208`;`2021-08-10 10:55:11`;`2021-07-28 10:51:31`
`209`;`*`;`209`;`2021-08-10 10:55:11`;`2021-07-28 11:57:02`
`210`;`*`;`210`;`2021-08-10 10:55:11`;`2021-12-09 17:32:11`
`211`;`*`;`211`;`2021-08-10 10:55:11`;`2020-06-09 15:33:21`
`212`;`*`;`212`;`2021-08-10 10:55:11`;`2021-07-28 10:42:17`
`213`;`*`;`213`;`2021-08-10 10:55:11`;`2022-05-08 18:49:06`
`214`;`*`;`214`;`2021-08-10 10:55:11`;`2021-07-28 11:35:43`
`215`;`*`;`215`;`2021-08-10 10:55:11`;`2021-07-28 09:45:03`
`216`;`*`;`216`;`2021-08-10 10:55:11`;`2021-07-28 10:43:36`
`217`;`*`;`217`;`2021-08-10 10:55:11`;`2020-06-16 18:15:38`
`218`;`*`;`218`;`2021-08-10 10:55:11`;`2021-02-11 20:08:32`
`219`;`*`;`219`;`2021-08-10 10:55:11`;`2020-06-22 14:07:31`
`220`;`*`;`220`;`2021-08-10 10:55:11`;`2020-10-02 14:45:12`
`221`;`*`;`221`;`2021-08-10 10:55:11`;`2020-07-08 08:57:30`
`222`;`*`;`222`;`2021-08-10 10:55:11`;`2020-07-06 16:16:17`
`223`;`*`;`223`;`2021-08-10 10:55:11`;`2020-07-07 08:32:28`
`224`;`*`;`224`;`2021-08-10 10:55:11`;`2021-07-28 10:43:49`
`225`;`*`;`225`;`2021-08-10 10:55:11`;`2020-07-12 10:44:35`
`226`;`*`;`226`;`2021-08-10 10:55:11`;`2020-07-12 14:14:39`
`227`;`*`;`227`;`2021-08-10 10:55:11`;`2021-12-28 08:01:23`
`228`;`*`;`228`;`2021-08-10 10:55:11`;`2021-03-30 10:02:22`
`229`;`*`;`229`;`2021-08-10 10:55:11`;`2020-07-28 09:32:48`
`230`;`*`;`230`;`2021-08-10 10:55:11`;`2021-01-31 13:59:19`
`231`;`*`;`231`;`2021-08-10 10:55:11`;`2020-08-06 09:20:34`
`232`;`*`;`232`;`2021-08-10 10:55:11`;`2020-08-08 11:58:29`
`233`;`*`;`233`;`2021-08-10 10:55:11`;`2020-08-17 15:27:34`
`234`;`*`;`234`;`2021-08-10 10:55:11`;`2020-08-19 18:12:18`
`235`;`*`;`235`;`2021-08-10 10:55:11`;`2020-08-31 15:06:13`
`236`;`*`;`236`;`2021-08-10 10:55:11`;`2021-10-05 09:56:52`
`237`;`*`;`237`;`2021-08-10 10:55:11`;`2020-08-31 15:43:23`
`238`;`*`;`238`;`2021-08-10 10:55:11`;`2020-08-31 16:03:52`
`239`;`*`;`239`;`2021-08-10 10:55:11`;`2020-08-31 16:15:00`
`240`;`*`;`240`;`2021-08-10 10:55:11`;`2021-10-05 09:56:44`
`241`;`*`;`241`;`2021-08-10 10:55:11`;`2020-09-08 17:42:17`
`242`;`*`;`242`;`2021-08-10 10:55:11`;`2021-02-24 20:42:15`
`243`;`*`;`243`;`2021-08-10 10:55:11`;`2020-10-23 09:36:27`
`244`;`*`;`244`;`2021-08-10 10:55:11`;`2021-10-05 09:57:05`
`245`;`*`;`245`;`2021-08-10 10:55:11`;`2021-02-08 08:38:13`
`246`;`*`;`246`;`2021-08-10 10:55:11`;`2021-02-09 12:28:55`
`247`;`*`;`247`;`2021-08-10 10:55:11`;`2020-10-06 12:10:37`
`248`;`*`;`248`;`2021-08-10 10:55:11`;`2021-07-22 09:56:56`
`249`;`*`;`249`;`2021-08-10 10:55:11`;`2021-07-28 09:49:41`
`250`;`*`;`250`;`2021-08-10 10:55:11`;`2020-10-09 11:24:50`
`251`;`*`;`251`;`2021-08-10 10:55:11`;`2020-10-10 17:37:30`
`252`;`*`;`252`;`2021-08-10 10:55:11`;`2020-11-17 22:17:14`
`253`;`*`;`253`;`2021-08-10 10:55:11`;`2020-10-20 16:59:18`
`254`;`*`;`254`;`2021-08-10 10:55:11`;`2020-10-21 19:28:38`
`255`;`*`;`255`;`2021-08-10 10:55:11`;`2020-10-22 10:38:59`
`257`;`*`;`257`;`2021-08-10 10:55:11`;`2021-07-28 10:52:47`
`258`;`*`;`258`;`2021-08-10 10:55:11`;`2020-11-16 13:53:14`
`259`;`*`;`259`;`2021-08-10 10:55:11`;`2020-11-03 14:35:33`
`260`;`*`;`260`;`2021-08-10 10:55:11`;`2020-11-10 09:29:53`
`261`;`*`;`261`;`2021-08-10 10:55:11`;`2020-11-05 07:49:04`
`262`;`*`;`262`;`2021-08-10 10:55:11`;`2021-07-28 11:55:14`
`263`;`*`;`263`;`2021-08-10 10:55:11`;`2021-07-28 10:32:22`
`264`;`*`;`264`;`2021-08-10 10:55:11`;`2020-11-16 14:06:07`
`265`;`*`;`265`;`2021-08-10 10:55:11`;`2021-02-11 17:10:28`
`266`;`*`;`266`;`2021-08-10 10:55:11`;`2020-11-19 10:32:35`
`267`;`*`;`267`;`2021-08-10 10:55:11`;`2021-02-11 17:12:41`
`268`;`*`;`268`;`2021-08-10 10:55:11`;`2020-11-25 19:26:40`
`269`;`*`;`269`;`2021-08-10 10:55:11`;`2020-11-30 08:36:00`
`270`;`*`;`270`;`2021-08-10 10:55:11`;`2021-02-08 13:57:41`
`271`;`*`;`271`;`2021-08-10 10:55:11`;`2020-11-25 16:31:51`
`272`;`*`;`272`;`2021-08-10 10:55:11`;`2020-11-27 13:28:16`
`273`;`*`;`273`;`2021-08-10 10:55:11`;`2021-09-08 11:34:50`
`274`;`*`;`274`;`2021-08-10 10:55:11`;`2021-07-28 10:41:25`
`276`;`*`;`276`;`2021-08-10 10:55:11`;`2020-12-02 14:13:21`
`277`;`*`;`277`;`2021-08-10 10:55:11`;`2021-02-23 14:54:12`
`278`;`*`;`278`;`2021-08-10 10:55:11`;`2021-01-05 12:25:36`
`279`;`*`;`279`;`2021-08-10 10:55:11`;`2020-12-12 18:16:09`
`280`;`*`;`280`;`2021-08-10 10:55:11`;`2021-02-11 16:19:57`
`281`;`*`;`281`;`2021-08-10 10:55:11`;`2020-12-16 14:54:05`
`282`;`*`;`282`;`2021-08-10 10:55:11`;`2021-08-26 09:01:08`
`283`;`*`;`283`;`2021-08-10 10:55:11`;`2020-12-29 17:11:28`
`284`;`*`;`284`;`2021-08-10 10:55:11`;`2020-12-18 10:19:33`
`285`;`*`;`285`;`2021-08-10 10:55:11`;`2020-12-18 10:28:05`
`286`;`*`;`286`;`2021-08-10 10:55:11`;`2021-07-28 11:29:18`
`287`;`*`;`287`;`2021-08-10 10:55:11`;`2020-12-28 15:33:40`
`288`;`*`;`288`;`2021-08-10 10:55:11`;`2020-12-29 17:21:38`
`289`;`*`;`289`;`2021-08-10 10:55:11`;`2020-12-29 17:27:12`
`290`;`*`;`290`;`2021-08-10 10:55:11`;`2020-12-29 17:43:25`
`291`;`*`;`291`;`2021-08-10 10:55:11`;`2021-12-28 07:46:34`
`292`;`*`;`292`;`2021-08-10 10:55:11`;`2021-01-02 12:44:43`
`293`;`*`;`293`;`2021-08-10 10:55:11`;`2021-01-02 12:44:50`
`294`;`*`;`294`;`2021-08-10 10:55:11`;`2021-12-28 08:08:56`
`295`;`*`;`295`;`2021-08-10 10:55:11`;`2021-01-02 12:40:19`
`296`;`*`;`296`;`2021-08-10 10:55:11`;`2021-01-02 16:14:56`
`297`;`*`;`297`;`2021-08-10 10:55:11`;`2021-01-02 12:43:24`
`298`;`*`;`298`;`2021-08-10 10:55:11`;`2021-01-02 12:44:01`
`299`;`*`;`299`;`2021-08-10 10:55:11`;`2021-01-02 12:45:14`
`300`;`*`;`300`;`2021-08-10 10:55:11`;`2021-01-02 12:46:18`
`301`;`*`;`301`;`2021-08-10 10:55:11`;`2021-07-28 12:01:07`
`302`;`*`;`302`;`2021-08-10 10:55:11`;`2021-01-05 09:34:11`
`303`;`*`;`303`;`2021-08-10 10:55:11`;`2021-01-07 14:19:10`
`304`;`*`;`304`;`2021-08-10 10:55:11`;`2021-07-28 11:58:08`
`305`;`*`;`305`;`2021-08-10 10:55:11`;`2021-07-28 10:46:42`
`306`;`*`;`306`;`2021-08-10 10:55:11`;`2021-01-13 12:18:24`
`307`;`*`;`307`;`2021-08-10 10:55:11`;`2021-03-09 15:44:59`
`308`;`*`;`308`;`2021-08-10 10:55:11`;`2021-01-16 13:04:39`
`309`;`*`;`309`;`2021-08-10 10:55:11`;`2021-03-26 18:07:41`
`310`;`*`;`310`;`2021-08-10 10:55:11`;`2021-01-23 17:56:38`
`312`;`*`;`312`;`2021-08-10 10:55:11`;`2021-07-28 09:53:41`
`314`;`*`;`314`;`2021-08-10 10:55:11`;`2021-07-28 11:44:03`
`316`;`*`;`316`;`2021-08-10 10:55:11`;`2021-07-28 11:05:04`
`317`;`*`;`317`;`2021-08-10 10:55:11`;`2021-07-20 18:33:13`
`318`;`*`;`318`;`2021-08-10 10:55:11`;`2021-07-28 12:00:11`
`319`;`*`;`319`;`2021-08-10 10:55:11`;`2021-02-14 11:53:13`
`321`;`*`;`321`;`2021-08-10 10:55:11`;`2021-02-22 10:27:45`
`322`;`*`;`322`;`2021-08-10 10:55:11`;`2021-02-22 15:01:23`
`323`;`*`;`323`;`2021-08-10 10:55:11`;`2021-02-22 15:31:34`
`324`;`*`;`324`;`2021-08-10 10:55:11`;`2021-07-28 10:51:43`
`325`;`*`;`325`;`2021-08-10 10:55:11`;`2021-03-01 12:11:15`
`326`;`*`;`326`;`2021-08-10 10:55:11`;`2021-03-21 17:40:13`
`328`;`*`;`328`;`2021-08-10 10:55:11`;`2021-07-28 11:55:03`
`329`;`*`;`329`;`2021-08-10 10:55:11`;`2021-07-28 10:52:40`
`330`;`*`;`330`;`2021-08-10 10:55:11`;`2021-07-28 11:14:42`
`331`;`*`;`331`;`2021-08-10 10:55:11`;`2021-03-09 09:31:37`
`332`;`*`;`332`;`2021-08-10 10:55:11`;`2021-03-09 15:11:46`
`333`;`*`;`333`;`2021-08-10 10:55:11`;`2021-03-09 16:24:05`
`334`;`*`;`334`;`2021-08-10 10:55:11`;`2021-07-28 11:34:08`
`335`;`*`;`335`;`2021-08-10 10:55:11`;`2021-03-26 14:11:04`
`336`;`*`;`336`;`2021-08-10 10:55:11`;`2021-03-17 17:32:11`
`337`;`*`;`337`;`2021-08-10 10:55:11`;`2021-03-13 11:18:29`
`338`;`*`;`338`;`2021-08-10 10:55:11`;`2021-10-05 09:57:12`
`339`;`*`;`339`;`2021-08-10 10:55:11`;`2021-04-27 14:29:08`
`340`;`*`;`340`;`2021-08-10 10:55:11`;`2021-03-16 14:48:03`
`341`;`*`;`341`;`2021-08-10 10:55:11`;`2021-12-28 08:08:23`
`343`;`*`;`343`;`2021-08-10 10:55:11`;`2021-03-26 14:58:01`
`344`;`*`;`344`;`2021-08-10 10:55:11`;`2021-07-27 20:49:35`
`345`;`*`;`345`;`2021-08-10 10:55:11`;`2021-04-15 15:12:32`
`346`;`*`;`346`;`2021-08-10 10:55:11`;`2021-07-28 11:04:19`
`348`;`*`;`348`;`2021-08-10 10:55:11`;`2021-07-28 11:12:00`
`349`;`*`;`349`;`2021-08-10 10:55:11`;`2021-04-13 13:57:20`
`350`;`*`;`350`;`2021-08-10 10:55:11`;`2021-07-28 11:01:33`
`351`;`*`;`351`;`2021-08-10 10:55:11`;`2021-03-31 10:29:44`
`352`;`*`;`352`;`2021-08-10 10:55:11`;`2021-03-31 19:26:27`
`353`;`*`;`353`;`2021-08-10 10:55:11`;`2021-12-28 08:03:17`
`354`;`*`;`354`;`2021-08-10 10:55:11`;`2021-04-01 14:02:44`
`355`;`*`;`355`;`2021-08-10 10:55:11`;`2021-07-28 11:55:26`
`356`;`*`;`356`;`2021-08-10 10:55:11`;`2021-07-28 11:35:18`
`357`;`*`;`357`;`2021-08-10 10:55:11`;`2021-04-06 19:07:52`
`358`;`*`;`358`;`2021-08-10 10:55:11`;`2021-04-07 09:22:43`
`359`;`*`;`359`;`2021-08-10 10:55:11`;`2021-04-14 10:47:51`
`360`;`*`;`360`;`2021-08-10 10:55:11`;`2021-07-28 10:53:26`
`361`;`*`;`361`;`2021-08-10 10:55:11`;`2021-07-28 11:29:26`
`362`;`*`;`362`;`2021-08-10 10:55:11`;`2021-04-12 13:31:19`
`363`;`*`;`363`;`2021-08-10 10:55:11`;`2021-04-12 13:33:39`
`364`;`*`;`364`;`2021-08-10 10:55:11`;`2021-07-28 10:52:52`
`365`;`*`;`365`;`2021-08-10 10:55:11`;`2021-04-15 10:51:34`
`366`;`*`;`366`;`2021-08-10 10:55:11`;`2021-04-15 12:10:14`
`367`;`*`;`367`;`2021-08-10 10:55:11`;`2021-04-16 10:46:17`
`368`;`*`;`368`;`2021-08-10 10:55:11`;`2021-04-16 13:50:07`
`369`;`*`;`369`;`2021-08-10 10:55:11`;`2021-04-17 17:56:36`
`370`;`*`;`370`;`2021-08-10 10:55:11`;`2021-10-05 09:58:29`
`371`;`*`;`371`;`2021-08-10 10:55:11`;`2021-04-19 11:45:20`
`372`;`*`;`372`;`2021-08-10 10:55:11`;`2021-04-19 17:02:52`
`373`;`*`;`373`;`2021-08-10 10:55:11`;`2021-04-21 14:17:48`
`374`;`*`;`374`;`2021-08-10 10:55:11`;`2021-04-30 15:32:50`
`375`;`*`;`375`;`2021-08-10 10:55:11`;`2021-04-23 16:27:58`
`376`;`*`;`376`;`2021-08-10 10:55:11`;`2021-04-26 20:33:56`
`377`;`*`;`377`;`2021-08-10 10:55:11`;`2021-04-26 20:45:11`
`378`;`*`;`378`;`2021-08-10 10:55:11`;`2021-04-27 18:15:52`
`379`;`*`;`379`;`2021-08-10 10:55:11`;`2021-06-03 11:51:59`
`380`;`*`;`380`;`2021-08-10 10:55:11`;`2021-04-30 15:37:58`
`381`;`*`;`381`;`2021-08-10 10:55:11`;`2021-04-28 14:28:30`
`382`;`*`;`382`;`2021-08-10 10:55:11`;`2021-04-29 15:58:26`
`383`;`*`;`383`;`2021-08-10 10:55:11`;`2021-04-29 16:02:05`
`384`;`*`;`384`;`2021-08-10 10:55:11`;`2021-04-29 16:04:18`
`385`;`*`;`385`;`2021-08-10 10:55:11`;`2021-04-29 16:13:10`
`386`;`*`;`386`;`2021-08-10 10:55:11`;`2021-05-14 16:53:43`
`387`;`*`;`387`;`2021-08-10 10:55:11`;`2021-04-30 10:03:46`
`388`;`*`;`388`;`2021-08-10 10:55:11`;`2021-05-04 18:15:53`
`389`;`*`;`389`;`2021-08-10 10:55:11`;`2021-05-05 12:03:27`
`390`;`*`;`390`;`2021-08-10 10:55:11`;`2021-05-05 18:03:56`
`391`;`*`;`391`;`2021-08-10 10:55:11`;`2021-07-28 09:38:47`
`392`;`*`;`392`;`2021-08-10 10:55:11`;`2021-07-28 11:59:36`
`393`;`*`;`393`;`2021-08-10 10:55:11`;`2021-05-06 17:01:29`
`395`;`*`;`395`;`2021-08-10 10:55:11`;`2021-05-10 16:22:09`
`396`;`*`;`396`;`2021-08-10 10:55:11`;`2021-08-09 16:03:22`
`397`;`*`;`397`;`2021-08-10 10:55:11`;`2021-05-11 09:45:34`
`402`;`*`;`402`;`2021-08-10 10:55:11`;`2021-05-11 18:48:11`
`403`;`*`;`403`;`2021-08-10 10:55:11`;`2021-07-28 11:37:46`
`404`;`*`;`404`;`2021-08-10 10:55:11`;`2022-02-06 21:34:40`
`405`;`*`;`405`;`2021-08-10 10:55:11`;`2021-05-14 15:20:57`
`406`;`*`;`406`;`2021-08-10 10:55:11`;`2021-05-14 15:22:18`
`407`;`*`;`407`;`2021-08-10 10:55:11`;`2021-05-14 15:25:40`
`409`;`*`;`409`;`2021-08-10 10:55:11`;`2021-05-16 21:55:29`
`410`;`*`;`410`;`2021-08-10 10:55:11`;`2021-07-28 10:53:43`
`411`;`*`;`411`;`2021-08-10 10:55:11`;`2021-05-18 10:17:49`
`412`;`*`;`412`;`2021-08-10 10:55:11`;`2021-05-18 11:13:21`
`413`;`*`;`413`;`2021-08-10 10:55:11`;`2021-05-31 12:46:33`
`414`;`*`;`414`;`2021-08-10 10:55:11`;`2021-05-18 16:39:28`
`416`;`*`;`416`;`2021-08-10 10:55:11`;`2021-07-28 11:07:43`
`417`;`*`;`417`;`2021-08-10 10:55:11`;`2021-05-21 13:09:29`
`418`;`*`;`418`;`2021-08-10 10:55:11`;`2021-05-21 14:44:20`
`420`;`*`;`420`;`2021-08-10 10:55:11`;`2021-05-25 18:57:05`
`422`;`*`;`422`;`2021-08-10 10:55:11`;`2021-07-28 11:04:02`
`423`;`*`;`423`;`2021-08-10 10:55:11`;`2021-05-26 17:16:04`
`424`;`*`;`424`;`2021-08-10 10:55:11`;`2021-07-28 09:41:04`
`426`;`*`;`426`;`2021-08-10 10:55:11`;`2021-06-05 18:03:24`
`428`;`*`;`428`;`2021-08-10 10:55:11`;`2021-06-02 13:20:32`
`429`;`*`;`429`;`2021-08-10 10:55:11`;`2021-07-28 11:05:42`
`430`;`*`;`430`;`2021-08-10 10:55:11`;`2021-06-03 16:14:08`
`431`;`*`;`431`;`2021-08-10 10:55:11`;`2021-06-05 18:33:44`
`433`;`*`;`433`;`2021-08-10 10:55:11`;`2021-06-07 11:26:29`
`434`;`*`;`434`;`2021-08-10 10:55:11`;`2021-06-22 14:32:33`
`435`;`*`;`435`;`2021-08-10 10:55:11`;`2021-06-07 14:09:57`
`436`;`*`;`436`;`2021-08-10 10:55:11`;`2022-01-11 15:38:18`
`437`;`*`;`437`;`2021-08-10 10:55:11`;`2021-06-07 18:16:23`
`438`;`*`;`438`;`2021-08-10 10:55:11`;`2021-06-08 17:33:44`
`439`;`*`;`439`;`2021-08-10 10:55:11`;`2022-01-11 15:37:00`
`440`;`*`;`440`;`2021-08-10 10:55:11`;`2021-06-10 12:33:11`
`443`;`*`;`443`;`2021-08-10 10:55:11`;`2021-06-14 15:27:51`
`444`;`*`;`444`;`2021-08-10 10:55:11`;`2021-06-14 08:52:57`
`445`;`*`;`445`;`2021-08-10 10:55:11`;`2021-06-15 11:26:50`
`446`;`*`;`446`;`2021-08-10 10:55:11`;`2021-06-16 09:52:48`
`447`;`*`;`447`;`2021-08-10 10:55:11`;`2021-06-16 14:19:59`
`448`;`*`;`448`;`2021-08-10 10:55:11`;`2021-07-27 15:14:51`
`451`;`*`;`451`;`2021-08-10 10:55:11`;`2022-07-05 14:18:41`
`452`;`*`;`452`;`2021-08-10 10:55:11`;`2021-10-05 10:01:04`
`453`;`*`;`453`;`2021-08-10 10:55:11`;`2021-07-28 11:12:49`
`454`;`*`;`454`;`2021-08-10 10:55:11`;`2021-06-21 12:18:41`
`455`;`*`;`455`;`2021-08-10 10:55:11`;`2021-06-22 15:01:38`
`458`;`*`;`458`;`2021-08-10 10:55:11`;`2021-06-23 20:51:35`
`460`;`*`;`460`;`2021-08-10 10:55:11`;`2021-06-27 13:35:14`
`463`;`*`;`463`;`2021-08-10 10:55:11`;`2021-08-12 17:39:25`
`465`;`*`;`465`;`2021-08-10 10:55:11`;`2021-07-28 11:12:33`
`466`;`*`;`466`;`2021-08-10 10:55:11`;`2021-07-05 09:28:57`
`475`;`*`;`475`;`2021-08-10 10:55:11`;`2021-07-28 10:40:47`
`508`;`*`;`508`;`2021-08-10 10:55:11`;`2021-07-12 14:35:27`
`509`;`*`;`509`;`2021-08-10 10:55:11`;`2021-07-12 15:33:48`
`515`;`*`;`515`;`2021-08-10 10:55:11`;`2021-07-13 09:57:33`
`516`;`*`;`516`;`2021-08-10 10:55:11`;`2021-12-28 08:00:05`
`517`;`*`;`517`;`2021-08-10 10:55:11`;`2021-07-28 11:45:16`
`518`;`*`;`518`;`2021-08-10 10:55:11`;`2021-07-28 10:35:45`
`519`;`*`;`519`;`2021-08-10 10:55:11`;`2021-09-02 09:08:46`
`520`;`*`;`520`;`2021-08-10 10:55:11`;`2021-07-20 00:00:00`
`532`;`*`;`532`;`2021-08-10 10:55:11`;`2021-07-24 11:14:03`
`533`;`*`;`533`;`2021-08-10 10:55:11`;`2021-07-25 17:06:59`
`534`;`*`;`534`;`2021-08-10 10:55:11`;`2021-07-26 09:11:58`
`535`;`*`;`535`;`2021-08-10 10:55:11`;`2021-07-26 13:49:24`
`536`;`*`;`536`;`2021-08-10 10:55:11`;`2021-07-27 15:08:47`
`538`;`*`;`538`;`2021-08-10 10:55:11`;`2021-07-27 15:11:16`
`539`;`*`;`539`;`2021-08-10 10:55:11`;`2021-07-27 15:14:34`
`540`;`*`;`540`;`2021-08-10 10:55:11`;`2021-07-27 15:14:42`
`541`;`*`;`541`;`2021-08-10 10:55:11`;`2021-07-27 15:13:12`
`542`;`*`;`542`;`2021-08-10 10:55:11`;`2021-07-27 15:13:44`
`543`;`*`;`543`;`2021-08-10 10:55:11`;`2021-07-27 15:14:09`
`544`;`*`;`544`;`2021-08-10 10:55:11`;`2021-07-27 15:41:47`
`545`;`*`;`545`;`2021-08-10 10:55:11`;`2021-07-27 15:53:42`
`546`;`*`;`546`;`2021-08-10 10:55:11`;`2021-07-27 15:53:33`
`547`;`*`;`547`;`2021-08-10 10:55:11`;`2021-08-02 11:22:22`
`548`;`*`;`548`;`2021-08-10 10:55:11`;`2021-07-27 15:59:16`
`549`;`*`;`549`;`2021-08-10 10:55:11`;`2021-07-27 16:32:31`
`550`;`*`;`550`;`2021-08-10 10:55:11`;`2021-07-27 16:35:19`
`551`;`*`;`551`;`2021-08-10 10:55:11`;`2021-07-27 16:36:50`
`552`;`*`;`552`;`2021-08-10 10:55:11`;`2021-07-27 16:39:23`
`553`;`*`;`553`;`2021-08-10 10:55:11`;`2021-07-27 16:40:53`
`554`;`*`;`554`;`2021-08-10 10:55:11`;`2021-07-27 16:42:16`
`555`;`*`;`555`;`2021-08-10 10:55:11`;`2021-07-27 16:43:59`
`556`;`*`;`556`;`2021-08-10 10:55:11`;`2021-07-27 16:45:35`
`557`;`*`;`557`;`2021-08-10 10:55:11`;`2021-07-27 16:47:10`
`558`;`*`;`558`;`2021-08-10 10:55:11`;`2021-07-27 16:47:48`
`559`;`*`;`559`;`2021-08-10 10:55:11`;`2021-07-27 16:49:47`
`560`;`*`;`560`;`2021-08-10 10:55:11`;`2021-07-27 16:55:09`
`561`;`*`;`561`;`2021-08-10 10:55:11`;`2021-07-27 17:08:01`
`562`;`*`;`562`;`2021-08-10 10:55:11`;`2021-07-27 17:10:30`
`563`;`*`;`563`;`2021-08-10 10:55:11`;`2021-07-27 17:14:25`
`564`;`*`;`564`;`2021-08-10 10:55:11`;`2021-07-27 17:16:00`
`565`;`*`;`565`;`2021-08-10 10:55:11`;`2021-07-27 17:17:33`
`566`;`*`;`566`;`2021-08-10 10:55:11`;`2021-07-28 11:58:27`
`567`;`*`;`567`;`2021-08-10 10:55:11`;`2021-07-27 17:25:47`
`568`;`*`;`568`;`2021-08-10 10:55:11`;`2021-07-27 17:27:12`
`569`;`*`;`569`;`2021-08-10 10:55:11`;`2021-07-27 17:29:05`
`570`;`*`;`570`;`2021-08-10 10:55:11`;`2021-07-27 17:31:20`
`571`;`*`;`571`;`2021-08-10 10:55:11`;`2021-07-27 17:32:22`
`572`;`*`;`572`;`2021-08-10 10:55:11`;`2021-07-27 17:33:18`
`573`;`*`;`573`;`2021-08-10 10:55:11`;`2021-07-27 20:36:50`
`574`;`*`;`574`;`2021-08-10 10:55:11`;`2021-07-28 12:21:31`
`575`;`*`;`575`;`2021-08-10 10:55:11`;`2021-07-28 13:45:58`
`576`;`*`;`576`;`2021-08-10 10:55:11`;`2021-07-28 13:47:53`
`577`;`*`;`577`;`2021-08-10 10:55:11`;`2021-07-28 13:49:26`
`578`;`*`;`578`;`2021-08-10 10:55:11`;`2021-07-28 13:51:05`
`579`;`*`;`579`;`2021-08-10 10:55:11`;`2021-07-28 13:52:14`
`580`;`*`;`580`;`2021-08-10 10:55:11`;`2021-07-28 13:56:32`
`581`;`*`;`581`;`2021-08-10 10:55:11`;`2021-07-28 13:54:55`
`582`;`*`;`582`;`2021-08-10 10:55:11`;`2021-07-29 08:10:45`
`583`;`*`;`583`;`2021-08-10 10:55:11`;`2021-07-29 08:35:11`
`584`;`*`;`584`;`2021-08-10 10:55:11`;`2021-07-29 09:24:15`
`585`;`*`;`585`;`2021-08-10 10:55:11`;`2021-07-29 10:48:48`
`586`;`*`;`586`;`2021-08-10 10:55:11`;`2021-11-24 14:29:40`
`587`;`*`;`587`;`2021-08-10 10:55:11`;`2021-07-31 17:19:06`
`588`;`*`;`588`;`2021-08-10 10:55:11`;`2021-08-02 14:24:25`
`589`;`*`;`589`;`2021-08-10 10:55:11`;`2021-08-02 14:38:42`
`590`;`*`;`590`;`2021-08-10 10:55:11`;`2021-08-02 14:43:03`
`591`;`*`;`591`;`2021-08-10 10:55:11`;`2021-08-02 14:59:09`
`592`;`*`;`592`;`2021-08-10 10:55:11`;`2021-08-02 15:00:55`
`593`;`*`;`593`;`2021-08-10 10:55:11`;`2021-08-02 15:02:38`
`594`;`*`;`594`;`2021-08-10 10:55:11`;`2021-08-02 15:04:18`
`595`;`*`;`595`;`2021-08-10 10:55:11`;`2021-08-02 15:12:20`
`597`;`*`;`597`;`2021-08-10 10:55:11`;`2021-08-03 15:06:50`
`598`;`*`;`598`;`2021-08-10 10:55:11`;`2021-08-04 15:23:14`
`599`;`*`;`599`;`2021-08-10 10:55:11`;`2021-08-04 18:15:01`
`600`;`*`;`600`;`2021-08-10 10:55:11`;`2021-08-04 18:18:59`
`601`;`*`;`601`;`2021-08-10 10:55:11`;`2021-08-12 10:13:12`
`602`;`*`;`602`;`2021-08-10 10:55:11`;`2021-08-05 13:23:02`
`603`;`*`;`603`;`2021-08-10 10:55:11`;`2021-08-06 11:55:03`
`604`;`*`;`604`;`2021-08-10 10:55:11`;`2021-08-06 14:31:39`
`605`;`*`;`605`;`2021-08-10 10:55:11`;`2021-08-06 16:25:14`
`606`;`*`;`606`;`2021-08-10 10:55:11`;`2021-08-09 08:53:50`
`607`;`*`;`607`;`2021-08-10 10:55:11`;`2021-08-09 16:05:00`
`608`;`*`;`608`;`2021-08-10 10:55:11`;`2021-08-09 20:30:06`
`609`;`*`;`609`;`2021-08-10 10:55:11`;`2021-08-10 03:31:32`
`610`;`*`;`610`;`2021-08-10 10:55:11`;`2021-08-10 09:20:27`
`611`;`*`;`611`;`2021-08-11 18:14:35`;`2021-08-11 18:14:35`
`612`;`*`;`612`;`2021-08-12 09:42:54`;`2021-08-12 09:42:54`
`614`;`*`;`614`;`2021-08-13 12:35:09`;`2021-08-13 12:35:09`
`615`;`*`;`615`;`2021-08-16 12:34:02`;`2021-08-16 12:34:02`
`616`;`*`;`616`;`2021-08-17 08:53:58`;`2021-08-17 08:53:58`
`617`;`*`;`617`;`2021-08-17 18:31:40`;`2021-08-17 18:31:40`
`618`;`*`;`618`;`2021-08-19 19:05:13`;`2021-08-19 19:05:13`
`619`;`*`;`619`;`2021-08-19 19:18:23`;`2021-08-19 19:18:23`
`621`;`*`;`621`;`2021-08-23 09:27:32`;`2021-08-23 09:27:32`
`622`;`*`;`622`;`2021-08-25 09:59:11`;`2021-08-25 09:59:11`
`623`;`*`;`623`;`2021-08-25 12:02:21`;`2021-09-01 08:05:29`
`625`;`*`;`625`;`2021-08-30 12:48:28`;`2021-08-30 12:48:28`
`626`;`*`;`626`;`2021-08-30 12:49:48`;`2021-10-12 16:55:49`
`627`;`*`;`627`;`2021-09-01 13:23:14`;`2021-09-01 13:23:14`
`628`;`*`;`628`;`2021-09-03 17:19:47`;`2021-09-03 17:19:47`
`629`;`*`;`629`;`2021-09-05 17:05:29`;`2021-09-05 17:05:29`
`630`;`*`;`630`;`2021-09-07 12:25:21`;`2021-09-07 12:25:21`
`631`;`*`;`631`;`2021-09-07 21:53:51`;`2021-09-07 21:53:51`
`632`;`*`;`632`;`2021-09-08 09:48:28`;`2021-09-08 09:48:28`
`633`;`*`;`633`;`2021-09-08 11:52:06`;`2021-09-08 11:52:06`
`634`;`*`;`634`;`2021-09-08 14:55:07`;`2021-09-08 14:55:07`
`636`;`*`;`636`;`2021-09-13 09:38:19`;`2021-09-13 09:38:19`
`637`;`*`;`637`;`2021-09-13 11:15:09`;`2021-09-13 11:15:09`
`638`;`*`;`638`;`2021-09-13 14:47:32`;`2022-06-24 11:45:42`
`639`;`*`;`639`;`2021-09-13 14:48:17`;`2021-09-13 14:48:17`
`640`;`*`;`640`;`2021-09-13 18:26:51`;`2021-09-13 18:26:51`
`641`;`*`;`641`;`2021-09-14 15:31:46`;`2021-09-14 15:31:46`
`642`;`*`;`642`;`2021-09-14 17:10:32`;`2021-09-14 17:10:32`
`643`;`*`;`643`;`2021-09-14 18:41:04`;`2021-09-14 18:41:04`
`644`;`*`;`644`;`2021-09-15 20:20:51`;`2021-09-15 20:20:51`
`645`;`*`;`645`;`2021-09-16 10:05:30`;`2021-09-16 10:05:30`
`646`;`*`;`646`;`2021-09-16 10:41:05`;`2021-09-16 10:41:05`
`647`;`*`;`647`;`2021-09-20 20:17:02`;`2021-09-20 20:17:02`
`648`;`*`;`648`;`2021-09-22 16:58:22`;`2021-09-22 16:58:22`
`649`;`*`;`649`;`2021-09-22 20:11:00`;`2021-09-22 20:11:00`
`650`;`*`;`650`;`2021-09-24 05:10:23`;`2021-09-24 05:10:23`
`651`;`*`;`651`;`2021-09-26 12:40:32`;`2021-09-26 12:40:32`
`652`;`*`;`652`;`2021-09-27 00:18:00`;`2021-09-27 00:18:00`
`653`;`*`;`653`;`2021-09-27 17:16:45`;`2021-11-01 19:50:38`
`654`;`*`;`654`;`2021-09-28 09:40:14`;`2021-09-28 09:40:14`
`656`;`*`;`656`;`2021-09-28 14:07:10`;`2021-09-28 14:07:10`
`657`;`*`;`657`;`2021-09-29 16:47:11`;`2021-09-29 16:47:11`
`658`;`*`;`658`;`2021-09-30 11:26:21`;`2021-09-30 11:26:21`
`659`;`*`;`659`;`2021-09-30 23:06:38`;`2021-09-30 23:06:38`
`667`;`*`;`667`;`2021-10-02 11:15:08`;`2021-10-02 11:15:08`
`668`;`*`;`668`;`2021-10-04 10:36:02`;`2021-10-04 10:36:02`
`669`;`*`;`669`;`2021-10-04 13:50:42`;`2021-10-04 13:50:42`
`671`;`*`;`671`;`2021-10-04 14:51:43`;`2021-10-04 18:33:38`
`672`;`*`;`672`;`2021-10-05 10:07:06`;`2021-10-05 10:07:06`
`673`;`*`;`673`;`2021-10-05 15:48:16`;`2022-02-19 13:58:26`
`674`;`*`;`674`;`2021-10-05 16:08:18`;`2021-10-05 16:08:18`
`675`;`*`;`675`;`2021-10-06 09:12:43`;`2021-10-06 09:12:43`
`676`;`*`;`676`;`2021-10-07 11:28:56`;`2021-10-07 11:28:56`
`677`;`*`;`677`;`2021-10-07 16:32:09`;`2021-10-07 16:32:09`
`678`;`*`;`678`;`2021-10-07 18:04:22`;`2021-10-07 18:04:22`
`679`;`*`;`679`;`2021-10-08 09:25:08`;`2021-12-17 11:07:06`
`680`;`*`;`680`;`2021-10-08 14:12:52`;`2021-10-12 13:42:23`
`681`;`*`;`681`;`2021-10-08 15:26:16`;`2021-10-08 15:26:16`
`682`;`*`;`682`;`2021-10-08 15:30:50`;`2021-10-14 10:36:45`
`683`;`*`;`683`;`2021-10-08 16:57:10`;`2021-10-08 16:57:10`
`684`;`*`;`684`;`2021-10-10 16:03:56`;`2021-10-10 16:03:56`
`685`;`*`;`685`;`2021-10-10 19:31:30`;`2021-10-10 19:31:30`
`686`;`*`;`686`;`2021-10-12 12:41:03`;`2022-01-18 11:12:30`
`687`;`*`;`687`;`2021-10-13 10:36:34`;`2021-10-13 10:36:34`
`688`;`*`;`688`;`2021-10-14 15:42:43`;`2021-10-14 15:42:43`
`689`;`*`;`689`;`2021-10-14 16:13:28`;`2021-10-14 16:13:28`
`690`;`*`;`690`;`2021-10-15 10:47:28`;`2021-10-15 10:47:28`
`691`;`*`;`691`;`2021-10-18 16:24:23`;`2021-11-07 19:12:58`
`692`;`*`;`692`;`2021-10-19 15:03:10`;`2021-10-19 15:03:10`
`693`;`*`;`693`;`2021-10-19 16:02:21`;`2021-10-19 16:02:21`
`696`;`*`;`696`;`2021-10-21 06:06:49`;`2021-10-21 06:06:49`
`697`;`*`;`697`;`2021-10-21 16:57:09`;`2021-10-21 16:57:09`
`698`;`*`;`698`;`2021-10-21 17:18:01`;`2021-10-21 17:18:01`
`699`;`*`;`699`;`2021-10-21 17:32:17`;`2021-10-21 17:32:17`
`701`;`*`;`701`;`2021-10-23 02:00:01`;`2021-10-23 02:00:01`
`703`;`*`;`703`;`2021-10-25 13:32:53`;`2021-10-25 13:32:53`
`704`;`*`;`704`;`2021-10-25 21:37:24`;`2021-12-28 08:03:58`
`705`;`*`;`705`;`2021-10-28 17:59:55`;`2021-10-28 17:59:55`
`707`;`*`;`707`;`2021-10-29 14:46:54`;`2021-12-28 08:02:21`
`708`;`*`;`708`;`2021-10-31 18:55:22`;`2021-10-31 18:55:22`
`709`;`*`;`709`;`2021-11-01 17:59:07`;`2021-11-01 17:59:07`
`710`;`*`;`710`;`2021-11-03 15:16:52`;`2021-11-03 15:16:52`
`712`;`*`;`712`;`2021-11-06 11:14:36`;`2021-11-06 11:14:36`
`713`;`*`;`713`;`2021-11-07 19:57:36`;`2021-11-07 19:57:36`
`714`;`*`;`714`;`2021-11-07 20:07:03`;`2021-11-07 20:07:03`
`715`;`*`;`715`;`2021-11-08 09:37:40`;`2021-11-08 09:37:40`
`716`;`*`;`716`;`2021-11-08 21:37:10`;`2021-11-08 21:37:10`
`717`;`*`;`717`;`2021-11-08 21:47:51`;`2021-11-08 21:47:51`
`718`;`*`;`718`;`2021-11-09 14:42:42`;`2021-11-09 14:42:42`
`719`;`*`;`719`;`2021-11-12 08:25:20`;`2021-11-12 08:25:20`
`720`;`*`;`720`;`2021-11-14 15:23:36`;`2021-12-28 08:04:25`
`721`;`*`;`721`;`2021-11-14 16:07:54`;`2022-04-06 08:51:13`
`722`;`*`;`722`;`2021-11-15 11:22:09`;`2021-12-28 08:07:27`
`723`;`*`;`723`;`2021-11-15 13:47:53`;`2021-11-15 13:47:53`
`724`;`*`;`724`;`2021-11-16 13:36:58`;`2021-11-16 13:36:58`
`725`;`*`;`725`;`2021-11-23 14:13:47`;`2021-11-23 14:13:47`
`726`;`*`;`726`;`2021-11-24 14:37:43`;`2021-11-24 14:37:43`
`728`;`*`;`728`;`2021-11-28 18:43:26`;`2021-11-28 18:43:26`
`729`;`*`;`729`;`2021-11-29 14:57:15`;`2021-11-29 14:57:15`
`730`;`*`;`730`;`2021-11-29 16:23:27`;`2021-11-29 16:23:27`
`731`;`*`;`731`;`2021-11-30 22:15:14`;`2021-11-30 22:15:14`
`734`;`*`;`734`;`2021-12-06 16:19:11`;`2021-12-06 16:46:26`
`735`;`*`;`735`;`2021-12-06 18:04:34`;`2021-12-06 18:04:34`
`736`;`*`;`736`;`2021-12-08 10:08:52`;`2021-12-08 10:08:52`
`737`;`*`;`737`;`2021-12-08 17:45:27`;`2021-12-08 17:45:27`
`738`;`*`;`738`;`2021-12-09 16:47:17`;`2021-12-09 16:47:17`
`740`;`*`;`740`;`2021-12-16 11:24:51`;`2021-12-16 11:24:51`
`741`;`*`;`741`;`2021-12-16 15:46:31`;`2021-12-16 15:52:30`
`742`;`*`;`742`;`2021-12-20 21:52:25`;`2021-12-20 21:52:25`
`743`;`*`;`743`;`2021-12-21 13:29:33`;`2021-12-21 13:29:33`
`745`;`*`;`745`;`2021-12-26 08:36:19`;`2021-12-26 08:36:19`
`746`;`*`;`746`;`2021-12-29 16:01:56`;`2021-12-29 16:01:56`
`748`;`*`;`748`;`2022-01-04 11:06:06`;`2022-01-04 11:06:06`
`749`;`*`;`749`;`2022-01-04 12:44:12`;`2022-01-04 12:44:12`
`750`;`*`;`750`;`2022-01-04 15:21:26`;`2022-01-04 15:21:26`
`751`;`*`;`751`;`2022-01-07 09:16:58`;`2022-01-07 09:16:58`
`752`;`*`;`752`;`2022-01-07 09:24:33`;`2022-01-07 09:24:33`
`753`;`*`;`753`;`2022-01-07 15:12:05`;`2022-01-07 15:12:05`
`754`;`*`;`754`;`2022-01-10 16:11:00`;`2022-01-10 16:11:00`
`755`;`*`;`755`;`2022-01-11 09:37:51`;`2022-01-11 09:37:51`
`756`;`*`;`756`;`2022-01-11 14:31:05`;`2022-01-11 14:31:05`
`757`;`*`;`757`;`2022-01-12 08:38:56`;`2022-01-28 11:24:42`
`758`;`*`;`758`;`2022-01-13 12:08:02`;`2022-01-13 12:08:02`
`759`;`*`;`759`;`2022-01-13 18:17:41`;`2022-01-13 18:17:41`
`760`;`*`;`760`;`2022-01-15 20:14:50`;`2022-01-15 20:14:50`
`761`;`*`;`761`;`2022-01-17 12:07:24`;`2022-01-17 12:07:24`
`762`;`*`;`762`;`2022-01-18 01:49:07`;`2022-01-18 01:49:07`
`763`;`*`;`763`;`2022-01-18 11:42:05`;`2022-01-18 11:42:05`
`764`;`*`;`764`;`2022-01-19 10:30:39`;`2022-01-19 11:41:17`
`765`;`*`;`765`;`2022-01-19 15:19:17`;`2022-01-19 15:19:17`
`766`;`*`;`766`;`2022-01-19 23:56:49`;`2022-01-19 23:56:49`
`768`;`*`;`768`;`2022-01-21 11:48:00`;`2022-01-21 11:48:00`
`769`;`*`;`769`;`2022-01-22 17:39:51`;`2022-01-22 17:39:51`
`772`;`*`;`772`;`2022-01-25 18:42:52`;`2022-01-25 18:42:52`
`773`;`*`;`773`;`2022-01-25 19:14:08`;`2022-01-25 19:14:54`
`775`;`*`;`775`;`2022-01-26 10:05:36`;`2022-01-26 10:05:36`
`776`;`*`;`776`;`2022-01-27 17:05:50`;`2022-01-27 17:05:50`
`777`;`*`;`777`;`2022-01-28 11:58:19`;`2022-01-28 11:58:19`
`778`;`*`;`778`;`2022-01-31 09:33:24`;`2022-01-31 09:33:24`
`779`;`*`;`779`;`2022-02-02 14:07:21`;`2022-02-02 14:07:21`
`780`;`*`;`780`;`2022-02-02 15:04:08`;`2022-02-02 15:04:08`
`781`;`*`;`781`;`2022-02-02 15:06:25`;`2022-02-02 15:06:25`
`782`;`*`;`782`;`2022-02-02 17:42:49`;`2022-02-02 17:42:49`
`783`;`*`;`783`;`2022-02-03 00:03:29`;`2022-02-03 00:03:29`
`784`;`*`;`784`;`2022-02-04 07:40:02`;`2022-02-04 07:40:02`
`785`;`*`;`785`;`2022-02-06 16:36:20`;`2022-02-06 16:36:20`
`786`;`*`;`786`;`2022-02-06 16:42:50`;`2022-02-06 16:42:50`
`788`;`*`;`788`;`2022-02-08 12:45:22`;`2022-02-08 12:45:22`
`789`;`*`;`789`;`2022-02-08 22:31:15`;`2022-02-08 22:31:15`
`790`;`*`;`790`;`2022-02-09 14:11:23`;`2022-02-09 14:11:23`
`791`;`*`;`791`;`2022-02-09 19:22:10`;`2022-02-09 19:22:10`
`793`;`*`;`793`;`2022-02-10 11:54:43`;`2022-02-10 11:54:43`
`795`;`*`;`795`;`2022-02-11 09:46:51`;`2022-02-11 09:46:51`
`796`;`*`;`796`;`2022-02-11 11:50:54`;`2022-02-11 11:50:54`
`797`;`*`;`797`;`2022-02-11 11:57:56`;`2022-02-11 11:57:56`
`799`;`*`;`799`;`2022-02-23 15:51:07`;`2022-02-23 15:51:07`
`800`;`*`;`800`;`2022-02-23 19:32:52`;`2022-02-23 19:32:52`
`801`;`*`;`801`;`2022-02-23 23:50:17`;`2022-02-23 23:50:17`
`802`;`*`;`802`;`2022-02-24 09:59:39`;`2022-02-24 09:59:39`
`803`;`*`;`803`;`2022-02-24 15:53:58`;`2022-02-24 15:53:58`
`804`;`*`;`804`;`2022-02-26 12:32:47`;`2022-02-26 12:32:47`
`805`;`*`;`805`;`2022-02-26 23:38:24`;`2022-02-26 23:38:24`
`806`;`*`;`806`;`2022-02-28 17:26:19`;`2022-03-03 15:27:09`
`807`;`*`;`807`;`2022-02-28 17:34:17`;`2022-02-28 17:34:17`
`809`;`*`;`809`;`2022-03-07 04:53:10`;`2022-03-07 04:53:10`
`810`;`*`;`810`;`2022-03-07 14:05:21`;`2022-03-07 14:05:21`
`811`;`*`;`811`;`2022-03-08 10:48:19`;`2022-03-08 10:48:19`
`813`;`*`;`813`;`2022-03-10 10:56:31`;`2022-03-10 10:56:31`
`815`;`*`;`815`;`2022-03-14 12:18:30`;`2022-03-14 12:18:30`
`816`;`*`;`816`;`2022-03-15 10:25:31`;`2022-03-15 10:25:31`
`817`;`*`;`817`;`2022-03-15 12:44:34`;`2022-03-15 12:44:34`
`818`;`*`;`818`;`2022-03-15 14:31:25`;`2022-03-15 14:31:25`
`819`;`*`;`819`;`2022-03-17 18:49:30`;`2022-03-17 18:49:30`
`820`;`*`;`820`;`2022-03-17 22:14:17`;`2022-03-17 22:14:17`
`821`;`*`;`821`;`2022-03-18 11:34:59`;`2022-03-18 11:34:59`
`822`;`*`;`822`;`2022-03-18 15:24:02`;`2022-03-18 15:24:02`
`823`;`*`;`823`;`2022-03-21 09:15:04`;`2022-04-01 14:31:05`
`824`;`*`;`824`;`2022-03-21 11:41:13`;`2022-03-21 11:41:13`
`825`;`*`;`825`;`2022-03-22 09:44:24`;`2022-03-22 09:44:24`
`826`;`*`;`826`;`2022-03-22 14:38:41`;`2022-03-22 14:38:41`
`828`;`*`;`828`;`2022-03-24 09:52:59`;`2022-03-24 09:52:59`
`830`;`*`;`830`;`2022-03-26 22:55:03`;`2022-03-26 22:55:03`
`832`;`*`;`832`;`2022-03-27 19:08:56`;`2022-03-28 21:26:57`
`835`;`*`;`835`;`2022-03-28 16:26:32`;`2022-03-28 16:26:32`
`836`;`*`;`836`;`2022-03-28 20:19:44`;`2022-03-28 20:19:44`
`837`;`*`;`837`;`2022-03-29 14:22:03`;`2022-03-30 08:53:24`
`840`;`*`;`840`;`2022-03-30 15:28:16`;`2022-03-30 15:28:16`
`841`;`*`;`841`;`2022-03-31 11:55:32`;`2022-04-05 18:30:20`
`842`;`*`;`842`;`2022-04-01 17:44:55`;`2022-04-01 17:44:55`
`846`;`*`;`846`;`2022-04-04 10:09:10`;`2022-05-12 08:54:24`
`847`;`*`;`847`;`2022-04-04 10:25:21`;`2022-04-04 10:25:21`
`848`;`*`;`848`;`2022-04-04 11:29:49`;`2022-04-04 11:29:49`
`849`;`*`;`849`;`2022-04-05 11:33:30`;`2022-04-05 11:33:30`
`850`;`*`;`850`;`2022-04-05 11:36:32`;`2022-04-05 11:36:32`
`851`;`*`;`851`;`2022-04-05 11:38:22`;`2022-04-05 11:38:22`
`852`;`*`;`852`;`2022-04-05 11:45:09`;`2022-04-05 11:45:09`
`853`;`*`;`853`;`2022-04-05 11:48:43`;`2022-04-05 11:48:43`
`854`;`*`;`854`;`2022-04-05 11:53:13`;`2022-04-05 11:53:13`
`855`;`*`;`855`;`2022-04-05 12:14:38`;`2022-04-05 12:14:38`
`856`;`*`;`856`;`2022-04-05 12:16:55`;`2022-04-05 12:16:55`
`857`;`*`;`857`;`2022-04-05 12:20:56`;`2022-04-05 12:20:56`
`858`;`*`;`858`;`2022-04-05 12:23:09`;`2022-04-05 12:23:09`
`859`;`*`;`859`;`2022-04-05 12:26:55`;`2022-04-05 12:26:55`
`860`;`*`;`860`;`2022-04-05 12:29:15`;`2022-04-05 12:29:15`
`861`;`*`;`861`;`2022-04-05 12:31:17`;`2022-04-05 12:31:17`
`862`;`*`;`862`;`2022-04-05 12:34:11`;`2022-04-05 12:34:11`
`863`;`*`;`863`;`2022-04-05 13:36:50`;`2022-04-06 08:58:04`
`864`;`*`;`864`;`2022-04-05 13:39:10`;`2022-04-05 13:39:10`
`865`;`*`;`865`;`2022-04-05 13:42:13`;`2022-04-05 13:42:13`
`866`;`*`;`866`;`2022-04-05 13:49:20`;`2022-04-05 13:49:20`
`867`;`*`;`867`;`2022-04-05 13:51:54`;`2022-04-05 13:51:54`
`868`;`*`;`868`;`2022-04-05 13:53:51`;`2022-04-05 13:53:51`
`869`;`*`;`869`;`2022-04-05 13:56:32`;`2022-04-05 13:56:32`
`870`;`*`;`870`;`2022-04-05 14:04:29`;`2022-04-05 14:04:29`
`871`;`*`;`871`;`2022-04-06 08:58:54`;`2022-04-06 08:58:54`
`872`;`*`;`872`;`2022-04-06 09:06:44`;`2022-04-06 09:06:44`
`873`;`*`;`873`;`2022-04-06 09:09:05`;`2022-04-06 09:09:05`
`874`;`*`;`874`;`2022-04-06 09:24:50`;`2022-04-06 09:24:50`
`875`;`*`;`875`;`2022-04-06 09:27:46`;`2022-04-06 09:27:46`
`876`;`*`;`876`;`2022-04-06 09:30:16`;`2022-04-06 09:30:16`
`877`;`*`;`877`;`2022-04-06 09:34:10`;`2022-04-06 09:34:10`
`878`;`*`;`878`;`2022-04-06 09:36:48`;`2022-04-06 09:36:48`
`879`;`*`;`879`;`2022-04-06 09:54:13`;`2022-04-06 09:54:13`
`880`;`*`;`880`;`2022-04-06 10:58:12`;`2022-04-06 10:58:12`
`881`;`*`;`881`;`2022-04-06 11:23:18`;`2022-04-06 11:23:18`
`882`;`*`;`882`;`2022-04-06 11:49:46`;`2022-04-06 11:49:46`
`884`;`*`;`884`;`2022-04-09 10:10:59`;`2022-04-09 10:10:59`
`885`;`*`;`885`;`2022-04-10 08:36:18`;`2022-04-10 08:36:18`
`886`;`*`;`886`;`2022-04-12 10:45:58`;`2022-04-12 10:45:58`
`887`;`*`;`887`;`2022-04-12 13:27:04`;`2022-04-12 13:27:04`
`888`;`*`;`888`;`2022-04-13 11:06:31`;`2022-04-13 11:06:31`
`889`;`*`;`889`;`2022-04-13 12:39:29`;`2022-04-13 12:39:29`
`890`;`*`;`890`;`2022-04-13 17:42:08`;`2022-04-13 17:42:08`
`891`;`*`;`891`;`2022-04-15 15:49:48`;`2022-04-15 15:49:48`
`892`;`*`;`892`;`2022-04-15 17:21:03`;`2022-04-15 17:21:03`
`894`;`*`;`894`;`2022-04-18 19:49:48`;`2022-04-18 19:49:48`
`895`;`*`;`895`;`2022-04-19 17:21:33`;`2022-04-19 18:11:44`
`896`;`*`;`896`;`2022-04-20 10:48:49`;`2022-04-20 10:48:49`
`897`;`*`;`897`;`2022-04-20 13:17:54`;`2022-04-20 13:17:54`
`898`;`*`;`898`;`2022-04-20 15:04:33`;`2022-04-20 15:04:33`
`899`;`*`;`899`;`2022-04-20 15:56:26`;`2022-04-20 15:56:26`
`900`;`*`;`900`;`2022-04-20 18:26:52`;`2022-04-22 17:58:05`
`901`;`*`;`901`;`2022-04-21 15:11:25`;`2022-04-21 15:11:25`
`902`;`*`;`902`;`2022-04-21 16:44:41`;`2022-04-21 16:44:41`
`903`;`*`;`903`;`2022-04-21 16:59:48`;`2022-04-23 08:40:27`
`904`;`*`;`904`;`2022-04-22 09:56:53`;`2022-04-22 09:56:53`
`905`;`*`;`905`;`2022-04-22 10:07:26`;`2022-04-22 10:07:26`
`906`;`*`;`906`;`2022-04-22 12:14:16`;`2022-04-22 12:14:16`
`908`;`*`;`908`;`2022-04-23 13:17:36`;`2022-04-23 13:17:36`
`909`;`*`;`909`;`2022-04-24 10:03:28`;`2022-04-24 10:03:28`
`910`;`*`;`910`;`2022-04-25 11:14:20`;`2022-04-25 11:14:20`
`911`;`*`;`911`;`2022-04-25 11:31:16`;`2022-04-25 11:31:16`
`913`;`*`;`913`;`2022-04-25 14:46:07`;`2022-04-25 14:46:07`
`914`;`*`;`914`;`2022-04-26 16:37:58`;`2022-04-26 16:37:58`
`915`;`*`;`915`;`2022-04-26 16:47:44`;`2022-04-26 16:47:44`
`916`;`*`;`916`;`2022-04-26 19:12:31`;`2022-04-26 19:12:31`
`917`;`*`;`917`;`2022-04-26 20:15:56`;`2022-04-26 20:15:56`
`918`;`*`;`918`;`2022-04-28 11:15:58`;`2022-04-28 11:15:58`
`920`;`*`;`920`;`2022-04-28 17:41:33`;`2022-04-28 17:41:33`
`921`;`*`;`921`;`2022-04-29 05:03:43`;`2022-04-29 05:03:43`
`922`;`*`;`922`;`2022-04-29 14:58:43`;`2022-04-29 14:58:43`
`923`;`*`;`923`;`2022-04-30 02:41:11`;`2022-04-30 02:41:11`
`924`;`*`;`924`;`2022-04-30 13:22:11`;`2022-04-30 13:22:11`
`925`;`*`;`925`;`2022-04-30 13:59:52`;`2022-04-30 13:59:52`
`926`;`*`;`926`;`2022-05-04 18:36:11`;`2022-05-04 19:04:54`
`927`;`*`;`927`;`2022-05-05 07:31:34`;`2022-05-05 07:31:34`
`928`;`*`;`928`;`2022-05-05 08:40:44`;`2022-05-05 08:40:44`
`929`;`*`;`929`;`2022-05-06 05:23:10`;`2022-05-06 05:23:10`
`930`;`*`;`930`;`2022-05-06 13:43:02`;`2022-05-06 13:43:02`
`931`;`*`;`931`;`2022-05-06 13:45:52`;`2022-05-06 13:45:52`
`932`;`*`;`932`;`2022-05-07 03:04:51`;`2022-07-16 14:26:06`
`933`;`*`;`933`;`2022-05-07 10:15:13`;`2022-05-07 10:15:13`
`934`;`*`;`934`;`2022-05-08 15:56:34`;`2022-05-20 08:44:45`
`935`;`*`;`935`;`2022-05-09 15:04:58`;`2022-05-09 15:04:58`
`936`;`*`;`936`;`2022-05-09 18:02:39`;`2022-05-09 18:02:39`
`937`;`*`;`937`;`2022-05-09 20:52:39`;`2022-07-16 14:20:45`
`938`;`*`;`938`;`2022-05-10 06:30:36`;`2022-05-10 06:30:36`
`939`;`*`;`939`;`2022-05-10 11:40:33`;`2022-05-10 11:40:33`
`940`;`*`;`940`;`2022-05-10 15:28:04`;`2022-05-10 15:28:04`
`941`;`*`;`941`;`2022-05-10 16:34:10`;`2022-05-10 16:34:10`
`942`;`*`;`942`;`2022-05-10 21:41:54`;`2022-05-10 21:41:54`
`943`;`*`;`943`;`2022-05-11 01:09:26`;`2022-05-11 01:09:26`
`944`;`*`;`944`;`2022-05-12 12:20:35`;`2022-05-12 12:20:35`
`945`;`*`;`945`;`2022-05-12 15:46:30`;`2022-05-12 15:46:30`
`946`;`*`;`946`;`2022-05-13 10:53:52`;`2022-05-13 10:53:52`
`947`;`*`;`947`;`2022-05-13 17:37:44`;`2022-05-13 17:37:44`
`948`;`*`;`948`;`2022-05-13 17:58:33`;`2022-05-13 17:58:33`
`949`;`*`;`949`;`2022-05-14 16:47:27`;`2022-05-14 16:47:27`
`951`;`*`;`951`;`2022-05-17 07:52:23`;`2022-05-17 07:52:23`
`952`;`*`;`952`;`2022-05-17 14:22:22`;`2022-05-25 08:49:05`
`953`;`*`;`953`;`2022-05-19 15:06:10`;`2022-05-19 15:06:10`
`954`;`*`;`954`;`2022-05-19 18:22:16`;`2022-08-02 09:33:35`
`957`;`*`;`957`;`2022-05-22 00:33:05`;`2022-05-22 00:33:05`
`958`;`*`;`958`;`2022-05-23 08:43:33`;`2022-05-23 08:43:33`
`959`;`*`;`959`;`2022-05-23 12:59:33`;`2022-05-23 12:59:33`
`962`;`*`;`962`;`2022-05-23 16:35:46`;`2022-06-03 15:09:06`
`965`;`*`;`965`;`2022-05-25 10:14:59`;`2022-05-25 10:14:59`
`966`;`*`;`966`;`2022-05-30 07:21:38`;`2022-05-30 07:21:38`
`967`;`*`;`967`;`2022-05-31 09:11:00`;`2022-05-31 09:11:00`
`969`;`*`;`969`;`2022-06-06 21:49:33`;`2022-07-06 11:52:08`
`970`;`*`;`970`;`2022-06-09 17:02:02`;`2022-06-09 17:02:02`
`971`;`*`;`971`;`2022-06-09 18:48:45`;`2022-06-09 18:48:45`
`972`;`*`;`972`;`2022-06-10 11:50:56`;`2022-06-10 11:50:56`
`973`;`*`;`973`;`2022-06-17 14:01:33`;`2022-06-17 14:01:33`
`974`;`*`;`974`;`2022-06-18 08:53:34`;`2022-06-18 08:53:34`
`975`;`*`;`975`;`2022-06-18 10:28:14`;`2022-06-18 10:28:14`
`976`;`*`;`976`;`2022-06-18 10:46:54`;`2022-06-18 10:46:54`
`977`;`*`;`977`;`2022-06-18 12:32:34`;`2022-06-18 12:32:34`
`978`;`*`;`978`;`2022-06-18 13:54:46`;`2022-06-18 13:54:46`
`979`;`*`;`979`;`2022-06-18 14:41:03`;`2022-06-18 14:41:03`
`980`;`*`;`980`;`2022-06-18 19:10:54`;`2022-07-05 09:12:55`
`981`;`*`;`981`;`2022-06-18 19:51:02`;`2022-06-28 21:01:10`
`982`;`*`;`982`;`2022-06-19 18:55:02`;`2022-07-05 14:31:38`
`983`;`*`;`983`;`2022-06-19 20:33:30`;`2022-06-19 20:33:30`
`984`;`*`;`984`;`2022-06-19 22:12:25`;`2022-06-19 22:12:25`
`985`;`*`;`985`;`2022-06-20 10:47:30`;`2022-06-20 10:47:30`
`986`;`*`;`986`;`2022-06-20 15:45:55`;`2022-06-20 15:45:55`
`987`;`*`;`987`;`2022-06-21 11:30:09`;`2022-06-21 11:30:09`
`988`;`*`;`988`;`2022-06-21 11:33:26`;`2022-06-21 11:33:26`
`989`;`*`;`989`;`2022-06-22 11:28:18`;`2022-06-22 11:28:18`
`990`;`*`;`990`;`2022-06-22 12:53:34`;`2022-06-22 12:53:34`
`991`;`*`;`991`;`2022-06-22 13:29:22`;`2022-06-22 13:29:22`
`992`;`*`;`992`;`2022-06-22 17:01:04`;`2022-06-22 17:01:04`
`993`;`*`;`993`;`2022-06-23 09:48:28`;`2022-06-23 09:48:28`
`994`;`*`;`994`;`2022-06-23 11:48:37`;`2022-06-23 11:48:37`
`995`;`*`;`995`;`2022-06-23 13:17:30`;`2022-06-23 13:17:30`
`996`;`*`;`996`;`2022-06-23 13:56:51`;`2022-06-23 13:56:51`
`997`;`*`;`997`;`2022-06-23 17:56:19`;`2022-06-23 17:56:19`
`998`;`*`;`998`;`2022-06-23 18:12:06`;`2022-06-23 18:12:06`
`999`;`*`;`999`;`2022-06-24 01:47:33`;`2022-06-24 01:47:33`
`1000`;`*`;`1000`;`2022-06-24 08:25:47`;`2022-06-24 08:25:47`
`1001`;`*`;`1001`;`2022-06-24 08:39:55`;`2022-06-24 08:39:55`
`1002`;`*`;`1002`;`2022-06-24 16:36:57`;`2022-06-24 16:36:57`
`1003`;`*`;`1003`;`2022-06-25 10:57:29`;`2022-06-25 10:57:29`
`1004`;`*`;`1004`;`2022-06-25 11:52:45`;`2022-06-25 11:52:45`
`1005`;`*`;`1005`;`2022-06-25 12:40:44`;`2022-06-25 12:40:44`
`1006`;`*`;`1006`;`2022-06-25 15:24:31`;`2022-06-25 15:24:31`
`1007`;`*`;`1007`;`2022-06-25 19:04:55`;`2022-06-25 19:04:55`
`1008`;`*`;`1008`;`2022-06-27 08:21:01`;`2022-06-27 08:21:01`
`1009`;`*`;`1009`;`2022-06-27 09:22:04`;`2022-06-27 09:22:04`
`1010`;`*`;`1010`;`2022-06-27 15:59:58`;`2022-06-27 15:59:58`
`1011`;`*`;`1011`;`2022-06-27 19:03:04`;`2022-06-27 19:03:04`
`1012`;`*`;`1012`;`2022-06-28 16:28:31`;`2022-06-28 16:28:31`
`1013`;`*`;`1013`;`2022-06-28 18:20:07`;`2022-06-28 18:20:07`
`1014`;`*`;`1014`;`2022-06-29 10:48:49`;`2022-06-29 10:48:49`
`1015`;`*`;`1015`;`2022-06-29 12:43:23`;`2022-06-29 12:43:23`
`1016`;`*`;`1016`;`2022-06-30 11:00:39`;`2022-06-30 11:00:39`
`1017`;`*`;`1017`;`2022-07-01 09:55:34`;`2022-07-01 09:55:34`
`1018`;`*`;`1018`;`2022-07-01 12:13:17`;`2022-07-01 12:13:17`
`1019`;`*`;`1019`;`2022-07-01 14:15:59`;`2022-07-01 14:15:59`
`1020`;`*`;`1020`;`2022-07-01 14:37:05`;`2022-07-01 14:37:05`
`1021`;`*`;`1021`;`2022-07-01 16:31:39`;`2022-07-01 16:31:39`
`1022`;`*`;`1022`;`2022-07-01 18:13:22`;`2022-07-01 18:13:22`
`1023`;`*`;`1023`;`2022-07-02 11:27:44`;`2022-07-02 11:27:44`
`1024`;`*`;`1024`;`2022-07-02 11:45:27`;`2022-07-02 11:45:27`
`1025`;`*`;`1025`;`2022-07-02 12:15:58`;`2022-07-02 12:15:58`
`1026`;`*`;`1026`;`2022-07-02 12:31:40`;`2022-07-02 12:31:40`
`1027`;`*`;`1027`;`2022-07-02 16:24:53`;`2022-07-02 16:24:53`
`1028`;`*`;`1028`;`2022-07-02 16:45:01`;`2022-07-02 16:45:01`
`1029`;`*`;`1029`;`2022-07-04 15:40:28`;`2022-07-04 15:40:28`
`1030`;`*`;`1030`;`2022-07-05 08:35:37`;`2022-07-05 08:35:37`
`1031`;`*`;`1031`;`2022-07-05 10:23:52`;`2022-07-05 10:23:52`
`1032`;`*`;`1032`;`2022-07-05 10:29:45`;`2022-07-05 10:29:45`
`1033`;`*`;`1033`;`2022-07-05 10:38:07`;`2022-07-05 10:38:07`
`1034`;`*`;`1034`;`2022-07-05 10:38:36`;`2022-07-05 10:38:36`
`1035`;`*`;`1035`;`2022-07-05 12:21:02`;`2022-07-05 12:21:02`
`1036`;`*`;`1036`;`2022-07-05 12:40:16`;`2022-07-05 12:40:16`
`1037`;`*`;`1037`;`2022-07-05 15:22:44`;`2022-07-05 15:22:44`
`1038`;`*`;`1038`;`2022-07-05 18:04:41`;`2022-07-05 18:04:41`
`1039`;`*`;`1039`;`2022-07-05 19:13:15`;`2022-07-05 19:13:15`
`1040`;`*`;`1040`;`2022-07-06 09:09:26`;`2022-07-06 09:09:26`
`1041`;`*`;`1041`;`2022-07-06 10:46:20`;`2022-07-06 10:46:20`
`1042`;`*`;`1042`;`2022-07-06 13:02:25`;`2022-07-06 13:02:25`
`1043`;`*`;`1043`;`2022-07-06 16:16:34`;`2022-07-14 18:34:13`
`1044`;`*`;`1044`;`2022-07-06 16:50:48`;`2022-07-06 16:50:48`
`1045`;`*`;`1045`;`2022-07-07 10:34:27`;`2022-07-07 10:34:27`
`1046`;`*`;`1046`;`2022-07-07 11:14:29`;`2022-08-02 18:10:56`
`1047`;`*`;`1047`;`2022-07-07 12:19:22`;`2022-07-07 12:19:22`
`1048`;`*`;`1048`;`2022-07-07 14:29:13`;`2022-07-07 14:29:13`
`1049`;`*`;`1049`;`2022-07-07 18:34:18`;`2022-07-07 18:34:18`
`1050`;`*`;`1050`;`2022-07-08 10:01:55`;`2022-07-08 10:01:55`
`1051`;`*`;`1051`;`2022-07-08 11:42:54`;`2022-07-08 11:42:54`
`1052`;`*`;`1052`;`2022-07-09 11:13:31`;`2022-07-09 11:13:31`
`1053`;`*`;`1053`;`2022-07-09 12:11:33`;`2022-07-09 12:11:33`
`1054`;`*`;`1054`;`2022-07-09 13:13:30`;`2022-07-09 13:13:30`
`1055`;`*`;`1055`;`2022-07-09 13:30:04`;`2022-07-09 13:30:04`
`1056`;`*`;`1056`;`2022-07-09 16:31:38`;`2022-07-09 16:31:38`
`1057`;`*`;`1057`;`2022-07-09 17:16:05`;`2022-07-09 17:16:05`
`1058`;`*`;`1058`;`2022-07-11 20:42:53`;`2022-07-11 20:42:53`
`1059`;`*`;`1059`;`2022-07-11 21:24:56`;`2022-07-11 21:24:56`
`1060`;`*`;`1060`;`2022-07-11 21:41:04`;`2022-07-11 21:41:04`
`1061`;`*`;`1061`;`2022-07-12 08:15:46`;`2022-07-12 08:15:46`
`1062`;`*`;`1062`;`2022-07-12 10:26:40`;`2022-07-12 10:26:40`
`1063`;`*`;`1063`;`2022-07-12 10:28:59`;`2022-07-12 10:28:59`
`1064`;`*`;`1064`;`2022-07-12 10:40:01`;`2022-07-12 10:40:01`
`1065`;`*`;`1065`;`2022-07-12 11:14:21`;`2022-07-12 11:14:21`
`1066`;`*`;`1066`;`2022-07-12 14:28:52`;`2022-07-12 14:28:52`
`1067`;`*`;`1067`;`2022-07-12 18:29:48`;`2022-07-12 18:29:48`
`1068`;`*`;`1068`;`2022-07-13 14:57:05`;`2022-07-13 14:57:05`
`1069`;`*`;`1069`;`2022-07-14 10:24:20`;`2022-07-14 10:24:20`
`1070`;`*`;`1070`;`2022-07-14 10:39:16`;`2022-07-14 10:39:16`
`1071`;`*`;`1071`;`2022-07-14 15:52:43`;`2022-07-14 15:52:43`
`1072`;`*`;`1072`;`2022-07-14 18:19:36`;`2022-07-14 18:19:36`
`1073`;`*`;`1073`;`2022-07-14 18:25:45`;`2022-07-14 18:25:45`
`1074`;`*`;`1074`;`2022-07-14 18:46:50`;`2022-07-14 18:46:50`
`1075`;`*`;`1075`;`2022-07-14 19:07:11`;`2022-07-14 19:07:11`
`1076`;`*`;`1076`;`2022-07-15 08:09:19`;`2022-07-15 08:09:19`
`1077`;`*`;`1077`;`2022-07-15 14:20:11`;`2022-07-15 14:20:11`
`1078`;`*`;`1078`;`2022-07-15 17:28:59`;`2022-07-15 17:28:59`
`1079`;`*`;`1079`;`2022-07-15 17:38:54`;`2022-07-15 17:38:54`
`1080`;`*`;`1080`;`2022-07-16 09:42:29`;`2022-07-16 09:42:29`
`1081`;`*`;`1081`;`2022-07-16 10:51:15`;`2022-07-16 10:51:15`
`1082`;`*`;`1082`;`2022-07-16 12:17:01`;`2022-07-16 12:17:01`
`1083`;`*`;`1083`;`2022-07-16 12:52:34`;`2022-07-16 12:52:34`
`1084`;`*`;`1084`;`2022-07-16 13:16:46`;`2022-07-16 13:16:46`
`1085`;`*`;`1085`;`2022-07-16 17:51:54`;`2022-07-16 17:51:54`
`1086`;`*`;`1086`;`2022-07-18 10:32:54`;`2022-07-18 10:32:54`
`1087`;`*`;`1087`;`2022-07-18 16:04:33`;`2022-07-18 16:04:33`
`1088`;`*`;`1088`;`2022-07-19 08:14:58`;`2022-07-19 08:14:58`
`1089`;`*`;`1089`;`2022-07-19 12:13:40`;`2022-07-19 12:13:40`
`1090`;`*`;`1090`;`2022-07-20 15:37:30`;`2022-07-20 15:37:30`
`1091`;`*`;`1091`;`2022-07-20 16:24:55`;`2022-07-20 16:24:55`
`1092`;`*`;`1092`;`2022-07-20 18:06:52`;`2022-07-20 18:06:52`
`1093`;`*`;`1093`;`2022-07-22 10:39:57`;`2022-07-22 10:39:57`
`1094`;`*`;`1094`;`2022-07-22 15:09:23`;`2022-07-22 15:09:23`
`1095`;`*`;`1095`;`2022-07-22 15:43:35`;`2022-07-22 15:43:35`
`1096`;`*`;`1096`;`2022-07-22 16:53:08`;`2022-07-22 16:53:08`
`1097`;`*`;`1097`;`2022-07-23 08:50:22`;`2022-07-23 08:50:22`
`1098`;`*`;`1098`;`2022-07-23 12:01:13`;`2022-07-23 12:01:13`
`1099`;`*`;`1099`;`2022-07-23 13:56:53`;`2022-07-23 13:56:53`
`1100`;`*`;`1100`;`2022-07-23 15:07:11`;`2022-07-23 15:07:11`
`1101`;`*`;`1101`;`2022-07-23 15:54:29`;`2022-07-23 15:54:29`
`1102`;`*`;`1102`;`2022-07-23 16:32:07`;`2022-07-23 16:32:07`
`1103`;`*`;`1103`;`2022-07-23 17:13:31`;`2022-07-23 17:13:31`
`1104`;`*`;`1104`;`2022-07-23 17:50:54`;`2022-07-23 17:50:54`
`1105`;`*`;`1105`;`2022-07-23 18:44:22`;`2022-07-23 18:44:22`
`1106`;`*`;`1106`;`2022-07-26 09:00:18`;`2022-07-26 09:00:18`
`1107`;`*`;`1107`;`2022-07-26 09:48:08`;`2022-07-26 09:48:08`
`1108`;`*`;`1108`;`2022-07-26 11:12:45`;`2022-07-26 11:12:45`
`1109`;`*`;`1109`;`2022-07-26 11:47:37`;`2022-07-26 11:47:37`
`1110`;`*`;`1110`;`2022-07-26 11:53:57`;`2022-07-26 11:53:57`
`1111`;`*`;`1111`;`2022-07-26 17:28:55`;`2022-07-26 17:28:55`
`1112`;`*`;`1112`;`2022-07-27 09:33:04`;`2022-07-27 09:33:04`
`1113`;`*`;`1113`;`2022-07-27 09:38:15`;`2022-07-27 09:44:54`
`1114`;`*`;`1114`;`2022-07-27 12:50:37`;`2022-07-27 12:50:37`
`1115`;`*`;`1115`;`2022-07-27 13:22:21`;`2022-07-27 13:22:21`
`1116`;`*`;`1116`;`2022-07-27 14:09:13`;`2022-07-27 14:09:13`
`1117`;`*`;`1117`;`2022-07-28 09:20:13`;`2022-07-28 09:20:13`
`1118`;`*`;`1118`;`2022-07-28 11:09:00`;`2022-07-28 11:09:00`
`1119`;`*`;`1119`;`2022-07-28 16:09:39`;`2022-07-28 16:09:39`
`1120`;`*`;`1120`;`2022-07-28 16:43:02`;`2022-07-28 16:43:02`
`1121`;`*`;`1121`;`2022-07-28 17:13:14`;`2022-07-28 17:13:14`
`1122`;`*`;`1122`;`2022-07-28 17:40:48`;`2022-07-28 17:40:48`
`1123`;`*`;`1123`;`2022-07-29 08:37:27`;`2022-07-29 08:37:27`
`1124`;`*`;`1124`;`2022-07-29 09:12:23`;`2022-07-29 09:12:23`
`1125`;`*`;`1125`;`2022-07-29 10:29:55`;`2022-07-29 10:29:55`
`1126`;`*`;`1126`;`2022-07-29 10:55:45`;`2022-07-29 10:55:45`
`1127`;`*`;`1127`;`2022-07-30 13:32:03`;`2022-07-30 13:32:03`
`1128`;`*`;`1128`;`2022-07-30 13:42:00`;`2022-07-30 13:42:00`
`1129`;`*`;`1129`;`2022-07-30 15:31:00`;`2022-07-30 15:31:00`
`1130`;`*`;`1130`;`2022-07-30 16:10:54`;`2022-07-30 16:10:54`
`1131`;`*`;`1131`;`2022-08-01 10:58:04`;`2022-08-03 11:09:02`
`1132`;`*`;`1132`;`2022-08-02 11:28:24`;`2022-08-02 11:28:24`
`1133`;`*`;`1133`;`2022-08-02 12:22:44`;`2022-08-02 12:22:44`
`1134`;`*`;`1134`;`2022-08-02 12:35:19`;`2022-08-02 12:35:19`
`1135`;`*`;`1135`;`2022-08-02 13:04:23`;`2022-08-02 13:04:23`
`1136`;`*`;`1136`;`2022-08-02 15:00:15`;`2022-08-02 15:00:15`
`1137`;`*`;`1137`;`2022-08-02 16:53:22`;`2022-08-02 16:53:22`
`1138`;`*`;`1138`;`2022-08-02 17:39:50`;`2022-08-02 17:39:50`
`1139`;`*`;`1139`;`2022-08-02 19:07:20`;`2022-08-02 19:07:20`
`1140`;`*`;`1140`;`2022-08-02 19:55:06`;`2022-08-02 19:55:06`
`1141`;`*`;`1141`;`2022-08-03 14:18:01`;`2022-08-03 14:18:01`
`1142`;`*`;`1142`;`2022-08-03 15:58:43`;`2022-08-03 15:58:43`
`1143`;`*`;`1143`;`2022-08-04 09:00:18`;`2022-08-04 09:00:18`
